0,0,0,0,0,0,0,0,0,0,0,0,0
0.855
0,0,0,0,0,0,0,0,0,0,0,0,1
1.329
0,0,0,0,0,0,0,0,0,0,0,1,0
1.555
0,0,0,0,0,0,0,0,0,0,0,1,1
1.975
0,0,0,0,0,0,0,0,0,0,1,0,0
0.89
0,0,0,0,0,0,0,0,0,0,1,0,1
1.312
0,0,0,0,0,0,0,0,0,0,1,1,0
1.613
0,0,0,0,0,0,0,0,0,0,1,1,1
1.918
0,0,0,0,0,0,0,0,0,1,0,0,0
1.475
0,0,0,0,0,0,0,0,0,1,0,0,1
1.866
0,0,0,0,0,0,0,0,0,1,0,1,0
2.115
0,0,0,0,0,0,0,0,0,1,0,1,1
2.536
0,0,0,0,0,0,0,0,0,1,1,0,0
1.422
0,0,0,0,0,0,0,0,0,1,1,0,1
1.821
0,0,0,0,0,0,0,0,0,1,1,1,0
2.154
0,0,0,0,0,0,0,0,0,1,1,1,1
2.441
0,0,0,0,0,0,0,0,1,0,0,0,0
1.02
0,0,0,0,0,0,0,0,1,0,0,0,1
1.489
0,0,0,0,0,0,0,0,1,0,0,1,0
1.694
0,0,0,0,0,0,0,0,1,0,0,1,1
2.205
0,0,0,0,0,0,0,0,1,0,1,0,0
1.087
0,0,0,0,0,0,0,0,1,0,1,1,0
1.662
0,0,0,0,0,0,0,0,1,0,1,1,1
2.244
0,0,0,0,0,0,0,0,1,1,0,0,0
1.487
0,0,0,0,0,0,0,0,1,1,0,0,1
1.807
0,0,0,0,0,0,0,0,1,1,0,1,0
2.069
0,0,0,0,0,0,0,0,1,1,0,1,1
2.476
0,0,0,0,0,0,0,0,1,1,1,0,0
1.489
0,0,0,0,0,0,0,0,1,1,1,0,1
1.88
0,0,0,0,0,0,0,0,1,1,1,1,0
2.034
0,0,0,0,0,0,0,0,1,1,1,1,1
2.446
0,0,0,0,0,0,0,1,0,0,0,0,0
1.182
0,0,0,0,0,0,0,1,0,0,0,0,1
4.815
0,0,0,0,0,0,0,1,0,0,0,1,0
5.977
0,0,0,0,0,0,0,1,0,0,0,1,1
6.885
0,0,0,0,0,0,0,1,0,0,1,0,0
3.504
0,0,0,0,0,0,0,1,0,0,1,0,1
1.833
0,0,0,0,0,0,0,1,0,0,1,1,0
1.823
0,0,0,0,0,0,0,1,0,0,1,1,1
2.283
0,0,0,0,0,0,0,1,0,1,0,0,0
1.578
0,0,0,0,0,0,0,1,0,1,0,0,1
1.899
0,0,0,0,0,0,0,1,0,1,0,1,0
2.102
0,0,0,0,0,0,0,1,0,1,1,0,0
1.524
0,0,0,0,0,0,0,1,0,1,1,0,1
1.896
0,0,0,0,0,0,0,1,0,1,1,1,0
2.079
0,0,0,0,0,0,0,1,0,1,1,1,1
2.52
0,0,0,0,0,0,0,1,1,0,0,0,0
1.371
0,0,0,0,0,0,0,1,1,0,0,0,1
1.751
0,0,0,0,0,0,0,1,1,0,0,1,0
1.975
0,0,0,0,0,0,0,1,1,0,0,1,1
2.408
0,0,0,0,0,0,0,1,1,0,1,0,0
1.441
0,0,0,0,0,0,0,1,1,0,1,0,1
1.813
0,0,0,0,0,0,0,1,1,0,1,1,0
1.923
0,0,0,0,0,0,0,1,1,0,1,1,1
2.378
0,0,0,0,0,0,0,1,1,1,0,0,0
1.564
0,0,0,0,0,0,0,1,1,1,0,0,1
1.899
0,0,0,0,0,0,0,1,1,1,0,1,0
2.158
0,0,0,0,0,0,0,1,1,1,0,1,1
2.566
0,0,0,0,0,0,0,1,1,1,1,0,0
1.541
0,0,0,0,0,0,0,1,1,1,1,0,1
1.964
0,0,0,0,0,0,0,1,1,1,1,1,0
2.16
0,0,0,0,0,0,0,1,1,1,1,1,1
2.558
0,0,0,0,0,0,1,0,0,0,0,0,0
1.24
0,0,0,0,0,0,1,0,0,0,0,0,1
1.76
0,0,0,0,0,0,1,0,0,0,0,1,0
1.755
0,0,0,0,0,0,1,0,0,0,0,1,1
2.147
0,0,0,0,0,0,1,0,0,0,1,0,0
1.244
0,0,0,0,0,0,1,0,0,0,1,0,1
5.376
0,0,0,0,0,0,1,0,0,0,1,1,0
5.282
0,0,0,0,0,0,1,0,0,0,1,1,1
6.245
0,0,0,0,0,0,1,0,0,1,0,0,0
5.588
0,0,0,0,0,0,1,0,0,1,0,0,1
2.203
0,0,0,0,0,0,1,0,0,1,0,1,0
2.294
0,0,0,0,0,0,1,0,0,1,0,1,1
2.695
0,0,0,0,0,0,1,0,0,1,1,0,0
1.848
0,0,0,0,0,0,1,0,0,1,1,0,1
2.161
0,0,0,0,0,0,1,0,0,1,1,1,0
2.279
0,0,0,0,0,0,1,0,0,1,1,1,1
2.666
0,0,0,0,0,0,1,0,1,0,0,0,0
1.564
0,0,0,0,0,0,1,0,1,0,0,0,1
1.841
0,0,0,0,0,0,1,0,1,0,0,1,0
1.828
0,0,0,0,0,0,1,0,1,0,0,1,1
2.228
0,0,0,0,0,0,1,0,1,0,1,0,0
1.428
0,0,0,0,0,0,1,0,1,0,1,0,1
1.858
0,0,0,0,0,0,1,0,1,0,1,1,0
1.86
0,0,0,0,0,0,1,0,1,0,1,1,1
2.338
0,0,0,0,0,0,1,0,1,1,0,0,0
1.81
0,0,0,0,0,0,1,0,1,1,0,0,1
2.283
0,0,0,0,0,0,1,0,1,1,0,1,0
2.162
0,0,0,0,0,0,1,0,1,1,0,1,1
2.559
0,0,0,0,0,0,1,0,1,1,1,0,0
1.871
0,0,0,0,0,0,1,0,1,1,1,0,1
2.166
0,0,0,0,0,0,1,0,1,1,1,1,0
2.17
0,0,0,0,0,0,1,0,1,1,1,1,1
2.703
0,0,0,0,0,0,1,1,0,0,0,0,0
1.58
0,0,0,0,0,0,1,1,0,0,0,0,1
2.005
0,0,0,0,0,0,1,1,0,0,0,1,0
1.893
0,0,0,0,0,0,1,1,0,0,0,1,1
2.303
0,0,0,0,0,0,1,1,0,0,1,0,0
1.453
0,0,0,0,0,0,1,1,0,0,1,0,1
1.863
0,0,0,0,0,0,1,1,0,0,1,1,0
1.974
0,0,0,0,0,0,1,1,0,0,1,1,1
2.272
0,0,0,0,0,0,1,1,0,1,0,0,0
7.488
0,0,0,0,0,0,1,1,0,1,0,0,1
9.628
0,0,0,0,0,0,1,1,0,1,0,1,0
9.558
0,0,0,0,0,0,1,1,0,1,0,1,1
11.268
0,0,0,0,0,0,1,1,0,1,1,0,0
8.02
0,0,0,0,0,0,1,1,0,1,1,0,1
9.623
0,0,0,0,0,0,1,1,0,1,1,1,0
9.584
0,0,0,0,0,0,1,1,0,1,1,1,1
10.884
0,0,0,0,0,0,1,1,1,0,0,0,0
6.783
0,0,0,0,0,0,1,1,1,0,0,0,1
8.86
0,0,0,0,0,0,1,1,1,0,0,1,0
8.667
0,0,0,0,0,0,1,1,1,0,0,1,1
5.449
0,0,0,0,0,0,1,1,1,0,1,0,0
1.608
0,0,0,0,0,0,1,1,1,0,1,0,1
2.082
0,0,0,0,0,0,1,1,1,0,1,1,0
2.174
0,0,0,0,0,0,1,1,1,0,1,1,1
2.474
0,0,0,0,0,0,1,1,1,1,0,0,0
1.825
0,0,0,0,0,0,1,1,1,1,0,0,1
2.25
0,0,0,0,0,0,1,1,1,1,0,1,0
2.255
0,0,0,0,0,0,1,1,1,1,0,1,1
2.699
0,0,0,0,0,0,1,1,1,1,1,0,0
1.85
0,0,0,0,0,0,1,1,1,1,1,0,1
2.288
0,0,0,0,0,0,1,1,1,1,1,1,0
2.386
0,0,0,0,0,0,1,1,1,1,1,1,1
2.685
0,0,0,0,0,1,0,0,0,0,0,0,0
1.964
0,0,0,0,0,1,0,0,0,0,0,0,1
2.4
0,0,0,0,0,1,0,0,0,0,0,1,1
2.348
0,0,0,0,0,1,0,0,0,0,1,0,0
1.958
0,0,0,0,0,1,0,0,0,0,1,0,1
2.322
0,0,0,0,0,1,0,0,0,0,1,1,0
2.052
0,0,0,0,0,1,0,0,0,0,1,1,1
2.41
0,0,0,0,0,1,0,0,0,1,0,0,0
2.154
0,0,0,0,0,1,0,0,0,1,0,0,1
2.548
0,0,0,0,0,1,0,0,0,1,0,1,0
2.208
0,0,0,0,0,1,0,0,0,1,0,1,1
2.766
0,0,0,0,0,1,0,0,0,1,1,0,0
2.183
0,0,0,0,0,1,0,0,0,1,1,0,1
2.62
0,0,0,0,0,1,0,0,0,1,1,1,0
2.187
0,0,0,0,0,1,0,0,0,1,1,1,1
2.595
0,0,0,0,0,1,0,0,1,0,0,0,0
1.954
0,0,0,0,0,1,0,0,1,0,0,0,1
2.363
0,0,0,0,0,1,0,0,1,0,0,1,0
5.907
0,0,0,0,0,1,0,0,1,0,0,1,1
7.091
0,0,0,0,0,1,0,0,1,0,1,0,0
6.33
0,0,0,0,0,1,0,0,1,0,1,0,1
7.46
0,0,0,0,0,1,0,0,1,0,1,1,0
6.098
0,0,0,0,0,1,0,0,1,0,1,1,1
7.56
0,0,0,0,0,1,0,0,1,1,0,0,1
7.175
0,0,0,0,0,1,0,0,1,1,0,1,0
6.138
0,0,0,0,0,1,0,0,1,1,0,1,1
8.001
0,0,0,0,0,1,0,0,1,1,1,0,0
6.36
0,0,0,0,0,1,0,0,1,1,1,0,1
7.536
0,0,0,0,0,1,0,0,1,1,1,1,0
6.488
0,0,0,0,0,1,0,0,1,1,1,1,1
7.861
0,0,0,0,0,1,0,1,0,0,0,0,0
6.285
0,0,0,0,0,1,0,1,0,0,0,0,1
7.255
0,0,0,0,0,1,0,1,0,0,0,1,0
6.31
0,0,0,0,0,1,0,1,0,0,0,1,1
7.522
0,0,0,0,0,1,0,1,0,0,1,0,0
6.335
0,0,0,0,0,1,0,1,0,0,1,0,1
7.049
0,0,0,0,0,1,0,1,0,0,1,1,0
6.567
0,0,0,0,0,1,0,1,0,0,1,1,1
7.481
0,0,0,0,0,1,0,1,0,1,0,0,0
6.716
0,0,0,0,0,1,0,1,0,1,0,0,1
8.325
0,0,0,0,0,1,0,1,0,1,0,1,0
6.665
0,0,0,0,0,1,0,1,0,1,0,1,1
8.474
0,0,0,0,0,1,0,1,0,1,1,0,0
6.872
0,0,0,0,0,1,0,1,0,1,1,0,1
8.042
0,0,0,0,0,1,0,1,0,1,1,1,0
7.198
0,0,0,0,0,1,0,1,0,1,1,1,1
8.543
0,0,0,0,0,1,0,1,1,0,0,0,0
6.107
0,0,0,0,0,1,0,1,1,0,0,0,1
7.523
0,0,0,0,0,1,0,1,1,0,0,1,0
6.196
0,0,0,0,0,1,0,1,1,0,0,1,1
7.85
0,0,0,0,0,1,0,1,1,0,1,0,0
5.985
0,0,0,0,0,1,0,1,1,0,1,0,1
7.772
0,0,0,0,0,1,0,1,1,0,1,1,0
7.251
0,0,0,0,0,1,0,1,1,0,1,1,1
8.026
0,0,0,0,0,1,0,1,1,1,0,0,0
6.386
0,0,0,0,0,1,0,1,1,1,0,0,1
7.877
0,0,0,0,0,1,0,1,1,1,0,1,0
6.471
0,0,0,0,0,1,0,1,1,1,0,1,1
8.572
0,0,0,0,0,1,0,1,1,1,1,0,0
7.143
0,0,0,0,0,1,0,1,1,1,1,0,1
2.514
0,0,0,0,0,1,0,1,1,1,1,1,0
2.224
0,0,0,0,0,1,0,1,1,1,1,1,1
2.688
0,0,0,0,0,1,1,0,0,0,0,0,0
2.386
0,0,0,0,0,1,1,0,0,0,0,0,1
2.852
0,0,0,0,0,1,1,0,0,0,0,1,0
2.312
0,0,0,0,0,1,1,0,0,0,0,1,1
2.765
0,0,0,0,0,1,1,0,0,0,1,0,0
2.341
0,0,0,0,0,1,1,0,0,0,1,0,1
2.856
0,0,0,0,0,1,1,0,0,0,1,1,0
2.244
0,0,0,0,0,1,1,0,0,0,1,1,1
2.746
0,0,0,0,0,1,1,0,0,1,0,0,0
2.562
0,0,0,0,0,1,1,0,0,1,0,0,1
3.002
0,0,0,0,0,1,1,0,0,1,0,1,0
2.526
0,0,0,0,0,1,1,0,0,1,0,1,1
2.957
0,0,0,0,0,1,1,0,0,1,1,0,0
2.547
0,0,0,0,0,1,1,0,0,1,1,0,1
3.003
0,0,0,0,0,1,1,0,0,1,1,1,0
2.444
0,0,0,0,0,1,1,0,0,1,1,1,1
3.246
0,0,0,0,0,1,1,0,1,0,0,0,0
2.598
0,0,0,0,0,1,1,0,1,0,0,0,1
3.165
0,0,0,0,0,1,1,0,1,0,0,1,0
2.516
0,0,0,0,0,1,1,0,1,0,0,1,1
2.969
0,0,0,0,0,1,1,0,1,0,1,0,0
2.55
0,0,0,0,0,1,1,0,1,0,1,0,1
3.026
0,0,0,0,0,1,1,0,1,0,1,1,0
2.587
0,0,0,0,0,1,1,0,1,0,1,1,1
3.075
0,0,0,0,0,1,1,0,1,1,0,0,0
2.751
0,0,0,0,0,1,1,0,1,1,0,1,0
3.62
0,0,0,0,0,1,1,0,1,1,0,1,1
4.548
0,0,0,0,0,1,1,0,1,1,1,0,0
3.791
0,0,0,0,0,1,1,0,1,1,1,0,1
4.742
0,0,0,0,0,1,1,0,1,1,1,1,0
3.75
0,0,0,0,0,1,1,0,1,1,1,1,1
4.486
0,0,0,0,0,1,1,1,0,0,0,0,0
3.806
0,0,0,0,0,1,1,1,0,0,0,0,1
4.403
0,0,0,0,0,1,1,1,0,0,0,1,0
3.699
0,0,0,0,0,1,1,1,0,0,0,1,1
4.397
0,0,0,0,0,1,1,1,0,0,1,0,0
4.051
0,0,0,0,0,1,1,1,0,0,1,0,1
4.322
0,0,0,0,0,1,1,1,0,0,1,1,0
3.548
0,0,0,0,0,1,1,1,0,0,1,1,1
4.299
0,0,0,0,0,1,1,1,0,1,0,0,0
3.92
0,0,0,0,0,1,1,1,0,1,0,0,1
4.633
0,0,0,0,0,1,1,1,0,1,0,1,0
3.91
0,0,0,0,0,1,1,1,0,1,0,1,1
4.555
0,0,0,0,0,1,1,1,0,1,1,0,0
4.004
0,0,0,0,0,1,1,1,0,1,1,0,1
4.713
0,0,0,0,0,1,1,1,0,1,1,1,0
3.809
0,0,0,0,0,1,1,1,1,0,0,0,0
3.907
0,0,0,0,0,1,1,1,1,0,0,0,1
4.375
0,0,0,0,0,1,1,1,1,0,0,1,0
3.649
0,0,0,0,0,1,1,1,1,0,0,1,1
4.241
0,0,0,0,0,1,1,1,1,0,1,0,0
3.687
0,0,0,0,0,1,1,1,1,0,1,0,1
4.445
0,0,0,0,0,1,1,1,1,0,1,1,0
3.639
0,0,0,0,0,1,1,1,1,0,1,1,1
4.211
0,0,0,0,0,1,1,1,1,1,0,0,0
4.04
0,0,0,0,0,1,1,1,1,1,0,0,1
4.583
0,0,0,0,0,1,1,1,1,1,0,1,0
3.933
0,0,0,0,0,1,1,1,1,1,0,1,1
4.189
0,0,0,0,0,1,1,1,1,1,1,0,0
4.052
0,0,0,0,0,1,1,1,1,1,1,0,1
4.19
0,0,0,0,0,1,1,1,1,1,1,1,0
3.813
0,0,0,0,0,1,1,1,1,1,1,1,1
4.33
0,0,0,0,1,0,0,0,0,0,0,0,0
2.6
0,0,0,0,1,0,0,0,0,0,0,0,1
3.673
0,0,0,0,1,0,0,0,0,0,0,1,0
3.773
0,0,0,0,1,0,0,0,0,0,0,1,1
4.074
0,0,0,0,1,0,0,0,0,0,1,0,0
2.513
0,0,0,0,1,0,0,0,0,0,1,0,1
3.166
0,0,0,0,1,0,0,0,0,0,1,1,0
3.869
0,0,0,0,1,0,0,0,0,0,1,1,1
4.664
0,0,0,0,1,0,0,0,0,1,0,0,0
3.757
0,0,0,0,1,0,0,0,0,1,0,0,1
4.494
0,0,0,0,1,0,0,0,0,1,0,1,0
4.805
0,0,0,0,1,0,0,0,0,1,0,1,1
5.5
0,0,0,0,1,0,0,0,0,1,1,0,0
3.863
0,0,0,0,1,0,0,0,0,1,1,0,1
4.415
0,0,0,0,1,0,0,0,0,1,1,1,0
4.848
0,0,0,0,1,0,0,0,0,1,1,1,1
5.293
0,0,0,0,1,0,0,0,1,0,0,0,0
3.113
0,0,0,0,1,0,0,0,1,0,0,0,1
3.743
0,0,0,0,1,0,0,0,1,0,0,1,0
4.262
0,0,0,0,1,0,0,0,1,0,0,1,1
4.914
0,0,0,0,1,0,0,0,1,0,1,0,0
3.222
0,0,0,0,1,0,0,0,1,0,1,0,1
4.014
0,0,0,0,1,0,0,0,1,0,1,1,0
4.292
0,0,0,0,1,0,0,0,1,0,1,1,1
4.715
0,0,0,0,1,0,0,0,1,1,0,0,0
3.819
0,0,0,0,1,0,0,0,1,1,0,0,1
4.355
0,0,0,0,1,0,0,0,1,1,0,1,0
4.764
0,0,0,0,1,0,0,0,1,1,0,1,1
5.421
0,0,0,0,1,0,0,0,1,1,1,0,0
3.771
0,0,0,0,1,0,0,0,1,1,1,0,1
4.327
0,0,0,0,1,0,0,0,1,1,1,1,0
4.865
0,0,0,0,1,0,0,0,1,1,1,1,1
5.31
0,0,0,0,1,0,0,1,0,0,0,0,0
3.014
0,0,0,0,1,0,0,1,0,0,0,0,1
3.661
0,0,0,0,1,0,0,1,0,0,0,1,0
4.06
0,0,0,0,1,0,0,1,0,0,0,1,1
5.038
0,0,0,0,1,0,0,1,0,0,1,0,0
3.249
0,0,0,0,1,0,0,1,0,0,1,0,1
3.714
0,0,0,0,1,0,0,1,0,0,1,1,0
4.066
0,0,0,0,1,0,0,1,0,0,1,1,1
4.719
0,0,0,0,1,0,0,1,0,1,0,0,0
3.707
0,0,0,0,1,0,0,1,0,1,0,0,1
4.183
0,0,0,0,1,0,0,1,0,1,0,1,0
4.52
0,0,0,0,1,0,0,1,0,1,0,1,1
4.78
0,0,0,0,1,0,0,1,0,1,1,0,0
3.612
0,0,0,0,1,0,0,1,0,1,1,0,1
4.525
0,0,0,0,1,0,0,1,0,1,1,1,0
4.944
0,0,0,0,1,0,0,1,0,1,1,1,1
5.916
0,0,0,0,1,0,0,1,1,0,0,0,0
3.66
0,0,0,0,1,0,0,1,1,0,0,0,1
4.365
0,0,0,0,1,0,0,1,1,0,0,1,0
4.733
0,0,0,0,1,0,0,1,1,0,0,1,1
5.283
0,0,0,0,1,0,0,1,1,0,1,0,0
3.515
0,0,0,0,1,0,0,1,1,0,1,0,1
4.117
0,0,0,0,1,0,0,1,1,0,1,1,0
4.531
0,0,0,0,1,0,0,1,1,0,1,1,1
5.39
0,0,0,0,1,0,0,1,1,1,0,0,0
3.637
0,0,0,0,1,0,0,1,1,1,0,0,1
4.2
0,0,0,0,1,0,0,1,1,1,0,1,0
4.477
0,0,0,0,1,0,0,1,1,1,0,1,1
4.675
0,0,0,0,1,0,0,1,1,1,1,0,0
3.099
0,0,0,0,1,0,0,1,1,1,1,0,1
3.629
0,0,0,0,1,0,0,1,1,1,1,1,0
4.507
0,0,0,0,1,0,0,1,1,1,1,1,1
5.022
0,0,0,0,1,0,1,0,0,0,0,0,0
3.463
0,0,0,0,1,0,1,0,0,0,0,0,1
4.04
0,0,0,0,1,0,1,0,0,0,0,1,0
4.044
0,0,0,0,1,0,1,0,0,0,0,1,1
4.675
0,0,0,0,1,0,1,0,0,0,1,0,0
3.368
0,0,0,0,1,0,1,0,0,0,1,0,1
4.174
0,0,0,0,1,0,1,0,0,0,1,1,1
4.628
0,0,0,0,1,0,1,0,0,1,0,0,0
4.183
0,0,0,0,1,0,1,0,0,1,0,0,1
4.723
0,0,0,0,1,0,1,0,0,1,0,1,0
4.812
0,0,0,0,1,0,1,0,0,1,0,1,1
5.444
0,0,0,0,1,0,1,0,0,1,1,0,0
4.098
0,0,0,0,1,0,1,0,0,1,1,0,1
4.972
0,0,0,0,1,0,1,0,0,1,1,1,0
4.741
0,0,0,0,1,0,1,0,0,1,1,1,1
5.464
0,0,0,0,1,0,1,0,1,0,0,0,0
3.788
0,0,0,0,1,0,1,0,1,0,0,0,1
4.122
0,0,0,0,1,0,1,0,1,0,0,1,0
4.265
0,0,0,0,1,0,1,0,1,0,0,1,1
4.863
0,0,0,0,1,0,1,0,1,0,1,0,0
3.647
0,0,0,0,1,0,1,0,1,0,1,0,1
4.175
0,0,0,0,1,0,1,0,1,0,1,1,0
4.436
0,0,0,0,1,0,1,0,1,0,1,1,1
4.813
0,0,0,0,1,0,1,0,1,1,0,0,0
4.237
0,0,0,0,1,0,1,0,1,1,0,0,1
4.819
0,0,0,0,1,0,1,0,1,1,0,1,0
5.052
0,0,0,0,1,0,1,0,1,1,0,1,1
5.714
0,0,0,0,1,0,1,0,1,1,1,0,1
4.95
0,0,0,0,1,0,1,0,1,1,1,1,0
4.853
0,0,0,0,1,0,1,0,1,1,1,1,1
5.723
0,0,0,0,1,0,1,1,0,0,0,0,0
3.717
0,0,0,0,1,0,1,1,0,0,0,0,1
4.258
0,0,0,0,1,0,1,1,0,0,0,1,0
4.287
0,0,0,0,1,0,1,1,0,0,0,1,1
4.867
0,0,0,0,1,0,1,1,0,0,1,0,0
3.644
0,0,0,0,1,0,1,1,0,0,1,0,1
4.15
0,0,0,0,1,0,1,1,0,0,1,1,0
4.024
0,0,0,0,1,0,1,1,0,0,1,1,1
4.899
0,0,0,0,1,0,1,1,0,1,0,0,0
4.155
0,0,0,0,1,0,1,1,0,1,0,0,1
4.714
0,0,0,0,1,0,1,1,0,1,0,1,0
5.022
0,0,0,0,1,0,1,1,0,1,0,1,1
5.489
0,0,0,0,1,0,1,1,0,1,1,0,0
4.277
0,0,0,0,1,0,1,1,0,1,1,0,1
5.04
0,0,0,0,1,0,1,1,0,1,1,1,0
4.492
0,0,0,0,1,0,1,1,0,1,1,1,1
5.529
0,0,0,0,1,0,1,1,1,0,0,0,0
3.978
0,0,0,0,1,0,1,1,1,0,0,0,1
4.218
0,0,0,0,1,0,1,1,1,0,0,1,0
4.403
0,0,0,0,1,0,1,1,1,0,0,1,1
4.64
0,0,0,0,1,0,1,1,1,0,1,0,0
3.965
0,0,0,0,1,0,1,1,1,0,1,0,1
4.41
0,0,0,0,1,0,1,1,1,0,1,1,0
4.174
0,0,0,0,1,0,1,1,1,0,1,1,1
5.084
0,0,0,0,1,0,1,1,1,1,0,0,0
4.332
0,0,0,0,1,0,1,1,1,1,0,0,1
4.69
0,0,0,0,1,0,1,1,1,1,0,1,0
4.835
0,0,0,0,1,0,1,1,1,1,0,1,1
5.575
0,0,0,0,1,0,1,1,1,1,1,0,0
4.462
0,0,0,0,1,0,1,1,1,1,1,0,1
5.228
0,0,0,0,1,0,1,1,1,1,1,1,0
5.371
0,0,0,0,1,0,1,1,1,1,1,1,1
5.871
0,0,0,0,1,1,0,0,0,0,0,0,0
4.18
0,0,0,0,1,1,0,0,0,0,0,0,1
4.933
0,0,0,0,1,1,0,0,0,0,0,1,0
4.626
0,0,0,0,1,1,0,0,0,0,0,1,1
5.081
0,0,0,0,1,1,0,0,0,0,1,0,0
4.295
0,0,0,0,1,1,0,0,0,0,1,0,1
5.073
0,0,0,0,1,1,0,0,0,0,1,1,0
4.685
0,0,0,0,1,1,0,0,0,0,1,1,1
5.054
0,0,0,0,1,1,0,0,0,1,0,0,0
4.524
0,0,0,0,1,1,0,0,0,1,0,0,1
5.322
0,0,0,0,1,1,0,0,0,1,0,1,0
4.85
0,0,0,0,1,1,0,0,0,1,0,1,1
5.531
0,0,0,0,1,1,0,0,0,1,1,0,0
4.664
0,0,0,0,1,1,0,0,0,1,1,0,1
5.358
0,0,0,0,1,1,0,0,0,1,1,1,0
4.818
0,0,0,0,1,1,0,0,0,1,1,1,1
5.52
0,0,0,0,1,1,0,0,1,0,0,0,0
4.272
0,0,0,0,1,1,0,0,1,0,0,0,1
5.076
0,0,0,0,1,1,0,0,1,0,0,1,0
4.537
0,0,0,0,1,1,0,0,1,0,0,1,1
5.048
0,0,0,0,1,1,0,0,1,0,1,0,0
4.384
0,0,0,0,1,1,0,0,1,0,1,0,1
4.939
0,0,0,0,1,1,0,0,1,0,1,1,0
4.498
0,0,0,0,1,1,0,0,1,0,1,1,1
5.035
0,0,0,0,1,1,0,0,1,1,0,0,0
4.478
0,0,0,0,1,1,0,0,1,1,0,0,1
5.054
0,0,0,0,1,1,0,0,1,1,0,1,0
4.53
0,0,0,0,1,1,0,0,1,1,0,1,1
5.525
0,0,0,0,1,1,0,0,1,1,1,0,0
4.36
0,0,0,0,1,1,0,0,1,1,1,0,1
5.06
0,0,0,0,1,1,0,0,1,1,1,1,0
4.432
0,0,0,0,1,1,0,0,1,1,1,1,1
5.301
0,0,0,0,1,1,0,1,0,0,0,0,0
4.556
0,0,0,0,1,1,0,1,0,0,0,0,1
5.174
0,0,0,0,1,1,0,1,0,0,0,1,0
4.454
0,0,0,0,1,1,0,1,0,0,0,1,1
5.292
0,0,0,0,1,1,0,1,0,0,1,0,0
4.417
0,0,0,0,1,1,0,1,0,0,1,0,1
5.069
0,0,0,0,1,1,0,1,0,0,1,1,0
4.622
0,0,0,0,1,1,0,1,0,0,1,1,1
5.364
0,0,0,0,1,1,0,1,0,1,0,0,0
4.242
0,0,0,0,1,1,0,1,0,1,0,0,1
4.894
0,0,0,0,1,1,0,1,0,1,0,1,0
4.586
0,0,0,0,1,1,0,1,0,1,0,1,1
4.54
0,0,0,0,1,1,0,1,0,1,1,0,0
4.403
0,0,0,0,1,1,0,1,0,1,1,0,1
4.261
0,0,0,0,1,1,0,1,0,1,1,1,0
3.636
0,0,0,0,1,1,0,1,0,1,1,1,1
4.187
0,0,0,0,1,1,0,1,1,0,0,0,0
3.377
0,0,0,0,1,1,0,1,1,0,0,0,1
2.912
0,0,0,0,1,1,0,1,1,0,0,1,0
2.645
0,0,0,0,1,1,0,1,1,0,1,0,0
2.461
0,0,0,0,1,1,0,1,1,0,1,0,1
2.81
0,0,0,0,1,1,0,1,1,0,1,1,0
2.662
0,0,0,0,1,1,0,1,1,0,1,1,1
3.038
0,0,0,0,1,1,0,1,1,1,0,0,0
2.557
0,0,0,0,1,1,0,1,1,1,0,0,1
3.017
0,0,0,0,1,1,0,1,1,1,0,1,0
2.676
0,0,0,0,1,1,0,1,1,1,0,1,1
3.043
0,0,0,0,1,1,0,1,1,1,1,0,0
2.554
0,0,0,0,1,1,0,1,1,1,1,0,1
2.984
0,0,0,0,1,1,0,1,1,1,1,1,0
2.623
0,0,0,0,1,1,0,1,1,1,1,1,1
3.033
0,0,0,0,1,1,1,0,0,0,0,0,0
2.837
0,0,0,0,1,1,1,0,0,0,0,0,1
3.131
0,0,0,0,1,1,1,0,0,0,0,1,0
2.766
0,0,0,0,1,1,1,0,0,0,0,1,1
3.022
0,0,0,0,1,1,1,0,0,0,1,0,0
2.661
0,0,0,0,1,1,1,0,0,0,1,0,1
3.07
0,0,0,0,1,1,1,0,0,0,1,1,0
2.702
0,0,0,0,1,1,1,0,0,0,1,1,1
3.086
0,0,0,0,1,1,1,0,0,1,0,0,0
2.991
0,0,0,0,1,1,1,0,0,1,0,1,0
2.826
0,0,0,0,1,1,1,0,0,1,0,1,1
10.03
0,0,0,0,1,1,1,0,0,1,1,0,0
8.918
0,0,0,0,1,1,1,0,0,1,1,0,1
9.872
0,0,0,0,1,1,1,0,0,1,1,1,0
8.719
0,0,0,0,1,1,1,0,0,1,1,1,1
9.629
0,0,0,0,1,1,1,0,1,0,0,0,0
8.28
0,0,0,0,1,1,1,0,1,0,0,0,1
9.154
0,0,0,0,1,1,1,0,1,0,0,1,0
8.117
0,0,0,0,1,1,1,0,1,0,0,1,1
9.149
0,0,0,0,1,1,1,0,1,0,1,0,0
8.905
0,0,0,0,1,1,1,0,1,0,1,0,1
9.691
0,0,0,0,1,1,1,0,1,0,1,1,0
8.041
0,0,0,0,1,1,1,0,1,0,1,1,1
9.301
0,0,0,0,1,1,1,0,1,1,0,0,0
8.333
0,0,0,0,1,1,1,0,1,1,0,0,1
9.379
0,0,0,0,1,1,1,0,1,1,0,1,0
8.688
0,0,0,0,1,1,1,0,1,1,0,1,1
9.562
0,0,0,0,1,1,1,0,1,1,1,0,0
11.835
0,0,0,0,1,1,1,0,1,1,1,0,1
13.627
0,0,0,0,1,1,1,0,1,1,1,1,0
11.631
0,0,0,0,1,1,1,0,1,1,1,1,1
13.391
0,0,0,0,1,1,1,1,0,0,0,0,0
11.204
0,0,0,0,1,1,1,1,0,0,0,0,1
13.065
0,0,0,0,1,1,1,1,0,0,0,1,0
11.859
0,0,0,0,1,1,1,1,0,0,0,1,1
13.122
0,0,0,0,1,1,1,1,0,0,1,0,0
11.86
0,0,0,0,1,1,1,1,0,0,1,0,1
13.554
0,0,0,0,1,1,1,1,0,0,1,1,0
12.659
0,0,0,0,1,1,1,1,0,0,1,1,1
14.297
0,0,0,0,1,1,1,1,0,1,0,0,0
14.267
0,0,0,0,1,1,1,1,0,1,0,0,1
14.483
0,0,0,0,1,1,1,1,0,1,0,1,0
13.345
0,0,0,0,1,1,1,1,0,1,0,1,1
15.88
0,0,0,0,1,1,1,1,0,1,1,0,0
14.576
0,0,0,0,1,1,1,1,0,1,1,0,1
15.295
0,0,0,0,1,1,1,1,0,1,1,1,0
13.358
0,0,0,0,1,1,1,1,0,1,1,1,1
15.446
0,0,0,0,1,1,1,1,1,0,0,0,0
12.504
0,0,0,0,1,1,1,1,1,0,0,0,1
13.923
0,0,0,0,1,1,1,1,1,0,0,1,0
11.485
0,0,0,0,1,1,1,1,1,0,0,1,1
9.942
0,0,0,0,1,1,1,1,1,0,1,0,0
8.299
0,0,0,0,1,1,1,1,1,0,1,0,1
9.623
0,0,0,0,1,1,1,1,1,0,1,1,0
8.156
0,0,0,0,1,1,1,1,1,0,1,1,1
8.99
0,0,0,0,1,1,1,1,1,1,0,0,0
8.677
0,0,0,0,1,1,1,1,1,1,0,0,1
10.016
0,0,0,0,1,1,1,1,1,1,0,1,0
11.087
0,0,0,0,1,1,1,1,1,1,0,1,1
14.588
0,0,0,0,1,1,1,1,1,1,1,0,0
12.555
0,0,0,0,1,1,1,1,1,1,1,0,1
14.138
0,0,0,0,1,1,1,1,1,1,1,1,0
12.007
0,0,0,0,1,1,1,1,1,1,1,1,1
14.0
0,0,0,1,0,0,0,0,0,0,0,0,0
10.466
0,0,0,1,0,0,0,0,0,0,0,0,1
12.647
0,0,0,1,0,0,0,0,0,0,0,1,0
12.675
0,0,0,1,0,0,0,0,0,0,0,1,1
14.948
0,0,0,1,0,0,0,0,0,0,1,0,0
11.807
0,0,0,1,0,0,0,0,0,0,1,0,1
10.023
0,0,0,1,0,0,0,0,0,0,1,1,0
9.2
0,0,0,1,0,0,0,0,0,0,1,1,1
10.062
0,0,0,1,0,0,0,0,0,1,0,0,0
9.754
0,0,0,1,0,0,0,0,0,1,0,0,1
9.536
0,0,0,1,0,0,0,0,0,1,0,1,0
10.182
0,0,0,1,0,0,0,0,0,1,0,1,1
10.926
0,0,0,1,0,0,0,0,0,1,1,0,0
9.198
0,0,0,1,0,0,0,0,0,1,1,0,1
10.841
0,0,0,1,0,0,0,0,0,1,1,1,0
14.137
0,0,0,1,0,0,0,0,0,1,1,1,1
16.065
0,0,0,1,0,0,0,0,1,0,0,0,0
12.073
0,0,0,1,0,0,0,0,1,0,0,0,1
14.244
0,0,0,1,0,0,0,0,1,0,0,1,0
13.048
0,0,0,1,0,0,0,0,1,0,0,1,1
15.347
0,0,0,1,0,0,0,0,1,0,1,0,0
12.281
0,0,0,1,0,0,0,0,1,0,1,0,1
9.738
0,0,0,1,0,0,0,0,1,0,1,1,0
9.723
0,0,0,1,0,0,0,0,1,0,1,1,1
10.258
0,0,0,1,0,0,0,0,1,1,0,0,0
9.047
0,0,0,1,0,0,0,0,1,1,0,0,1
10.204
0,0,0,1,0,0,0,0,1,1,0,1,0
9.889
0,0,0,1,0,0,0,0,1,1,0,1,1
10.724
0,0,0,1,0,0,0,0,1,1,1,0,0
8.802
0,0,0,1,0,0,0,0,1,1,1,0,1
10.283
0,0,0,1,0,0,0,0,1,1,1,1,0
14.057
0,0,0,1,0,0,0,0,1,1,1,1,1
15.234
0,0,0,1,0,0,0,1,0,0,0,0,0
10.496
0,0,0,1,0,0,0,1,0,0,0,0,1
13.438
0,0,0,1,0,0,0,1,0,0,0,1,0
8.93
0,0,0,1,0,0,0,1,0,0,0,1,1
10.138
0,0,0,1,0,0,0,1,0,0,1,0,0
7.797
0,0,0,1,0,0,0,1,0,0,1,0,1
9.262
0,0,0,1,0,0,0,1,0,0,1,1,0
8.45
0,0,0,1,0,0,0,1,0,0,1,1,1
9.823
0,0,0,1,0,0,0,1,0,1,0,0,0
8.769
0,0,0,1,0,0,0,1,0,1,0,0,1
10.252
0,0,0,1,0,0,0,1,0,1,0,1,0
9.331
0,0,0,1,0,0,0,1,0,1,0,1,1
13.848
0,0,0,1,0,0,0,1,0,1,1,0,0
11.92
0,0,0,1,0,0,0,1,0,1,1,0,1
13.633
0,0,0,1,0,0,0,1,0,1,1,1,0
14.768
0,0,0,1,0,0,0,1,0,1,1,1,1
14.622
0,0,0,1,0,0,0,1,1,0,0,0,0
12.411
0,0,0,1,0,0,0,1,1,0,0,0,1
13.919
0,0,0,1,0,0,0,1,1,0,0,1,0
13.043
0,0,0,1,0,0,0,1,1,0,0,1,1
15.813
0,0,0,1,0,0,0,1,1,0,1,0,0
13.262
0,0,0,1,0,0,0,1,1,0,1,1,0
13.259
0,0,0,1,0,0,0,1,1,0,1,1,1
15.592
0,0,0,1,0,0,0,1,1,1,0,0,0
9.043
0,0,0,1,0,0,0,1,1,1,0,0,1
10.494
0,0,0,1,0,0,0,1,1,1,0,1,0
9.606
0,0,0,1,0,0,0,1,1,1,0,1,1
11.63
0,0,0,1,0,0,0,1,1,1,1,0,0
9.467
0,0,0,1,0,0,0,1,1,1,1,0,1
10.438
0,0,0,1,0,0,0,1,1,1,1,1,0
9.805
0,0,0,1,0,0,0,1,1,1,1,1,1
10.851
0,0,0,1,0,0,1,0,0,0,0,0,0
9.588
0,0,0,1,0,0,1,0,0,0,0,0,1
10.028
0,0,0,1,0,0,1,0,0,0,0,1,0
10.003
0,0,0,1,0,0,1,0,0,0,0,1,1
10.58
0,0,0,1,0,0,1,0,0,0,1,0,0
9.248
0,0,0,1,0,0,1,0,0,0,1,0,1
10.758
0,0,0,1,0,0,1,0,0,0,1,1,0
10.147
0,0,0,1,0,0,1,0,0,0,1,1,1
15.001
0,0,0,1,0,0,1,0,0,1,0,0,0
15.153
0,0,0,1,0,0,1,0,0,1,0,0,1
17.211
0,0,0,1,0,0,1,0,0,1,0,1,0
14.867
0,0,0,1,0,0,1,0,0,1,0,1,1
17.203
0,0,0,1,0,0,1,0,0,1,1,0,0
14.197
0,0,0,1,0,0,1,0,0,1,1,0,1
15.461
0,0,0,1,0,0,1,0,0,1,1,1,0
14.38
0,0,0,1,0,0,1,0,0,1,1,1,1
16.23
0,0,0,1,0,0,1,0,1,0,0,0,0
13.864
0,0,0,1,0,0,1,0,1,0,0,0,1
15.34
0,0,0,1,0,0,1,0,1,0,0,1,0
13.14
0,0,0,1,0,0,1,0,1,0,0,1,1
16.008
0,0,0,1,0,0,1,0,1,0,1,0,0
13.02
0,0,0,1,0,0,1,0,1,0,1,0,1
14.771
0,0,0,1,0,0,1,0,1,0,1,1,0
14.931
0,0,0,1,0,0,1,0,1,0,1,1,1
1309.995
0,0,0,1,0,0,1,0,1,1,0,0,0
14.454
0,0,0,1,0,0,1,0,1,1,0,0,1
16.98
0,0,0,1,0,0,1,0,1,1,0,1,0
15.025
0,0,0,1,0,0,1,0,1,1,0,1,1
17.135
0,0,0,1,0,0,1,0,1,1,1,0,0
14.995
0,0,0,1,0,0,1,0,1,1,1,0,1
16.792
0,0,0,1,0,0,1,0,1,1,1,1,0
10.499
0,0,0,1,0,0,1,0,1,1,1,1,1
11.915
0,0,0,1,0,0,1,1,0,0,0,0,1
10.699
0,0,0,1,0,0,1,1,0,0,0,1,0
8.919
0,0,0,1,0,0,1,1,0,0,0,1,1
10.584
0,0,0,1,0,0,1,1,0,0,1,0,0
9.278
0,0,0,1,0,0,1,1,0,0,1,0,1
10.522
0,0,0,1,0,0,1,1,0,0,1,1,0
9.558
0,0,0,1,0,0,1,1,0,0,1,1,1
10.806
0,0,0,1,0,0,1,1,0,1,0,0,0
9.762
0,0,0,1,0,0,1,1,0,1,0,0,1
11.491
0,0,0,1,0,0,1,1,0,1,0,1,0
10.64
0,0,0,1,0,0,1,1,0,1,0,1,1
11.632
0,0,0,1,0,0,1,1,0,1,1,0,0
9.403
0,0,0,1,0,0,1,1,0,1,1,0,1
10.968
0,0,0,1,0,0,1,1,0,1,1,1,0
13.599
0,0,0,1,0,0,1,1,0,1,1,1,1
15.853
0,0,0,1,0,0,1,1,1,0,0,0,0
14.034
0,0,0,1,0,0,1,1,1,0,0,0,1
15.664
0,0,0,1,0,0,1,1,1,0,0,1,0
14.141
0,0,0,1,0,0,1,1,1,0,0,1,1
14.925
0,0,0,1,0,0,1,1,1,0,1,0,0
13.401
0,0,0,1,0,0,1,1,1,0,1,0,1
15.67
0,0,0,1,0,0,1,1,1,0,1,1,0
15.067
0,0,0,1,0,0,1,1,1,0,1,1,1
15.821
0,0,0,1,0,0,1,1,1,1,0,0,0
14.583
0,0,0,1,0,0,1,1,1,1,0,0,1
15.492
0,0,0,1,0,0,1,1,1,1,0,1,0
14.183
0,0,0,1,0,0,1,1,1,1,0,1,1
16.397
0,0,0,1,0,0,1,1,1,1,1,0,0
14.577
0,0,0,1,0,0,1,1,1,1,1,0,1
16.197
0,0,0,1,0,0,1,1,1,1,1,1,0
14.723
0,0,0,1,0,0,1,1,1,1,1,1,1
15.492
0,0,0,1,0,1,0,0,0,0,0,0,0
8.684
0,0,0,1,0,1,0,0,0,0,0,0,1
10.286
0,0,0,1,0,1,0,0,0,0,0,1,0
7.625
0,0,0,1,0,1,0,0,0,0,0,1,1
9.84
0,0,0,1,0,1,0,0,0,0,1,0,0
8.938
0,0,0,1,0,1,0,0,0,0,1,0,1
10.566
0,0,0,1,0,1,0,0,0,0,1,1,0
8.565
0,0,0,1,0,1,0,0,0,0,1,1,1
6.582
0,0,0,1,0,1,0,0,0,1,0,0,0
7.25
0,0,0,1,0,1,0,0,0,1,0,0,1
7.724
0,0,0,1,0,1,0,0,0,1,0,1,0
6.389
0,0,0,1,0,1,0,0,0,1,0,1,1
7.402
0,0,0,1,0,1,0,0,0,1,1,0,0
6.794
0,0,0,1,0,1,0,0,0,1,1,0,1
7.826
0,0,0,1,0,1,0,0,0,1,1,1,0
6.608
0,0,0,1,0,1,0,0,0,1,1,1,1
7.41
0,0,0,1,0,1,0,0,1,0,0,0,0
7.629
0,0,0,1,0,1,0,0,1,0,0,0,1
7.549
0,0,0,1,0,1,0,0,1,0,0,1,0
5.604
0,0,0,1,0,1,0,0,1,0,0,1,1
7.28
0,0,0,1,0,1,0,0,1,0,1,0,0
6.893
0,0,0,1,0,1,0,0,1,0,1,0,1
11.073
0,0,0,1,0,1,0,0,1,0,1,1,0
8.065
0,0,0,1,0,1,0,0,1,0,1,1,1
9.451
0,0,0,1,0,1,0,0,1,1,0,0,0
9.5
0,0,0,1,0,1,0,0,1,1,0,0,1
10.757
0,0,0,1,0,1,0,0,1,1,0,1,0
8.706
0,0,0,1,0,1,0,0,1,1,0,1,1
10.274
0,0,0,1,0,1,0,0,1,1,1,0,0
8.837
0,0,0,1,0,1,0,0,1,1,1,0,1
10.861
0,0,0,1,0,1,0,0,1,1,1,1,0
8.377
0,0,0,1,0,1,0,0,1,1,1,1,1
10.326
0,0,0,1,0,1,0,1,0,0,0,0,0
9.845
0,0,0,1,0,1,0,1,0,0,0,1,0
7.733
0,0,0,1,0,1,0,1,0,0,0,1,1
9.722
0,0,0,1,0,1,0,1,0,0,1,0,0
9.587
0,0,0,1,0,1,0,1,0,0,1,0,1
10.295
0,0,0,1,0,1,0,1,0,0,1,1,0
7.907
0,0,0,1,0,1,0,1,0,0,1,1,1
9.096
0,0,0,1,0,1,0,1,0,1,0,0,0
9.225
0,0,0,1,0,1,0,1,0,1,0,0,1
10.786
0,0,0,1,0,1,0,1,0,1,0,1,0
8.152
0,0,0,1,0,1,0,1,0,1,0,1,1
10.368
0,0,0,1,0,1,0,1,0,1,1,0,0
9.041
0,0,0,1,0,1,0,1,0,1,1,0,1
8.364
0,0,0,1,0,1,0,1,0,1,1,1,0
6.29
0,0,0,1,0,1,0,1,0,1,1,1,1
7.282
0,0,0,1,0,1,0,1,1,0,0,0,0
6.176
0,0,0,1,0,1,0,1,1,0,0,0,1
7.193
0,0,0,1,0,1,0,1,1,0,0,1,0
6.312
0,0,0,1,0,1,0,1,1,0,0,1,1
7.278
0,0,0,1,0,1,0,1,1,0,1,0,0
6.232
0,0,0,1,0,1,0,1,1,0,1,0,1
7.773
0,0,0,1,0,1,0,1,1,0,1,1,0
7.615
0,0,0,1,0,1,0,1,1,0,1,1,1
10.299
0,0,0,1,0,1,0,1,1,1,0,0,0
8.85
0,0,0,1,0,1,0,1,1,1,0,0,1
10.016
0,0,0,1,0,1,0,1,1,1,0,1,0
7.668
0,0,0,1,0,1,0,1,1,1,0,1,1
9.673
0,0,0,1,0,1,0,1,1,1,1,0,0
8.183
0,0,0,1,0,1,0,1,1,1,1,0,1
7.059
0,0,0,1,0,1,0,1,1,1,1,1,0
6.014
0,0,0,1,0,1,0,1,1,1,1,1,1
6.794
0,0,0,1,0,1,1,0,0,0,0,0,0
6.896
0,0,0,1,0,1,1,0,0,0,0,0,1
8.051
0,0,0,1,0,1,1,0,0,0,0,1,0
5.853
0,0,0,1,0,1,1,0,0,0,0,1,1
7.487
0,0,0,1,0,1,1,0,0,0,1,0,0
8.334
0,0,0,1,0,1,1,0,0,0,1,0,1
8.427
0,0,0,1,0,1,1,0,0,0,1,1,0
6.34
0,0,0,1,0,1,1,0,0,0,1,1,1
7.246
0,0,0,1,0,1,1,0,0,1,0,0,0
7.318
0,0,0,1,0,1,1,0,0,1,0,0,1
8.02
0,0,0,1,0,1,1,0,0,1,0,1,0
6.544
0,0,0,1,0,1,1,0,0,1,0,1,1
7.673
0,0,0,1,0,1,1,0,0,1,1,0,0
7.619
0,0,0,1,0,1,1,0,0,1,1,0,1
8.641
0,0,0,1,0,1,1,0,0,1,1,1,0
6.442
0,0,0,1,0,1,1,0,0,1,1,1,1
8.04
0,0,0,1,0,1,1,0,1,0,0,0,0
7.38
0,0,0,1,0,1,1,0,1,0,0,0,1
8.234
0,0,0,1,0,1,1,0,1,0,0,1,0
5.745
0,0,0,1,0,1,1,0,1,0,0,1,1
7.26
0,0,0,1,0,1,1,0,1,0,1,0,0
6.955
0,0,0,1,0,1,1,0,1,0,1,0,1
11.876
0,0,0,1,0,1,1,0,1,0,1,1,0
8.376
0,0,0,1,0,1,1,0,1,0,1,1,1
10.564
0,0,0,1,0,1,1,0,1,1,0,0,0
10.063
0,0,0,1,0,1,1,0,1,1,0,0,1
11.575
0,0,0,1,0,1,1,0,1,1,0,1,0
9.103
0,0,0,1,0,1,1,0,1,1,0,1,1
10.882
0,0,0,1,0,1,1,0,1,1,1,0,0
9.149
0,0,0,1,0,1,1,0,1,1,1,0,1
12.258
0,0,0,1,0,1,1,0,1,1,1,1,0
9.419
0,0,0,1,0,1,1,0,1,1,1,1,1
10.822
0,0,0,1,0,1,1,1,0,0,0,0,0
9.723
0,0,0,1,0,1,1,1,0,0,0,0,1
11.561
0,0,0,1,0,1,1,1,0,0,0,1,1
10.02
0,0,0,1,0,1,1,1,0,0,1,0,0
10.71
0,0,0,1,0,1,1,1,0,0,1,0,1
12.915
0,0,0,1,0,1,1,1,0,0,1,1,0
9.746
0,0,0,1,0,1,1,1,0,0,1,1,1
8.448
0,0,0,1,0,1,1,1,0,1,0,0,0
2.528
0,0,0,1,0,1,1,1,0,1,0,0,1
2.913
0,0,0,1,0,1,1,1,0,1,0,1,0
2.165
0,0,0,1,0,1,1,1,0,1,0,1,1
2.795
0,0,0,1,0,1,1,1,0,1,1,0,0
2.677
0,0,0,1,0,1,1,1,0,1,1,0,1
3.115
0,0,0,1,0,1,1,1,0,1,1,1,0
2.149
0,0,0,1,0,1,1,1,0,1,1,1,1
2.614
0,0,0,1,0,1,1,1,1,0,0,0,0
2.607
0,0,0,1,0,1,1,1,1,0,0,0,1
2.983
0,0,0,1,0,1,1,1,1,0,0,1,0
2.153
0,0,0,1,0,1,1,1,1,0,0,1,1
2.697
0,0,0,1,0,1,1,1,1,0,1,0,0
2.536
0,0,0,1,0,1,1,1,1,0,1,0,1
2.92
0,0,0,1,0,1,1,1,1,0,1,1,0
2.282
0,0,0,1,0,1,1,1,1,0,1,1,1
2.701
0,0,0,1,0,1,1,1,1,1,0,0,0
2.506
0,0,0,1,0,1,1,1,1,1,0,0,1
2.984
0,0,0,1,0,1,1,1,1,1,0,1,0
2.197
0,0,0,1,0,1,1,1,1,1,0,1,1
2.616
0,0,0,1,0,1,1,1,1,1,1,0,0
2.618
0,0,0,1,0,1,1,1,1,1,1,0,1
2.877
0,0,0,1,0,1,1,1,1,1,1,1,0
2.171
0,0,0,1,0,1,1,1,1,1,1,1,1
2.675
0,0,0,1,1,0,0,0,0,0,0,0,0
2.731
0,0,0,1,1,0,0,0,0,0,0,0,1
3.067
0,0,0,1,1,0,0,0,0,0,0,1,0
2.965
0,0,0,1,1,0,0,0,0,0,0,1,1
14.888
0,0,0,1,1,0,0,0,0,0,1,0,0
18.304
0,0,0,1,1,0,0,0,0,0,1,0,1
21.308
0,0,0,1,1,0,0,0,0,0,1,1,0
19.604
0,0,0,1,1,0,0,0,0,0,1,1,1
17.72
0,0,0,1,1,0,0,0,0,1,0,0,0
15.911
0,0,0,1,1,0,0,0,0,1,0,0,1
18.888
0,0,0,1,1,0,0,0,0,1,0,1,0
15.994
0,0,0,1,1,0,0,0,0,1,0,1,1
18.115
0,0,0,1,1,0,0,0,0,1,1,0,0
16.183
0,0,0,1,1,0,0,0,0,1,1,0,1
17.551
0,0,0,1,1,0,0,0,0,1,1,1,0
18.021
0,0,0,1,1,0,0,0,0,1,1,1,1
16.893
0,0,0,1,1,0,0,0,1,0,0,0,0
13.108
0,0,0,1,1,0,0,0,1,0,0,0,1
13.745
0,0,0,1,1,0,0,0,1,0,0,1,0
13.228
0,0,0,1,1,0,0,0,1,0,0,1,1
16.491
0,0,0,1,1,0,0,0,1,0,1,0,0
13.581
0,0,0,1,1,0,0,0,1,0,1,0,1
13.91
0,0,0,1,1,0,0,0,1,0,1,1,0
13.694
0,0,0,1,1,0,0,0,1,0,1,1,1
20.487
0,0,0,1,1,0,0,0,1,1,0,0,0
19.45
0,0,0,1,1,0,0,0,1,1,0,0,1
21.511
0,0,0,1,1,0,0,0,1,1,0,1,0
20.846
0,0,0,1,1,0,0,0,1,1,0,1,1
21.407
0,0,0,1,1,0,0,0,1,1,1,0,0
13.044
0,0,0,1,1,0,0,0,1,1,1,0,1
16.115
0,0,0,1,1,0,0,0,1,1,1,1,0
15.452
0,0,0,1,1,0,0,0,1,1,1,1,1
16.459
0,0,0,1,1,0,0,1,0,0,0,0,0
11.531
0,0,0,1,1,0,0,1,0,0,0,0,1
18.777
0,0,0,1,1,0,0,1,0,0,0,1,0
19.389
0,0,0,1,1,0,0,1,0,0,0,1,1
21.06
0,0,0,1,1,0,0,1,0,0,1,0,0
16.594
0,0,0,1,1,0,0,1,0,0,1,0,1
18.375
0,0,0,1,1,0,0,1,0,0,1,1,0
18.494
0,0,0,1,1,0,0,1,0,0,1,1,1
19.862
0,0,0,1,1,0,0,1,0,1,0,0,0
18.067
0,0,0,1,1,0,0,1,0,1,0,0,1
14.122
0,0,0,1,1,0,0,1,0,1,0,1,0
14.569
0,0,0,1,1,0,0,1,0,1,0,1,1
16.369
0,0,0,1,1,0,0,1,0,1,1,0,0
13.579
0,0,0,1,1,0,0,1,0,1,1,0,1
13.881
0,0,0,1,1,0,0,1,0,1,1,1,0
18.885
0,0,0,1,1,0,0,1,0,1,1,1,1
22.182
0,0,0,1,1,0,0,1,1,0,0,0,0
17.53
0,0,0,1,1,0,0,1,1,0,0,0,1
20.683
0,0,0,1,1,0,0,1,1,0,0,1,0
18.175
0,0,0,1,1,0,0,1,1,0,0,1,1
21.204
0,0,0,1,1,0,0,1,1,0,1,0,0
18.179
0,0,0,1,1,0,0,1,1,0,1,0,1
21.723
0,0,0,1,1,0,0,1,1,0,1,1,0
13.066
0,0,0,1,1,0,0,1,1,0,1,1,1
15.082
0,0,0,1,1,0,0,1,1,1,0,0,1
14.535
0,0,0,1,1,0,0,1,1,1,0,1,0
11.71
0,0,0,1,1,0,0,1,1,1,0,1,1
12.555
0,0,0,1,1,0,0,1,1,1,1,0,0
10.771
0,0,0,1,1,0,0,1,1,1,1,0,1
12.965
0,0,0,1,1,0,0,1,1,1,1,1,0
11.724
0,0,0,1,1,0,0,1,1,1,1,1,1
12.253
0,0,0,1,1,0,1,0,0,0,0,0,0
10.732
0,0,0,1,1,0,1,0,0,0,0,0,1
12.239
0,0,0,1,1,0,1,0,0,0,0,1,0
10.873
0,0,0,1,1,0,1,0,0,0,0,1,1
11.827
0,0,0,1,1,0,1,0,0,0,1,0,0
10.823
0,0,0,1,1,0,1,0,0,0,1,0,1
12.166
0,0,0,1,1,0,1,0,0,0,1,1,0
10.726
0,0,0,1,1,0,1,0,0,0,1,1,1
13.837
0,0,0,1,1,0,1,0,0,1,0,0,0
12.846
0,0,0,1,1,0,1,0,0,1,0,0,1
19.443
0,0,0,1,1,0,1,0,0,1,0,1,0
16.471
0,0,0,1,1,0,1,0,0,1,0,1,1
17.328
0,0,0,1,1,0,1,0,0,1,1,0,0
16.254
0,0,0,1,1,0,1,0,0,1,1,0,1
16.677
0,0,0,1,1,0,1,0,0,1,1,1,0
21.95
0,0,0,1,1,0,1,0,0,1,1,1,1
23.382
0,0,0,1,1,0,1,0,1,0,0,0,0
20.605
0,0,0,1,1,0,1,0,1,0,0,0,1
22.804
0,0,0,1,1,0,1,0,1,0,0,1,0
20.88
0,0,0,1,1,0,1,0,1,0,0,1,1
23.742
0,0,0,1,1,0,1,0,1,0,1,0,0
21.172
0,0,0,1,1,0,1,0,1,0,1,0,1
21.582
0,0,0,1,1,0,1,0,1,0,1,1,0
17.645
0,0,0,1,1,0,1,0,1,0,1,1,1
23.409
0,0,0,1,1,0,1,0,1,1,0,0,0
22.158
0,0,0,1,1,0,1,0,1,1,0,0,1
24.38
0,0,0,1,1,0,1,0,1,1,0,1,0
16.205
0,0,0,1,1,0,1,0,1,1,0,1,1
18.528
0,0,0,1,1,0,1,0,1,1,1,0,0
15.709
0,0,0,1,1,0,1,0,1,1,1,0,1
17.79
0,0,0,1,1,0,1,0,1,1,1,1,0
16.204
0,0,0,1,1,0,1,0,1,1,1,1,1
24.507
0,0,0,1,1,0,1,1,0,0,0,0,0
19.225
0,0,0,1,1,0,1,1,0,0,0,0,1
21.516
0,0,0,1,1,0,1,1,0,0,0,1,0
19.53
0,0,0,1,1,0,1,1,0,0,1,0,0
14.764
0,0,0,1,1,0,1,1,0,0,1,0,1
15.575
0,0,0,1,1,0,1,1,0,0,1,1,0
14.482
0,0,0,1,1,0,1,1,0,0,1,1,1
21.053
0,0,0,1,1,0,1,1,0,1,0,0,0
19.648
0,0,0,1,1,0,1,1,0,1,0,0,1
22.761
0,0,0,1,1,0,1,1,0,1,0,1,0
20.051
0,0,0,1,1,0,1,1,0,1,0,1,1
22.562
0,0,0,1,1,0,1,1,0,1,1,0,0
19.798
0,0,0,1,1,0,1,1,0,1,1,0,1
22.893
0,0,0,1,1,0,1,1,0,1,1,1,0
20.695
0,0,0,1,1,0,1,1,0,1,1,1,1
22.028
0,0,0,1,1,0,1,1,1,0,0,0,0
19.413
0,0,0,1,1,0,1,1,1,0,0,0,1
22.386
0,0,0,1,1,0,1,1,1,0,0,1,0
18.786
0,0,0,1,1,0,1,1,1,0,0,1,1
20.465
0,0,0,1,1,0,1,1,1,0,1,0,0
19.051
0,0,0,1,1,0,1,1,1,0,1,0,1
22.556
0,0,0,1,1,0,1,1,1,0,1,1,0
16.373
0,0,0,1,1,0,1,1,1,0,1,1,1
17.204
0,0,0,1,1,0,1,1,1,1,0,0,0
15.447
0,0,0,1,1,0,1,1,1,1,0,0,1
16.727
0,0,0,1,1,0,1,1,1,1,0,1,0
15.259
0,0,0,1,1,0,1,1,1,1,0,1,1
23.32
0,0,0,1,1,0,1,1,1,1,1,0,0
20.494
0,0,0,1,1,0,1,1,1,1,1,0,1
21.145
0,0,0,1,1,0,1,1,1,1,1,1,0
18.747
0,0,0,1,1,0,1,1,1,1,1,1,1
16.722
0,0,0,1,1,1,0,0,0,0,0,0,0
10.579
0,0,0,1,1,1,0,0,0,0,0,0,1
15.108
0,0,0,1,1,1,0,0,0,0,0,1,0
9.86
0,0,0,1,1,1,0,0,0,0,0,1,1
13.423
0,0,0,1,1,1,0,0,0,0,1,0,0
15.906
0,0,0,1,1,1,0,0,0,0,1,0,1
17.856
0,0,0,1,1,1,0,0,0,0,1,1,0
14.613
0,0,0,1,1,1,0,0,0,0,1,1,1
17.871
0,0,0,1,1,1,0,0,0,1,0,0,0
14.055
0,0,0,1,1,1,0,0,0,1,0,0,1
15.63
0,0,0,1,1,1,0,0,0,1,0,1,0
12.784
0,0,0,1,1,1,0,0,0,1,0,1,1
15.102
0,0,0,1,1,1,0,0,0,1,1,0,0
12.778
0,0,0,1,1,1,0,0,0,1,1,0,1
15.071
0,0,0,1,1,1,0,0,0,1,1,1,1
12.06
0,0,0,1,1,1,0,0,1,0,0,0,0
10.909
0,0,0,1,1,1,0,0,1,0,0,0,1
13.454
0,0,0,1,1,1,0,0,1,0,0,1,0
9.005
0,0,0,1,1,1,0,0,1,0,0,1,1
12.831
0,0,0,1,1,1,0,0,1,0,1,0,0
11.77
0,0,0,1,1,1,0,0,1,0,1,0,1
13.665
0,0,0,1,1,1,0,0,1,0,1,1,0
13.046
0,0,0,1,1,1,0,0,1,0,1,1,1
11.239
0,0,0,1,1,1,0,0,1,1,0,0,0
11.201
0,0,0,1,1,1,0,0,1,1,0,0,1
13.137
0,0,0,1,1,1,0,0,1,1,0,1,0
10.16
0,0,0,1,1,1,0,0,1,1,0,1,1
11.781
0,0,0,1,1,1,0,0,1,1,1,0,0
14.244
0,0,0,1,1,1,0,0,1,1,1,0,1
16.708
0,0,0,1,1,1,0,0,1,1,1,1,0
13.674
0,0,0,1,1,1,0,0,1,1,1,1,1
14.501
0,0,0,1,1,1,0,1,0,0,0,0,0
14.024
0,0,0,1,1,1,0,1,0,0,0,0,1
17.64
0,0,0,1,1,1,0,1,0,0,0,1,0
13.852
0,0,0,1,1,1,0,1,0,0,0,1,1
16.182
0,0,0,1,1,1,0,1,0,0,1,0,0
14.102
0,0,0,1,1,1,0,1,0,0,1,0,1
18.217
0,0,0,1,1,1,0,1,0,0,1,1,0
13.922
0,0,0,1,1,1,0,1,0,0,1,1,1
15.315
0,0,0,1,1,1,0,1,0,1,0,0,0
9.858
0,0,0,1,1,1,0,1,0,1,0,0,1
12.472
0,0,0,1,1,1,0,1,0,1,0,1,0
9.178
0,0,0,1,1,1,0,1,0,1,0,1,1
13.399
0,0,0,1,1,1,0,1,0,1,1,0,0
11.465
0,0,0,1,1,1,0,1,0,1,1,0,1
17.726
0,0,0,1,1,1,0,1,0,1,1,1,0
13.715
0,0,0,1,1,1,0,1,0,1,1,1,1
15.611
0,0,0,1,1,1,0,1,1,0,0,0,0
14.054
0,0,0,1,1,1,0,1,1,0,0,0,1
16.352
0,0,0,1,1,1,0,1,1,0,0,1,0
13.788
0,0,0,1,1,1,0,1,1,0,0,1,1
15.33
0,0,0,1,1,1,0,1,1,0,1,0,0
14.915
0,0,0,1,1,1,0,1,1,0,1,0,1
16.757
0,0,0,1,1,1,0,1,1,0,1,1,0
12.19
0,0,0,1,1,1,0,1,1,0,1,1,1
15.763
0,0,0,1,1,1,0,1,1,1,0,0,0
13.511
0,0,0,1,1,1,0,1,1,1,0,1,0
13.183
0,0,0,1,1,1,0,1,1,1,0,1,1
16.158
0,0,0,1,1,1,0,1,1,1,1,0,0
13.951
0,0,0,1,1,1,0,1,1,1,1,0,1
2.747
0,0,0,1,1,1,0,1,1,1,1,1,0
2.085
0,0,0,1,1,1,0,1,1,1,1,1,1
2.565
0,0,0,1,1,1,1,0,0,0,0,0,0
2.624
0,0,0,1,1,1,1,0,0,0,0,0,1
2.962
0,0,0,1,1,1,1,0,0,0,0,1,0
2.294
0,0,0,1,1,1,1,0,0,0,0,1,1
2.685
0,0,0,1,1,1,1,0,0,0,1,0,0
2.59
0,0,0,1,1,1,1,0,0,0,1,0,1
2.954
0,0,0,1,1,1,1,0,0,0,1,1,0
2.198
0,0,0,1,1,1,1,0,0,0,1,1,1
2.581
0,0,0,1,1,1,1,0,0,1,0,0,0
2.785
0,0,0,1,1,1,1,0,0,1,0,0,1
3.175
0,0,0,1,1,1,1,0,0,1,0,1,0
2.443
0,0,0,1,1,1,1,0,0,1,0,1,1
2.719
0,0,0,1,1,1,1,0,0,1,1,0,0
2.639
0,0,0,1,1,1,1,0,0,1,1,0,1
3.365
0,0,0,1,1,1,1,0,0,1,1,1,0
2.498
0,0,0,1,1,1,1,0,1,0,0,0,0
2.514
0,0,0,1,1,1,1,0,1,0,0,0,1
3.081
0,0,0,1,1,1,1,0,1,0,0,1,0
2.303
0,0,0,1,1,1,1,0,1,0,0,1,1
2.607
0,0,0,1,1,1,1,0,1,0,1,0,0
2.545
0,0,0,1,1,1,1,0,1,0,1,0,1
3.128
0,0,0,1,1,1,1,0,1,0,1,1,0
9.697
0,0,0,1,1,1,1,0,1,0,1,1,1
11.709
0,0,0,1,1,1,1,0,1,1,0,0,0
11.75
0,0,0,1,1,1,1,0,1,1,0,0,1
14.181
0,0,0,1,1,1,1,0,1,1,0,1,0
10.534
0,0,0,1,1,1,1,0,1,1,0,1,1
12.772
0,0,0,1,1,1,1,0,1,1,1,0,0
12.083
0,0,0,1,1,1,1,0,1,1,1,0,1
13.312
0,0,0,1,1,1,1,0,1,1,1,1,0
10.198
0,0,0,1,1,1,1,0,1,1,1,1,1
12.874
0,0,0,1,1,1,1,1,0,0,0,0,0
12.259
0,0,0,1,1,1,1,1,0,0,0,0,1
13.548
0,0,0,1,1,1,1,1,0,0,0,1,0
6.822
0,0,0,1,1,1,1,1,0,0,0,1,1
9.393
0,0,0,1,1,1,1,1,0,0,1,0,0
8.272
0,0,0,1,1,1,1,1,0,0,1,0,1
9.88
0,0,0,1,1,1,1,1,0,0,1,1,0
8.149
0,0,0,1,1,1,1,1,0,0,1,1,1
8.546
0,0,0,1,1,1,1,1,0,1,0,0,0
8.608
0,0,0,1,1,1,1,1,0,1,0,0,1
13.743
0,0,0,1,1,1,1,1,0,1,0,1,0
10.77
0,0,0,1,1,1,1,1,0,1,0,1,1
14.216
0,0,0,1,1,1,1,1,0,1,1,0,0
12.556
0,0,0,1,1,1,1,1,0,1,1,0,1
16.411
0,0,0,1,1,1,1,1,0,1,1,1,0
11.993
0,0,0,1,1,1,1,1,0,1,1,1,1
13.72
0,0,0,1,1,1,1,1,1,0,0,0,0
11.285
0,0,0,1,1,1,1,1,1,0,0,0,1
3.001
0,0,0,1,1,1,1,1,1,0,0,1,0
2.118
0,0,0,1,1,1,1,1,1,0,0,1,1
2.57
0,0,0,1,1,1,1,1,1,0,1,0,0
2.761
0,0,0,1,1,1,1,1,1,0,1,0,1
2.951
0,0,0,1,1,1,1,1,1,0,1,1,0
2.325
0,0,0,1,1,1,1,1,1,0,1,1,1
2.742
0,0,0,1,1,1,1,1,1,1,0,0,0
2.602
0,0,0,1,1,1,1,1,1,1,0,0,1
2.931
0,0,0,1,1,1,1,1,1,1,0,1,0
2.436
0,0,0,1,1,1,1,1,1,1,0,1,1
2.8
0,0,0,1,1,1,1,1,1,1,1,0,0
2.754
0,0,0,1,1,1,1,1,1,1,1,0,1
3.214
0,0,0,1,1,1,1,1,1,1,1,1,0
2.289
0,0,0,1,1,1,1,1,1,1,1,1,1
2.894
0,0,1,0,0,0,0,0,0,0,0,0,0
2.027
0,0,1,0,0,0,0,0,0,0,0,0,1
2.087
0,0,1,0,0,0,0,0,0,0,0,1,0
2.542
0,0,1,0,0,0,0,0,0,0,0,1,1
2.679
0,0,1,0,0,0,0,0,0,0,1,0,0
2.019
0,0,1,0,0,0,0,0,0,0,1,0,1
2.269
0,0,1,0,0,0,0,0,0,0,1,1,0
2.462
0,0,1,0,0,0,0,0,0,0,1,1,1
2.735
0,0,1,0,0,0,0,0,0,1,0,0,0
2.593
0,0,1,0,0,0,0,0,0,1,0,0,1
2.718
0,0,1,0,0,0,0,0,0,1,0,1,0
3.099
0,0,1,0,0,0,0,0,0,1,0,1,1
3.316
0,0,1,0,0,0,0,0,0,1,1,0,0
2.402
0,0,1,0,0,0,0,0,0,1,1,0,1
2.699
0,0,1,0,0,0,0,0,0,1,1,1,0
3.196
0,0,1,0,0,0,0,0,0,1,1,1,1
3.585
0,0,1,0,0,0,0,0,1,0,0,0,1
2.77
0,0,1,0,0,0,0,0,1,0,0,1,0
3.196
0,0,1,0,0,0,0,0,1,0,0,1,1
3.112
0,0,1,0,0,0,0,0,1,0,1,0,0
2.28
0,0,1,0,0,0,0,0,1,0,1,0,1
2.35
0,0,1,0,0,0,0,0,1,0,1,1,0
2.943
0,0,1,0,0,0,0,0,1,0,1,1,1
3.142
0,0,1,0,0,0,0,0,1,1,0,0,0
2.584
0,0,1,0,0,0,0,0,1,1,0,0,1
2.765
0,0,1,0,0,0,0,0,1,1,0,1,0
16.353
0,0,1,0,0,0,0,0,1,1,0,1,1
17.977
0,0,1,0,0,0,0,0,1,1,1,0,0
11.282
0,0,1,0,0,0,0,0,1,1,1,0,1
2.654
0,0,1,0,0,0,0,0,1,1,1,1,0
3.04
0,0,1,0,0,0,0,0,1,1,1,1,1
3.386
0,0,1,0,0,0,0,1,0,0,0,0,0
2.082
0,0,1,0,0,0,0,1,0,0,0,0,1
2.248
0,0,1,0,0,0,0,1,0,0,0,1,0
2.774
0,0,1,0,0,0,0,1,0,0,0,1,1
2.897
0,0,1,0,0,0,0,1,0,0,1,0,0
2.17
0,0,1,0,0,0,0,1,0,0,1,0,1
2.354
0,0,1,0,0,0,0,1,0,0,1,1,1
2.977
0,0,1,0,0,0,0,1,0,1,0,0,0
2.576
0,0,1,0,0,0,0,1,0,1,0,0,1
2.702
0,0,1,0,0,0,0,1,0,1,0,1,0
3.101
0,0,1,0,0,0,0,1,0,1,0,1,1
3.33
0,0,1,0,0,0,0,1,0,1,1,0,0
2.496
0,0,1,0,0,0,0,1,0,1,1,0,1
2.629
0,0,1,0,0,0,0,1,0,1,1,1,0
3.159
0,0,1,0,0,0,0,1,0,1,1,1,1
3.24
0,0,1,0,0,0,0,1,1,0,0,0,0
2.298
0,0,1,0,0,0,0,1,1,0,0,0,1
2.522
0,0,1,0,0,0,0,1,1,0,0,1,0
2.961
0,0,1,0,0,0,0,1,1,0,0,1,1
3.254
0,0,1,0,0,0,0,1,1,0,1,0,0
2.25
0,0,1,0,0,0,0,1,1,0,1,0,1
2.504
0,0,1,0,0,0,0,1,1,0,1,1,0
2.95
0,0,1,0,0,0,0,1,1,0,1,1,1
3.108
0,0,1,0,0,0,0,1,1,1,0,0,0
2.631
0,0,1,0,0,0,0,1,1,1,0,0,1
2.684
0,0,1,0,0,0,0,1,1,1,0,1,0
3.118
0,0,1,0,0,0,0,1,1,1,0,1,1
10.819
0,0,1,0,0,0,0,1,1,1,1,0,0
9.021
0,0,1,0,0,0,0,1,1,1,1,0,1
9.356
0,0,1,0,0,0,0,1,1,1,1,1,0
10.87
0,0,1,0,0,0,0,1,1,1,1,1,1
10.049
0,0,1,0,0,0,1,0,0,0,0,0,0
7.635
0,0,1,0,0,0,1,0,0,0,0,0,1
9.115
0,0,1,0,0,0,1,0,0,0,0,1,0
9.27
0,0,1,0,0,0,1,0,0,0,0,1,1
10.307
0,0,1,0,0,0,1,0,0,0,1,0,0
7.319
0,0,1,0,0,0,1,0,0,0,1,0,1
9.564
0,0,1,0,0,0,1,0,0,0,1,1,0
8.467
0,0,1,0,0,0,1,0,0,0,1,1,1
9.902
0,0,1,0,0,0,1,0,0,1,0,0,0
8.833
0,0,1,0,0,0,1,0,0,1,0,0,1
10.475
0,0,1,0,0,0,1,0,0,1,0,1,0
10.157
0,0,1,0,0,0,1,0,0,1,0,1,1
11.414
0,0,1,0,0,0,1,0,0,1,1,0,0
9.837
0,0,1,0,0,0,1,0,0,1,1,0,1
10.529
0,0,1,0,0,0,1,0,0,1,1,1,0
10.542
0,0,1,0,0,0,1,0,0,1,1,1,1
11.466
0,0,1,0,0,0,1,0,1,0,0,0,0
7.677
0,0,1,0,0,0,1,0,1,0,0,0,1
8.242
0,0,1,0,0,0,1,0,1,0,0,1,0
9.779
0,0,1,0,0,0,1,0,1,0,0,1,1
10.286
0,0,1,0,0,0,1,0,1,0,1,0,0
7.885
0,0,1,0,0,0,1,0,1,0,1,0,1
8.002
0,0,1,0,0,0,1,0,1,0,1,1,0
9.071
0,0,1,0,0,0,1,0,1,0,1,1,1
11.011
0,0,1,0,0,0,1,0,1,1,0,0,0
10.871
0,0,1,0,0,0,1,0,1,1,0,0,1
2.986
0,0,1,0,0,0,1,0,1,1,0,1,0
3.492
0,0,1,0,0,0,1,0,1,1,0,1,1
3.493
0,0,1,0,0,0,1,0,1,1,1,0,0
2.926
0,0,1,0,0,0,1,0,1,1,1,0,1
2.96
0,0,1,0,0,0,1,0,1,1,1,1,0
3.661
0,0,1,0,0,0,1,0,1,1,1,1,1
3.481
0,0,1,0,0,0,1,1,0,0,0,0,0
2.54
0,0,1,0,0,0,1,1,0,0,0,0,1
2.765
0,0,1,0,0,0,1,1,0,0,0,1,0
3.244
0,0,1,0,0,0,1,1,0,0,0,1,1
3.145
0,0,1,0,0,0,1,1,0,0,1,0,0
2.441
0,0,1,0,0,0,1,1,0,0,1,0,1
2.824
0,0,1,0,0,0,1,1,0,0,1,1,0
2.998
0,0,1,0,0,0,1,1,0,1,0,0,0
2.82
0,0,1,0,0,0,1,1,0,1,0,0,1
3.152
0,0,1,0,0,0,1,1,0,1,0,1,0
3.422
0,0,1,0,0,0,1,1,0,1,0,1,1
3.436
0,0,1,0,0,0,1,1,0,1,1,0,0
2.83
0,0,1,0,0,0,1,1,0,1,1,0,1
3.054
0,0,1,0,0,0,1,1,0,1,1,1,0
3.213
0,0,1,0,0,0,1,1,0,1,1,1,1
3.429
0,0,1,0,0,0,1,1,1,0,0,0,0
2.813
0,0,1,0,0,0,1,1,1,0,0,0,1
3.078
0,0,1,0,0,0,1,1,1,0,0,1,0
3.265
0,0,1,0,0,0,1,1,1,0,0,1,1
3.205
0,0,1,0,0,0,1,1,1,0,1,0,0
2.684
0,0,1,0,0,0,1,1,1,0,1,0,1
3.041
0,0,1,0,0,0,1,1,1,0,1,1,0
2.956
0,0,1,0,0,0,1,1,1,0,1,1,1
3.264
0,0,1,0,0,0,1,1,1,1,0,0,0
3.004
0,0,1,0,0,0,1,1,1,1,0,0,1
3.035
0,0,1,0,0,0,1,1,1,1,0,1,0
3.341
0,0,1,0,0,0,1,1,1,1,0,1,1
3.511
0,0,1,0,0,0,1,1,1,1,1,0,0
3.019
0,0,1,0,0,0,1,1,1,1,1,1,0
3.571
0,0,1,0,0,0,1,1,1,1,1,1,1
3.582
0,0,1,0,0,1,0,0,0,0,0,0,0
2.443
0,0,1,0,0,1,0,0,0,0,0,0,1
2.486
0,0,1,0,0,1,0,0,0,0,0,1,0
2.291
0,0,1,0,0,1,0,0,0,0,0,1,1
2.391
0,0,1,0,0,1,0,0,0,0,1,0,0
2.396
0,0,1,0,0,1,0,0,0,0,1,0,1
2.635
0,0,1,0,0,1,0,0,0,0,1,1,0
2.251
0,0,1,0,0,1,0,0,0,0,1,1,1
2.583
0,0,1,0,0,1,0,0,0,1,0,0,0
10.176
0,0,1,0,0,1,0,0,0,1,0,0,1
9.188
0,0,1,0,0,1,0,0,0,1,0,1,0
9.847
0,0,1,0,0,1,0,0,0,1,0,1,1
10.894
0,0,1,0,0,1,0,0,0,1,1,0,0
8.39
0,0,1,0,0,1,0,0,0,1,1,0,1
10.429
0,0,1,0,0,1,0,0,0,1,1,1,0
7.49
0,0,1,0,0,1,0,0,0,1,1,1,1
3.259
0,0,1,0,0,1,0,0,1,0,0,0,0
2.035
0,0,1,0,0,1,0,0,1,0,0,0,1
2.275
0,0,1,0,0,1,0,0,1,0,0,1,0
2.074
0,0,1,0,0,1,0,0,1,0,0,1,1
2.298
0,0,1,0,0,1,0,0,1,0,1,0,0
2.128
0,0,1,0,0,1,0,0,1,0,1,0,1
2.156
0,0,1,0,0,1,0,0,1,0,1,1,0
2.071
0,0,1,0,0,1,0,0,1,0,1,1,1
2.307
0,0,1,0,0,1,0,0,1,1,0,0,0
2.136
0,0,1,0,0,1,0,0,1,1,0,0,1
2.389
0,0,1,0,0,1,0,0,1,1,0,1,0
2.372
0,0,1,0,0,1,0,0,1,1,0,1,1
2.51
0,0,1,0,0,1,0,0,1,1,1,0,0
2.189
0,0,1,0,0,1,0,0,1,1,1,0,1
2.29
0,0,1,0,0,1,0,0,1,1,1,1,0
2.28
0,0,1,0,0,1,0,0,1,1,1,1,1
2.422
0,0,1,0,0,1,0,1,0,0,0,0,0
2.039
0,0,1,0,0,1,0,1,0,0,0,0,1
2.331
0,0,1,0,0,1,0,1,0,0,0,1,0
2.285
0,0,1,0,0,1,0,1,0,0,0,1,1
2.344
0,0,1,0,0,1,0,1,0,0,1,0,0
2.177
0,0,1,0,0,1,0,1,0,0,1,0,1
2.328
0,0,1,0,0,1,0,1,0,0,1,1,0
2.132
0,0,1,0,0,1,0,1,0,0,1,1,1
2.386
0,0,1,0,0,1,0,1,0,1,0,0,0
2.274
0,0,1,0,0,1,0,1,0,1,0,0,1
2.388
0,0,1,0,0,1,0,1,0,1,0,1,0
2.4
0,0,1,0,0,1,0,1,0,1,0,1,1
2.498
0,0,1,0,0,1,0,1,0,1,1,0,0
9.174
0,0,1,0,0,1,0,1,0,1,1,0,1
9.047
0,0,1,0,0,1,0,1,0,1,1,1,0
9.418
0,0,1,0,0,1,0,1,0,1,1,1,1
10.079
0,0,1,0,0,1,0,1,1,0,0,0,0
8.712
0,0,1,0,0,1,0,1,1,0,0,0,1
8.978
0,0,1,0,0,1,0,1,1,0,0,1,0
8.666
0,0,1,0,0,1,0,1,1,0,0,1,1
8.757
0,0,1,0,0,1,0,1,1,0,1,0,0
8.331
0,0,1,0,0,1,0,1,1,0,1,0,1
9.909
0,0,1,0,0,1,0,1,1,0,1,1,0
9.646
0,0,1,0,0,1,0,1,1,0,1,1,1
9.301
0,0,1,0,0,1,0,1,1,1,0,0,0
9.091
0,0,1,0,0,1,0,1,1,1,0,0,1
9.914
0,0,1,0,0,1,0,1,1,1,0,1,0
9.026
0,0,1,0,0,1,0,1,1,1,0,1,1
7.235
0,0,1,0,0,1,0,1,1,1,1,0,0
7.144
0,0,1,0,0,1,0,1,1,1,1,0,1
7.716
0,0,1,0,0,1,0,1,1,1,1,1,0
7.672
0,0,1,0,0,1,0,1,1,1,1,1,1
7.929
0,0,1,0,0,1,1,0,0,0,0,0,0
2.813
0,0,1,0,0,1,1,0,0,0,0,0,1
2.653
0,0,1,0,0,1,1,0,0,0,0,1,0
2.252
0,0,1,0,0,1,1,0,0,0,0,1,1
2.491
0,0,1,0,0,1,1,0,0,0,1,0,0
2.429
0,0,1,0,0,1,1,0,0,0,1,0,1
2.654
0,0,1,0,0,1,1,0,0,0,1,1,0
2.351
0,0,1,0,0,1,1,0,0,0,1,1,1
2.542
0,0,1,0,0,1,1,0,0,1,0,0,0
2.759
0,0,1,0,0,1,1,0,0,1,0,0,1
2.819
0,0,1,0,0,1,1,0,0,1,0,1,0
2.577
0,0,1,0,0,1,1,0,0,1,0,1,1
2.766
0,0,1,0,0,1,1,0,0,1,1,0,0
2.677
0,0,1,0,0,1,1,0,0,1,1,0,1
2.863
0,0,1,0,0,1,1,0,0,1,1,1,0
2.564
0,0,1,0,0,1,1,0,0,1,1,1,1
2.749
0,0,1,0,0,1,1,0,1,0,0,0,0
2.509
0,0,1,0,0,1,1,0,1,0,0,0,1
2.681
0,0,1,0,0,1,1,0,1,0,0,1,0
2.402
0,0,1,0,0,1,1,0,1,0,0,1,1
2.511
0,0,1,0,0,1,1,0,1,0,1,0,1
2.659
0,0,1,0,0,1,1,0,1,0,1,1,0
2.412
0,0,1,0,0,1,1,0,1,0,1,1,1
2.469
0,0,1,0,0,1,1,0,1,1,0,0,0
2.596
0,0,1,0,0,1,1,0,1,1,0,0,1
2.846
0,0,1,0,0,1,1,0,1,1,0,1,0
2.866
0,0,1,0,0,1,1,0,1,1,0,1,1
3.07
0,0,1,0,0,1,1,0,1,1,1,0,0
4.483
0,0,1,0,0,1,1,0,1,1,1,0,1
4.662
0,0,1,0,0,1,1,0,1,1,1,1,0
4.266
0,0,1,0,0,1,1,0,1,1,1,1,1
4.573
0,0,1,0,0,1,1,1,0,0,0,0,0
4.326
0,0,1,0,0,1,1,1,0,0,0,0,1
4.616
0,0,1,0,0,1,1,1,0,0,0,1,0
4.135
0,0,1,0,0,1,1,1,0,0,0,1,1
4.417
0,0,1,0,0,1,1,1,0,0,1,0,0
4.314
0,0,1,0,0,1,1,1,0,0,1,0,1
4.653
0,0,1,0,0,1,1,1,0,0,1,1,0
4.228
0,0,1,0,0,1,1,1,0,0,1,1,1
4.341
0,0,1,0,0,1,1,1,0,1,0,0,0
4.645
0,0,1,0,0,1,1,1,0,1,0,0,1
5.02
0,0,1,0,0,1,1,1,0,1,0,1,1
4.813
0,0,1,0,0,1,1,1,0,1,1,0,0
4.67
0,0,1,0,0,1,1,1,0,1,1,0,1
4.896
0,0,1,0,0,1,1,1,0,1,1,1,0
4.479
0,0,1,0,0,1,1,1,0,1,1,1,1
4.725
0,0,1,0,0,1,1,1,1,0,0,0,0
4.257
0,0,1,0,0,1,1,1,1,0,0,0,1
4.674
0,0,1,0,0,1,1,1,1,0,0,1,0
4.184
0,0,1,0,0,1,1,1,1,0,0,1,1
4.59
0,0,1,0,0,1,1,1,1,0,1,0,0
4.285
0,0,1,0,0,1,1,1,1,0,1,0,1
4.59
0,0,1,0,0,1,1,1,1,0,1,1,0
4.193
0,0,1,0,0,1,1,1,1,0,1,1,1
4.473
0,0,1,0,0,1,1,1,1,1,0,0,0
4.909
0,0,1,0,0,1,1,1,1,1,0,0,1
4.71
0,0,1,0,0,1,1,1,1,1,0,1,0
4.638
0,0,1,0,0,1,1,1,1,1,0,1,1
4.394
0,0,1,0,0,1,1,1,1,1,1,0,0
4.397
0,0,1,0,0,1,1,1,1,1,1,0,1
4.643
0,0,1,0,0,1,1,1,1,1,1,1,0
4.344
0,0,1,0,0,1,1,1,1,1,1,1,1
4.678
0,0,1,0,1,0,0,0,0,0,0,0,0
4.493
0,0,1,0,1,0,0,0,0,0,0,0,1
4.474
0,0,1,0,1,0,0,0,0,0,0,1,0
5.271
0,0,1,0,1,0,0,0,0,0,0,1,1
5.644
0,0,1,0,1,0,0,0,0,0,1,0,0
4.446
0,0,1,0,1,0,0,0,0,0,1,0,1
4.603
0,0,1,0,1,0,0,0,0,0,1,1,0
5.155
0,0,1,0,1,0,0,0,0,0,1,1,1
5.778
0,0,1,0,1,0,0,0,0,1,0,0,0
5.265
0,0,1,0,1,0,0,0,0,1,0,0,1
5.362
0,0,1,0,1,0,0,0,0,1,0,1,0
6.112
0,0,1,0,1,0,0,0,0,1,0,1,1
6.505
0,0,1,0,1,0,0,0,0,1,1,0,0
5.174
0,0,1,0,1,0,0,0,0,1,1,0,1
5.476
0,0,1,0,1,0,0,0,0,1,1,1,0
6.63
0,0,1,0,1,0,0,0,0,1,1,1,1
6.366
0,0,1,0,1,0,0,0,1,0,0,0,0
4.774
0,0,1,0,1,0,0,0,1,0,0,0,1
4.742
0,0,1,0,1,0,0,0,1,0,0,1,0
5.673
0,0,1,0,1,0,0,0,1,0,0,1,1
6.039
0,0,1,0,1,0,0,0,1,0,1,0,0
4.109
0,0,1,0,1,0,0,0,1,0,1,0,1
4.514
0,0,1,0,1,0,0,0,1,0,1,1,0
5.146
0,0,1,0,1,0,0,0,1,0,1,1,1
5.389
0,0,1,0,1,0,0,0,1,1,0,0,0
4.762
0,0,1,0,1,0,0,0,1,1,0,0,1
5.113
0,0,1,0,1,0,0,0,1,1,0,1,0
5.903
0,0,1,0,1,0,0,0,1,1,0,1,1
5.956
0,0,1,0,1,0,0,0,1,1,1,0,0
4.759
0,0,1,0,1,0,0,0,1,1,1,0,1
5.017
0,0,1,0,1,0,0,0,1,1,1,1,0
5.813
0,0,1,0,1,0,0,0,1,1,1,1,1
6.115
0,0,1,0,1,0,0,1,0,0,0,0,0
4.109
0,0,1,0,1,0,0,1,0,0,0,0,1
4.306
0,0,1,0,1,0,0,1,0,0,0,1,0
5.226
0,0,1,0,1,0,0,1,0,0,0,1,1
5.403
0,0,1,0,1,0,0,1,0,0,1,0,0
4.06
0,0,1,0,1,0,0,1,0,0,1,0,1
4.306
0,0,1,0,1,0,0,1,0,0,1,1,0
5.171
0,0,1,0,1,0,0,1,0,0,1,1,1
5.452
0,0,1,0,1,0,0,1,0,1,0,0,0
4.602
0,0,1,0,1,0,0,1,0,1,0,0,1
5.023
0,0,1,0,1,0,0,1,0,1,0,1,0
5.594
0,0,1,0,1,0,0,1,0,1,1,0,0
4.805
0,0,1,0,1,0,0,1,0,1,1,0,1
4.997
0,0,1,0,1,0,0,1,0,1,1,1,0
5.533
0,0,1,0,1,0,0,1,0,1,1,1,1
6.036
0,0,1,0,1,0,0,1,1,0,0,0,0
4.353
0,0,1,0,1,0,0,1,1,0,0,0,1
4.729
0,0,1,0,1,0,0,1,1,0,0,1,0
5.218
0,0,1,0,1,0,0,1,1,0,0,1,1
5.56
0,0,1,0,1,0,0,1,1,0,1,0,0
4.225
0,0,1,0,1,0,0,1,1,0,1,0,1
4.52
0,0,1,0,1,0,0,1,1,0,1,1,0
5.359
0,0,1,0,1,0,0,1,1,0,1,1,1
5.517
0,0,1,0,1,0,0,1,1,1,0,0,0
4.613
0,0,1,0,1,0,0,1,1,1,0,0,1
4.941
0,0,1,0,1,0,0,1,1,1,0,1,0
5.642
0,0,1,0,1,0,0,1,1,1,0,1,1
5.929
0,0,1,0,1,0,0,1,1,1,1,0,0
4.634
0,0,1,0,1,0,0,1,1,1,1,0,1
4.919
0,0,1,0,1,0,0,1,1,1,1,1,0
5.836
0,0,1,0,1,0,0,1,1,1,1,1,1
6.185
0,0,1,0,1,0,1,0,0,0,0,0,0
4.742
0,0,1,0,1,0,1,0,0,0,0,1,0
5.606
0,0,1,0,1,0,1,0,0,0,0,1,1
5.901
0,0,1,0,1,0,1,0,0,0,1,0,0
4.73
0,0,1,0,1,0,1,0,0,0,1,0,1
5.043
0,0,1,0,1,0,1,0,0,0,1,1,0
5.466
0,0,1,0,1,0,1,0,0,0,1,1,1
5.936
0,0,1,0,1,0,1,0,0,1,0,0,0
5.687
0,0,1,0,1,0,1,0,0,1,0,0,1
5.946
0,0,1,0,1,0,1,0,0,1,0,1,0
6.62
0,0,1,0,1,0,1,0,0,1,0,1,1
6.767
0,0,1,0,1,0,1,0,0,1,1,0,0
5.769
0,0,1,0,1,0,1,0,0,1,1,0,1
6.117
0,0,1,0,1,0,1,0,0,1,1,1,0
5.62
0,0,1,0,1,0,1,0,0,1,1,1,1
6.406
0,0,1,0,1,0,1,0,1,0,0,0,0
4.821
0,0,1,0,1,0,1,0,1,0,0,0,1
4.952
0,0,1,0,1,0,1,0,1,0,0,1,0
5.354
0,0,1,0,1,0,1,0,1,0,0,1,1
5.611
0,0,1,0,1,0,1,0,1,0,1,0,0
4.811
0,0,1,0,1,0,1,0,1,0,1,0,1
4.909
0,0,1,0,1,0,1,0,1,0,1,1,0
5.33
0,0,1,0,1,0,1,0,1,0,1,1,1
5.637
0,0,1,0,1,0,1,0,1,1,0,0,0
5.189
0,0,1,0,1,0,1,0,1,1,0,0,1
5.467
0,0,1,0,1,0,1,0,1,1,0,1,0
5.849
0,0,1,0,1,0,1,0,1,1,0,1,1
6.172
0,0,1,0,1,0,1,0,1,1,1,0,0
5.206
0,0,1,0,1,0,1,0,1,1,1,0,1
5.857
0,0,1,0,1,0,1,0,1,1,1,1,0
6.276
0,0,1,0,1,0,1,0,1,1,1,1,1
6.55
0,0,1,0,1,0,1,1,0,0,0,0,0
4.963
0,0,1,0,1,0,1,1,0,0,0,0,1
5.293
0,0,1,0,1,0,1,1,0,0,0,1,0
5.547
0,0,1,0,1,0,1,1,0,0,0,1,1
5.938
0,0,1,0,1,0,1,1,0,0,1,0,0
4.891
0,0,1,0,1,0,1,1,0,0,1,0,1
5.217
0,0,1,0,1,0,1,1,0,0,1,1,0
5.591
0,0,1,0,1,0,1,1,0,0,1,1,1
5.938
0,0,1,0,1,0,1,1,0,1,0,0,0
5.517
0,0,1,0,1,0,1,1,0,1,0,0,1
5.788
0,0,1,0,1,0,1,1,0,1,0,1,0
6.186
0,0,1,0,1,0,1,1,0,1,0,1,1
6.744
0,0,1,0,1,0,1,1,0,1,1,0,0
5.644
0,0,1,0,1,0,1,1,0,1,1,0,1
5.575
0,0,1,0,1,0,1,1,0,1,1,1,0
6.305
0,0,1,0,1,0,1,1,0,1,1,1,1
6.684
0,0,1,0,1,0,1,1,1,0,0,0,0
5.168
0,0,1,0,1,0,1,1,1,0,0,0,1
5.392
0,0,1,0,1,0,1,1,1,0,0,1,0
5.826
0,0,1,0,1,0,1,1,1,0,0,1,1
6.233
0,0,1,0,1,0,1,1,1,0,1,0,0
5.108
0,0,1,0,1,0,1,1,1,0,1,0,1
5.272
0,0,1,0,1,0,1,1,1,0,1,1,0
5.737
0,0,1,0,1,0,1,1,1,0,1,1,1
5.816
0,0,1,0,1,0,1,1,1,1,0,0,0
5.236
0,0,1,0,1,0,1,1,1,1,0,0,1
5.376
0,0,1,0,1,0,1,1,1,1,0,1,0
5.811
0,0,1,0,1,0,1,1,1,1,0,1,1
5.987
0,0,1,0,1,0,1,1,1,1,1,0,0
5.158
0,0,1,0,1,0,1,1,1,1,1,0,1
5.259
0,0,1,0,1,0,1,1,1,1,1,1,0
5.859
0,0,1,0,1,0,1,1,1,1,1,1,1
6.062
0,0,1,0,1,1,0,0,0,0,0,0,0
3.824
0,0,1,0,1,1,0,0,0,0,0,0,1
4.114
0,0,1,0,1,1,0,0,0,0,0,1,1
4.237
0,0,1,0,1,1,0,0,0,0,1,0,0
4.045
0,0,1,0,1,1,0,0,0,0,1,0,1
4.18
0,0,1,0,1,1,0,0,0,0,1,1,0
3.916
0,0,1,0,1,1,0,0,0,0,1,1,1
4.217
0,0,1,0,1,1,0,0,0,1,0,0,0
4.223
0,0,1,0,1,1,0,0,0,1,0,0,1
4.512
0,0,1,0,1,1,0,0,0,1,0,1,0
4.429
0,0,1,0,1,1,0,0,0,1,0,1,1
4.725
0,0,1,0,1,1,0,0,0,1,1,0,0
4.185
0,0,1,0,1,1,0,0,0,1,1,0,1
4.489
0,0,1,0,1,1,0,0,0,1,1,1,0
4.385
0,0,1,0,1,1,0,0,0,1,1,1,1
4.776
0,0,1,0,1,1,0,0,1,0,0,0,0
4.091
0,0,1,0,1,1,0,0,1,0,0,0,1
4.192
0,0,1,0,1,1,0,0,1,0,0,1,0
3.791
0,0,1,0,1,1,0,0,1,0,0,1,1
4.184
0,0,1,0,1,1,0,0,1,0,1,0,0
3.879
0,0,1,0,1,1,0,0,1,0,1,0,1
4.188
0,0,1,0,1,1,0,0,1,0,1,1,0
4.396
0,0,1,0,1,1,0,0,1,0,1,1,1
4.722
0,0,1,0,1,1,0,0,1,1,0,0,1
4.747
0,0,1,0,1,1,0,0,1,1,0,1,0
4.536
0,0,1,0,1,1,0,0,1,1,0,1,1
4.802
0,0,1,0,1,1,0,0,1,1,1,0,0
4.402
0,0,1,0,1,1,0,0,1,1,1,0,1
4.725
0,0,1,0,1,1,0,0,1,1,1,1,0
4.557
0,0,1,0,1,1,0,0,1,1,1,1,1
4.94
0,0,1,0,1,1,0,1,0,0,0,0,0
4.409
0,0,1,0,1,1,0,1,0,0,0,0,1
4.753
0,0,1,0,1,1,0,1,0,0,0,1,0
4.573
0,0,1,0,1,1,0,1,0,0,0,1,1
4.581
0,0,1,0,1,1,0,1,0,0,1,0,0
4.325
0,0,1,0,1,1,0,1,0,0,1,0,1
4.736
0,0,1,0,1,1,0,1,0,0,1,1,0
4.518
0,0,1,0,1,1,0,1,0,0,1,1,1
4.836
0,0,1,0,1,1,0,1,0,1,0,0,0
4.538
0,0,1,0,1,1,0,1,0,1,0,0,1
5.009
0,0,1,0,1,1,0,1,0,1,0,1,0
4.819
0,0,1,0,1,1,0,1,0,1,0,1,1
5.112
0,0,1,0,1,1,0,1,0,1,1,0,0
4.578
0,0,1,0,1,1,0,1,0,1,1,0,1
5.036
0,0,1,0,1,1,0,1,0,1,1,1,0
5.049
0,0,1,0,1,1,0,1,0,1,1,1,1
4.904
0,0,1,0,1,1,0,1,1,0,0,0,0
4.324
0,0,1,0,1,1,0,1,1,0,0,0,1
4.635
0,0,1,0,1,1,0,1,1,0,0,1,0
4.759
0,0,1,0,1,1,0,1,1,0,0,1,1
4.714
0,0,1,0,1,1,0,1,1,0,1,0,0
4.438
0,0,1,0,1,1,0,1,1,0,1,0,1
4.573
0,0,1,0,1,1,0,1,1,0,1,1,0
4.539
0,0,1,0,1,1,0,1,1,0,1,1,1
4.984
0,0,1,0,1,1,0,1,1,1,0,0,0
4.492
0,0,1,0,1,1,0,1,1,1,0,0,1
4.777
0,0,1,0,1,1,0,1,1,1,0,1,0
4.526
0,0,1,0,1,1,0,1,1,1,0,1,1
4.999
0,0,1,0,1,1,0,1,1,1,1,0,0
4.524
0,0,1,0,1,1,0,1,1,1,1,0,1
4.906
0,0,1,0,1,1,0,1,1,1,1,1,0
4.761
0,0,1,0,1,1,0,1,1,1,1,1,1
4.839
0,0,1,0,1,1,1,0,0,0,0,0,0
4.749
0,0,1,0,1,1,1,0,0,0,0,0,1
5.091
0,0,1,0,1,1,1,0,0,0,0,1,0
4.77
0,0,1,0,1,1,1,0,0,0,0,1,1
4.771
0,0,1,0,1,1,1,0,0,0,1,0,0
4.625
0,0,1,0,1,1,1,0,0,0,1,0,1
5.117
0,0,1,0,1,1,1,0,0,0,1,1,0
4.505
0,0,1,0,1,1,1,0,0,0,1,1,1
4.898
0,0,1,0,1,1,1,0,0,1,0,0,0
4.984
0,0,1,0,1,1,1,0,0,1,0,0,1
5.302
0,0,1,0,1,1,1,0,0,1,0,1,0
4.495
0,0,1,0,1,1,1,0,0,1,0,1,1
5.306
0,0,1,0,1,1,1,0,0,1,1,0,0
5.059
0,0,1,0,1,1,1,0,0,1,1,0,1
5.015
0,0,1,0,1,1,1,0,0,1,1,1,0
4.567
0,0,1,0,1,1,1,0,0,1,1,1,1
4.853
0,0,1,0,1,1,1,0,1,0,0,0,0
4.251
0,0,1,0,1,1,1,0,1,0,0,0,1
4.618
0,0,1,0,1,1,1,0,1,0,0,1,0
4.334
0,0,1,0,1,1,1,0,1,0,0,1,1
4.639
0,0,1,0,1,1,1,0,1,0,1,0,0
4.395
0,0,1,0,1,1,1,0,1,0,1,0,1
4.959
0,0,1,0,1,1,1,0,1,0,1,1,0
4.256
0,0,1,0,1,1,1,0,1,0,1,1,1
4.652
0,0,1,0,1,1,1,0,1,1,0,0,0
4.733
0,0,1,0,1,1,1,0,1,1,0,0,1
4.905
0,0,1,0,1,1,1,0,1,1,0,1,0
4.542
0,0,1,0,1,1,1,0,1,1,0,1,1
4.887
0,0,1,0,1,1,1,0,1,1,1,0,0
4.691
0,0,1,0,1,1,1,0,1,1,1,0,1
5.48
0,0,1,0,1,1,1,0,1,1,1,1,0
5.02
0,0,1,0,1,1,1,0,1,1,1,1,1
5.034
0,0,1,0,1,1,1,1,0,0,0,0,0
4.902
0,0,1,0,1,1,1,1,0,0,0,0,1
5.269
0,0,1,0,1,1,1,1,0,0,0,1,0
5.0
0,0,1,0,1,1,1,1,0,0,0,1,1
5.17
0,0,1,0,1,1,1,1,0,0,1,0,0
4.824
0,0,1,0,1,1,1,1,0,0,1,0,1
5.171
0,0,1,0,1,1,1,1,0,0,1,1,0
4.757
0,0,1,0,1,1,1,1,0,0,1,1,1
5.077
0,0,1,0,1,1,1,1,0,1,0,0,0
5.172
0,0,1,0,1,1,1,1,0,1,0,0,1
5.612
0,0,1,0,1,1,1,1,0,1,0,1,0
5.087
0,0,1,0,1,1,1,1,0,1,0,1,1
5.449
0,0,1,0,1,1,1,1,0,1,1,0,0
5.323
0,0,1,0,1,1,1,1,0,1,1,0,1
5.562
0,0,1,0,1,1,1,1,0,1,1,1,0
5.174
0,0,1,0,1,1,1,1,1,0,0,0,0
4.802
0,0,1,0,1,1,1,1,1,0,0,0,1
5.232
0,0,1,0,1,1,1,1,1,0,0,1,0
4.783
0,0,1,0,1,1,1,1,1,0,0,1,1
5.075
0,0,1,0,1,1,1,1,1,0,1,0,0
4.935
0,0,1,0,1,1,1,1,1,0,1,0,1
5.251
0,0,1,0,1,1,1,1,1,0,1,1,0
4.762
0,0,1,0,1,1,1,1,1,0,1,1,1
5.186
0,0,1,0,1,1,1,1,1,1,0,0,0
5.315
0,0,1,0,1,1,1,1,1,1,0,0,1
5.815
0,0,1,0,1,1,1,1,1,1,0,1,0
5.105
0,0,1,0,1,1,1,1,1,1,0,1,1
4.863
0,0,1,0,1,1,1,1,1,1,1,0,0
5.171
0,0,1,0,1,1,1,1,1,1,1,0,1
5.479
0,0,1,0,1,1,1,1,1,1,1,1,0
4.908
0,0,1,0,1,1,1,1,1,1,1,1,1
5.161
0,0,1,1,0,0,0,0,0,0,0,0,0
5.218
0,0,1,1,0,0,0,0,0,0,0,0,1
5.687
0,0,1,1,0,0,0,0,0,0,0,1,0
5.674
0,0,1,1,0,0,0,0,0,0,0,1,1
5.99
0,0,1,1,0,0,0,0,0,0,1,0,0
5.385
0,0,1,1,0,0,0,0,0,0,1,1,0
5.727
0,0,1,1,0,0,0,0,0,0,1,1,1
6.156
0,0,1,1,0,0,0,0,0,1,0,0,0
6.032
0,0,1,1,0,0,0,0,0,1,0,0,1
6.303
0,0,1,1,0,0,0,0,0,1,0,1,0
6.625
0,0,1,1,0,0,0,0,0,1,0,1,1
6.601
0,0,1,1,0,0,0,0,0,1,1,0,0
5.482
0,0,1,1,0,0,0,0,0,1,1,0,1
6.18
0,0,1,1,0,0,0,0,0,1,1,1,0
6.174
0,0,1,1,0,0,0,0,0,1,1,1,1
6.499
0,0,1,1,0,0,0,0,1,0,0,0,0
5.725
0,0,1,1,0,0,0,0,1,0,0,0,1
6.025
0,0,1,1,0,0,0,0,1,0,0,1,0
5.686
0,0,1,1,0,0,0,0,1,0,0,1,1
5.805
0,0,1,1,0,0,0,0,1,0,1,0,0
5.152
0,0,1,1,0,0,0,0,1,0,1,0,1
5.484
0,0,1,1,0,0,0,0,1,0,1,1,0
5.436
0,0,1,1,0,0,0,0,1,0,1,1,1
5.761
0,0,1,1,0,0,0,0,1,1,0,0,0
5.512
0,0,1,1,0,0,0,0,1,1,0,0,1
5.919
0,0,1,1,0,0,0,0,1,1,0,1,0
5.771
0,0,1,1,0,0,0,0,1,1,0,1,1
6.108
0,0,1,1,0,0,0,0,1,1,1,0,0
5.503
0,0,1,1,0,0,0,0,1,1,1,0,1
5.844
0,0,1,1,0,0,0,0,1,1,1,1,0
5.836
0,0,1,1,0,0,0,0,1,1,1,1,1
6.202
0,0,1,1,0,0,0,1,0,0,0,0,0
5.055
0,0,1,1,0,0,0,1,0,0,0,0,1
5.415
0,0,1,1,0,0,0,1,0,0,0,1,0
5.665
0,0,1,1,0,0,0,1,0,0,0,1,1
6.201
0,0,1,1,0,0,0,1,0,0,1,0,0
5.502
0,0,1,1,0,0,0,1,0,0,1,0,1
5.652
0,0,1,1,0,0,0,1,0,0,1,1,0
5.671
0,0,1,1,0,0,0,1,0,0,1,1,1
6.043
0,0,1,1,0,0,0,1,0,1,0,0,0
5.671
0,0,1,1,0,0,0,1,0,1,0,0,1
6.197
0,0,1,1,0,0,0,1,0,1,0,1,0
5.305
0,0,1,1,0,0,0,1,0,1,0,1,1
3.635
0,0,1,1,0,0,0,1,0,1,1,0,0
3.35
0,0,1,1,0,0,0,1,0,1,1,0,1
3.34
0,0,1,1,0,0,0,1,0,1,1,1,0
3.377
0,0,1,1,0,0,0,1,0,1,1,1,1
3.595
0,0,1,1,0,0,0,1,1,0,0,0,0
3.227
0,0,1,1,0,0,0,1,1,0,0,0,1
3.304
0,0,1,1,0,0,0,1,1,0,0,1,0
3.32
0,0,1,1,0,0,0,1,1,0,0,1,1
3.484
0,0,1,1,0,0,0,1,1,0,1,0,0
3.168
0,0,1,1,0,0,0,1,1,0,1,0,1
3.294
0,0,1,1,0,0,0,1,1,0,1,1,0
3.603
0,0,1,1,0,0,0,1,1,0,1,1,1
3.514
0,0,1,1,0,0,0,1,1,1,0,0,0
3.213
0,0,1,1,0,0,0,1,1,1,0,0,1
3.388
0,0,1,1,0,0,0,1,1,1,0,1,0
3.439
0,0,1,1,0,0,0,1,1,1,0,1,1
3.65
0,0,1,1,0,0,0,1,1,1,1,0,0
3.233
0,0,1,1,0,0,0,1,1,1,1,0,1
3.436
0,0,1,1,0,0,0,1,1,1,1,1,0
3.429
0,0,1,1,0,0,0,1,1,1,1,1,1
3.661
0,0,1,1,0,0,1,0,0,0,0,0,0
3.375
0,0,1,1,0,0,1,0,0,0,0,0,1
3.469
0,0,1,1,0,0,1,0,0,0,0,1,0
3.354
0,0,1,1,0,0,1,0,0,0,0,1,1
10.629
0,0,1,1,0,0,1,0,0,0,1,0,0
9.751
0,0,1,1,0,0,1,0,0,0,1,0,1
10.732
0,0,1,1,0,0,1,0,0,0,1,1,1
10.709
0,0,1,1,0,0,1,0,0,1,0,0,0
10.65
0,0,1,1,0,0,1,0,0,1,0,0,1
11.469
0,0,1,1,0,0,1,0,0,1,0,1,0
10.758
0,0,1,1,0,0,1,0,0,1,0,1,1
11.456
0,0,1,1,0,0,1,0,0,1,1,0,0
11.08
0,0,1,1,0,0,1,0,0,1,1,0,1
11.094
0,0,1,1,0,0,1,0,0,1,1,1,0
11.376
0,0,1,1,0,0,1,0,0,1,1,1,1
11.351
0,0,1,1,0,0,1,0,1,0,0,0,0
10.443
0,0,1,1,0,0,1,0,1,0,0,0,1
11.325
0,0,1,1,0,0,1,0,1,0,0,1,0
10.464
0,0,1,1,0,0,1,0,1,0,0,1,1
10.902
0,0,1,1,0,0,1,0,1,0,1,0,0
10.297
0,0,1,1,0,0,1,0,1,0,1,0,1
13.395
0,0,1,1,0,0,1,0,1,0,1,1,0
13.345
0,0,1,1,0,0,1,0,1,0,1,1,1
14.758
0,0,1,1,0,0,1,0,1,1,0,0,0
14.316
0,0,1,1,0,0,1,0,1,1,0,0,1
14.429
0,0,1,1,0,0,1,0,1,1,0,1,0
13.945
0,0,1,1,0,0,1,0,1,1,0,1,1
14.856
