0,0,0,0,0,0,0,0,0,0,0,0,0,0,0,0
633.0
0,0,0,0,0,0,0,0,0,0,0,0,0,0,0,1
16517.0
0,0,0,0,0,0,0,0,0,0,0,0,0,0,1,0
917.0
0,0,0,0,0,0,0,0,0,0,0,0,0,0,1,1
16286.0
0,0,0,0,0,0,0,0,0,0,0,0,0,1,0,0
24115.0
0,0,0,0,0,0,0,0,0,0,0,0,0,1,0,1
36110.0
0,0,0,0,0,0,0,0,0,0,0,0,0,1,1,0
24057.0
0,0,0,0,0,0,0,0,0,0,0,0,0,1,1,1
36051.0
0,0,0,0,0,0,0,0,0,0,0,0,1,0,0,0
649.0
0,0,0,0,0,0,0,0,0,0,0,0,1,0,0,1
15986.0
0,0,0,0,0,0,0,0,0,0,0,0,1,0,1,0
689.0
0,0,0,0,0,0,0,0,0,0,0,0,1,0,1,1
15784.0
0,0,0,0,0,0,0,0,0,0,0,0,1,1,0,0
24092.0
0,0,0,0,0,0,0,0,0,0,0,0,1,1,0,1
35769.0
0,0,0,0,0,0,0,0,0,0,0,0,1,1,1,0
24113.0
0,0,0,0,0,0,0,0,0,0,0,0,1,1,1,1
36696.0
0,0,0,0,0,0,0,0,0,0,0,1,0,0,0,0
1476.0
0,0,0,0,0,0,0,0,0,0,0,1,0,0,0,1
17715.0
0,0,0,0,0,0,0,0,0,0,0,1,0,0,1,0
1490.0
0,0,0,0,0,0,0,0,0,0,0,1,0,0,1,1
17561.0
0,0,0,0,0,0,0,0,0,0,0,1,0,1,0,0
24495.0
0,0,0,0,0,0,0,0,0,0,0,1,0,1,0,1
36753.0
0,0,0,0,0,0,0,0,0,0,0,1,0,1,1,0
24518.0
0,0,0,0,0,0,0,0,0,0,0,1,0,1,1,1
36808.0
0,0,0,0,0,0,0,0,0,0,0,1,1,0,0,0
1532.0
0,0,0,0,0,0,0,0,0,0,0,1,1,0,0,1
17008.0
0,0,0,0,0,0,0,0,0,0,0,1,1,0,1,0
1507.0
0,0,0,0,0,0,0,0,0,0,0,1,1,0,1,1
16521.0
0,0,0,0,0,0,0,0,0,0,0,1,1,1,0,0
24369.0
0,0,0,0,0,0,0,0,0,0,0,1,1,1,0,1
35855.0
0,0,0,0,0,0,0,0,0,0,0,1,1,1,1,0
24320.0
0,0,0,0,0,0,0,0,0,0,0,1,1,1,1,1
35959.0
0,0,0,0,0,0,0,0,0,0,1,0,0,0,0,0
685.0
0,0,0,0,0,0,0,0,0,0,1,0,0,0,0,1
16482.0
0,0,0,0,0,0,0,0,0,0,1,0,0,0,1,0
679.0
0,0,0,0,0,0,0,0,0,0,1,0,0,0,1,1
16177.0
0,0,0,0,0,0,0,0,0,0,1,0,0,1,0,0
23962.0
0,0,0,0,0,0,0,0,0,0,1,0,0,1,0,1
36026.0
0,0,0,0,0,0,0,0,0,0,1,0,0,1,1,0
23880.0
0,0,0,0,0,0,0,0,0,0,1,0,0,1,1,1
36115.0
0,0,0,0,0,0,0,0,0,0,1,0,1,0,0,0
672.0
0,0,0,0,0,0,0,0,0,0,1,0,1,0,0,1
15941.0
0,0,0,0,0,0,0,0,0,0,1,0,1,0,1,1
15776.0
0,0,0,0,0,0,0,0,0,0,1,0,1,1,0,0
24006.0
0,0,0,0,0,0,0,0,0,0,1,0,1,1,0,1
35725.0
0,0,0,0,0,0,0,0,0,0,1,0,1,1,1,0
23939.0
0,0,0,0,0,0,0,0,0,0,1,0,1,1,1,1
35522.0
0,0,0,0,0,0,0,0,0,0,1,1,0,0,0,0
1468.0
0,0,0,0,0,0,0,0,0,0,1,1,0,0,0,1
17158.0
0,0,0,0,0,0,0,0,0,0,1,1,0,0,1,0
1475.0
0,0,0,0,0,0,0,0,0,0,1,1,0,0,1,1
17097.0
0,0,0,0,0,0,0,0,0,0,1,1,0,1,0,0
24420.0
0,0,0,0,0,0,0,0,0,0,1,1,0,1,0,1
36364.0
0,0,0,0,0,0,0,0,0,0,1,1,0,1,1,0
24319.0
0,0,0,0,0,0,0,0,0,0,1,1,0,1,1,1
36522.0
0,0,0,0,0,0,0,0,0,0,1,1,1,0,0,0
1473.0
0,0,0,0,0,0,0,0,0,0,1,1,1,0,0,1
16702.0
0,0,0,0,0,0,0,0,0,0,1,1,1,0,1,0
1462.0
0,0,0,0,0,0,0,0,0,0,1,1,1,0,1,1
16530.0
0,0,0,0,0,0,0,0,0,0,1,1,1,1,0,0
24368.0
0,0,0,0,0,0,0,0,0,0,1,1,1,1,0,1
35960.0
0,0,0,0,0,0,0,0,0,0,1,1,1,1,1,0
24263.0
0,0,0,0,0,0,0,0,0,0,1,1,1,1,1,1
35834.0
0,0,0,0,0,0,0,0,0,1,0,0,0,0,0,0
31582.0
0,0,0,0,0,0,0,0,0,1,0,0,0,0,0,1
23752.0
0,0,0,0,0,0,0,0,0,1,0,0,0,0,1,0
31582.0
0,0,0,0,0,0,0,0,0,1,0,0,0,0,1,1
23851.0
0,0,0,0,0,0,0,0,0,1,0,0,0,1,0,0
26013.0
0,0,0,0,0,0,0,0,0,1,0,0,0,1,0,1
14536.0
0,0,0,0,0,0,0,0,0,1,0,0,0,1,1,0
25991.0
0,0,0,0,0,0,0,0,0,1,0,0,0,1,1,1
14476.0
0,0,0,0,0,0,0,0,0,1,0,0,1,0,0,0
31703.0
0,0,0,0,0,0,0,0,0,1,0,0,1,0,0,1
23301.0
0,0,0,0,0,0,0,0,0,1,0,0,1,0,1,0
31704.0
0,0,0,0,0,0,0,0,0,1,0,0,1,0,1,1
23314.0
0,0,0,0,0,0,0,0,0,1,0,0,1,1,0,0
25885.0
0,0,0,0,0,0,0,0,0,1,0,0,1,1,0,1
14075.0
0,0,0,0,0,0,0,0,0,1,0,0,1,1,1,0
25974.0
0,0,0,0,0,0,0,0,0,1,0,0,1,1,1,1
14069.0
0,0,0,0,0,0,0,0,0,1,0,1,0,0,0,0
31454.0
0,0,0,0,0,0,0,0,0,1,0,1,0,0,0,1
23558.0
0,0,0,0,0,0,0,0,0,1,0,1,0,0,1,0
31564.0
0,0,0,0,0,0,0,0,0,1,0,1,0,0,1,1
23645.0
0,0,0,0,0,0,0,0,0,1,0,1,0,1,0,0
25316.0
0,0,0,0,0,0,0,0,0,1,0,1,0,1,1,0
25391.0
0,0,0,0,0,0,0,0,0,1,0,1,0,1,1,1
13923.0
0,0,0,0,0,0,0,0,0,1,0,1,1,0,0,0
31464.0
0,0,0,0,0,0,0,0,0,1,0,1,1,0,0,1
23160.0
0,0,0,0,0,0,0,0,0,1,0,1,1,0,1,0
31545.0
0,0,0,0,0,0,0,0,0,1,0,1,1,0,1,1
23194.0
0,0,0,0,0,0,0,0,0,1,0,1,1,1,0,0
25345.0
0,0,0,0,0,0,0,0,0,1,0,1,1,1,0,1
13545.0
0,0,0,0,0,0,0,0,0,1,0,1,1,1,1,0
25305.0
0,0,0,0,0,0,0,0,0,1,0,1,1,1,1,1
13527.0
0,0,0,0,0,0,0,0,0,1,1,0,0,0,0,0
31674.0
0,0,0,0,0,0,0,0,0,1,1,0,0,0,0,1
23756.0
0,0,0,0,0,0,0,0,0,1,1,0,0,0,1,0
31641.0
0,0,0,0,0,0,0,0,0,1,1,0,0,0,1,1
23783.0
0,0,0,0,0,0,0,0,0,1,1,0,0,1,0,0
25902.0
0,0,0,0,0,0,0,0,0,1,1,0,0,1,0,1
14481.0
0,0,0,0,0,0,0,0,0,1,1,0,0,1,1,0
25908.0
0,0,0,0,0,0,0,0,0,1,1,0,0,1,1,1
14517.0
0,0,0,0,0,0,0,0,0,1,1,0,1,0,0,0
31769.0
0,0,0,0,0,0,0,0,0,1,1,0,1,0,0,1
23449.0
0,0,0,0,0,0,0,0,0,1,1,0,1,0,1,0
31714.0
0,0,0,0,0,0,0,0,0,1,1,0,1,0,1,1
23437.0
0,0,0,0,0,0,0,0,0,1,1,0,1,1,0,0
26103.0
0,0,0,0,0,0,0,0,0,1,1,0,1,1,0,1
14094.0
0,0,0,0,0,0,0,0,0,1,1,0,1,1,1,0
25887.0
0,0,0,0,0,0,0,0,0,1,1,0,1,1,1,1
14086.0
0,0,0,0,0,0,0,0,0,1,1,1,0,0,0,0
31533.0
0,0,0,0,0,0,0,0,0,1,1,1,0,0,0,1
23667.0
0,0,0,0,0,0,0,0,0,1,1,1,0,0,1,0
31565.0
0,0,0,0,0,0,0,0,0,1,1,1,0,0,1,1
23819.0
0,0,0,0,0,0,0,0,0,1,1,1,0,1,0,0
25282.0
0,0,0,0,0,0,0,0,0,1,1,1,0,1,0,1
13922.0
0,0,0,0,0,0,0,0,0,1,1,1,0,1,1,0
25317.0
0,0,0,0,0,0,0,0,0,1,1,1,0,1,1,1
13958.0
0,0,0,0,0,0,0,0,0,1,1,1,1,0,0,0
31616.0
0,0,0,0,0,0,0,0,0,1,1,1,1,0,0,1
23193.0
0,0,0,0,0,0,0,0,0,1,1,1,1,0,1,0
31540.0
0,0,0,0,0,0,0,0,0,1,1,1,1,0,1,1
23211.0
0,0,0,0,0,0,0,0,0,1,1,1,1,1,0,0
25333.0
0,0,0,0,0,0,0,0,0,1,1,1,1,1,0,1
13493.0
0,0,0,0,0,0,0,0,0,1,1,1,1,1,1,0
25454.0
0,0,0,0,0,0,0,0,0,1,1,1,1,1,1,1
13478.0
0,0,0,0,0,0,0,0,1,0,0,0,0,0,0,0
4625.0
0,0,0,0,0,0,0,0,1,0,0,0,0,0,0,1
18301.0
0,0,0,0,0,0,0,0,1,0,0,0,0,0,1,0
4633.0
0,0,0,0,0,0,0,0,1,0,0,0,0,0,1,1
18069.0
0,0,0,0,0,0,0,0,1,0,0,0,0,1,0,0
24023.0
0,0,0,0,0,0,0,0,1,0,0,0,0,1,0,1
34000.0
0,0,0,0,0,0,0,0,1,0,0,0,0,1,1,0
23957.0
0,0,0,0,0,0,0,0,1,0,0,0,0,1,1,1
33822.0
0,0,0,0,0,0,0,0,1,0,0,0,1,0,0,0
4633.0
0,0,0,0,0,0,0,0,1,0,0,0,1,0,0,1
17818.0
0,0,0,0,0,0,0,0,1,0,0,0,1,0,1,0
4677.0
0,0,0,0,0,0,0,0,1,0,0,0,1,0,1,1
17604.0
0,0,0,0,0,0,0,0,1,0,0,0,1,1,0,0
24010.0
0,0,0,0,0,0,0,0,1,0,0,0,1,1,0,1
33639.0
0,0,0,0,0,0,0,0,1,0,0,0,1,1,1,0
24002.0
0,0,0,0,0,0,0,0,1,0,0,0,1,1,1,1
33369.0
0,0,0,0,0,0,0,0,1,0,0,1,0,0,0,0
5424.0
0,0,0,0,0,0,0,0,1,0,0,1,0,0,0,1
18998.0
0,0,0,0,0,0,0,0,1,0,0,1,0,0,1,0
5422.0
0,0,0,0,0,0,0,0,1,0,0,1,0,0,1,1
18850.0
0,0,0,0,0,0,0,0,1,0,0,1,0,1,0,0
24360.0
0,0,0,0,0,0,0,0,1,0,0,1,0,1,1,0
24250.0
0,0,0,0,0,0,0,0,1,0,0,1,0,1,1,1
34352.0
0,0,0,0,0,0,0,0,1,0,0,1,1,0,0,0
5415.0
0,0,0,0,0,0,0,0,1,0,0,1,1,0,0,1
18548.0
0,0,0,0,0,0,0,0,1,0,0,1,1,0,1,0
5418.0
0,0,0,0,0,0,0,0,1,0,0,1,1,0,1,1
18428.0
0,0,0,0,0,0,0,0,1,0,0,1,1,1,0,0
24443.0
0,0,0,0,0,0,0,0,1,0,0,1,1,1,0,1
33926.0
0,0,0,0,0,0,0,0,1,0,0,1,1,1,1,0
24397.0
0,0,0,0,0,0,0,0,1,0,0,1,1,1,1,1
33890.0
0,0,0,0,0,0,0,0,1,0,1,0,0,0,0,0
4620.0
0,0,0,0,0,0,0,0,1,0,1,0,0,0,0,1
18235.0
0,0,0,0,0,0,0,0,1,0,1,0,0,0,1,0
4677.0
0,0,0,0,0,0,0,0,1,0,1,0,0,0,1,1
18057.0
0,0,0,0,0,0,0,0,1,0,1,0,0,1,0,0
23960.0
0,0,0,0,0,0,0,0,1,0,1,0,0,1,0,1
36295.0
0,0,0,0,0,0,0,0,1,0,1,0,0,1,1,0
23994.0
0,0,0,0,0,0,0,0,1,0,1,0,0,1,1,1
34005.0
0,0,0,0,0,0,0,0,1,0,1,0,1,0,0,0
4657.0
0,0,0,0,0,0,0,0,1,0,1,0,1,0,0,1
17789.0
0,0,0,0,0,0,0,0,1,0,1,0,1,0,1,0
4662.0
0,0,0,0,0,0,0,0,1,0,1,0,1,0,1,1
17629.0
0,0,0,0,0,0,0,0,1,0,1,0,1,1,0,0
23991.0
0,0,0,0,0,0,0,0,1,0,1,0,1,1,0,1
33537.0
0,0,0,0,0,0,0,0,1,0,1,0,1,1,1,0
23989.0
0,0,0,0,0,0,0,0,1,0,1,0,1,1,1,1
33503.0
0,0,0,0,0,0,0,0,1,0,1,1,0,0,0,0
5424.0
0,0,0,0,0,0,0,0,1,0,1,1,0,0,0,1
18960.0
0,0,0,0,0,0,0,0,1,0,1,1,0,0,1,0
5494.0
0,0,0,0,0,0,0,0,1,0,1,1,0,0,1,1
19105.0
0,0,0,0,0,0,0,0,1,0,1,1,0,1,0,0
24658.0
0,0,0,0,0,0,0,0,1,0,1,1,0,1,0,1
34497.0
0,0,0,0,0,0,0,0,1,0,1,1,0,1,1,0
24272.0
0,0,0,0,0,0,0,0,1,0,1,1,0,1,1,1
34352.0
0,0,0,0,0,0,0,0,1,0,1,1,1,0,0,0
5385.0
0,0,0,0,0,0,0,0,1,0,1,1,1,0,0,1
18603.0
0,0,0,0,0,0,0,0,1,0,1,1,1,0,1,0
5472.0
0,0,0,0,0,0,0,0,1,0,1,1,1,0,1,1
20482.0
0,0,0,0,0,0,0,0,1,0,1,1,1,1,0,0
24476.0
0,0,0,0,0,0,0,0,1,0,1,1,1,1,0,1
33654.0
0,0,0,0,0,0,0,0,1,0,1,1,1,1,1,0
24278.0
0,0,0,0,0,0,0,0,1,0,1,1,1,1,1,1
33923.0
0,0,0,0,0,0,0,0,1,1,0,0,0,0,0,1
22233.0
0,0,0,0,0,0,0,0,1,1,0,0,0,0,1,0
32057.0
0,0,0,0,0,0,0,0,1,1,0,0,0,0,1,1
22109.0
0,0,0,0,0,0,0,0,1,1,0,0,0,1,0,0
24836.0
0,0,0,0,0,0,0,0,1,1,0,0,0,1,0,1
11523.0
0,0,0,0,0,0,0,0,1,1,0,0,0,1,1,0
24838.0
0,0,0,0,0,0,0,0,1,1,0,0,0,1,1,1
11410.0
0,0,0,0,0,0,0,0,1,1,0,0,1,0,0,0
32095.0
0,0,0,0,0,0,0,0,1,1,0,0,1,0,0,1
21716.0
0,0,0,0,0,0,0,0,1,1,0,0,1,0,1,0
31939.0
0,0,0,0,0,0,0,0,1,1,0,0,1,0,1,1
21656.0
0,0,0,0,0,0,0,0,1,1,0,0,1,1,0,0
24883.0
0,0,0,0,0,0,0,0,1,1,0,0,1,1,0,1
10991.0
0,0,0,0,0,0,0,0,1,1,0,0,1,1,1,0
24856.0
0,0,0,0,0,0,0,0,1,1,0,0,1,1,1,1
10940.0
0,0,0,0,0,0,0,0,1,1,0,1,0,0,0,0
31743.0
0,0,0,0,0,0,0,0,1,1,0,1,0,0,0,1
21944.0
0,0,0,0,0,0,0,0,1,1,0,1,0,0,1,0
31829.0
0,0,0,0,0,0,0,0,1,1,0,1,0,0,1,1
22023.0
0,0,0,0,0,0,0,0,1,1,0,1,0,1,0,0
24263.0
0,0,0,0,0,0,0,0,1,1,0,1,0,1,0,1
10907.0
0,0,0,0,0,0,0,0,1,1,0,1,0,1,1,0
24250.0
0,0,0,0,0,0,0,0,1,1,0,1,0,1,1,1
10850.0
0,0,0,0,0,0,0,0,1,1,0,1,1,0,0,0
31839.0
0,0,0,0,0,0,0,0,1,1,0,1,1,0,0,1
21525.0
0,0,0,0,0,0,0,0,1,1,0,1,1,0,1,0
31878.0
0,0,0,0,0,0,0,0,1,1,0,1,1,0,1,1
21649.0
0,0,0,0,0,0,0,0,1,1,0,1,1,1,0,0
24289.0
0,0,0,0,0,0,0,0,1,1,0,1,1,1,0,1
10422.0
0,0,0,0,0,0,0,0,1,1,0,1,1,1,1,0
24238.0
0,0,0,0,0,0,0,0,1,1,0,1,1,1,1,1
10401.0
0,0,0,0,0,0,0,0,1,1,1,0,0,0,0,0
31977.0
0,0,0,0,0,0,0,0,1,1,1,0,0,0,0,1
22079.0
0,0,0,0,0,0,0,0,1,1,1,0,0,0,1,0
31871.0
0,0,0,0,0,0,0,0,1,1,1,0,0,0,1,1
22173.0
0,0,0,0,0,0,0,0,1,1,1,0,0,1,0,0
24847.0
0,0,0,0,0,0,0,0,1,1,1,0,0,1,0,1
11434.0
0,0,0,0,0,0,0,0,1,1,1,0,0,1,1,0
24780.0
0,0,0,0,0,0,0,0,1,1,1,0,0,1,1,1
11421.0
0,0,0,0,0,0,0,0,1,1,1,0,1,0,0,0
32425.0
0,0,0,0,0,0,0,0,1,1,1,0,1,0,0,1
21658.0
0,0,0,0,0,0,0,0,1,1,1,0,1,0,1,0
31954.0
0,0,0,0,0,0,0,0,1,1,1,0,1,1,0,0
24828.0
0,0,0,0,0,0,0,0,1,1,1,0,1,1,0,1
10984.0
0,0,0,0,0,0,0,0,1,1,1,0,1,1,1,0
24859.0
0,0,0,0,0,0,0,0,1,1,1,0,1,1,1,1
11055.0
0,0,0,0,0,0,0,0,1,1,1,1,0,0,0,0
31864.0
0,0,0,0,0,0,0,0,1,1,1,1,0,0,0,1
21942.0
0,0,0,0,0,0,0,0,1,1,1,1,0,0,1,0
31764.0
0,0,0,0,0,0,0,0,1,1,1,1,0,0,1,1
21976.0
0,0,0,0,0,0,0,0,1,1,1,1,0,1,0,0
24234.0
0,0,0,0,0,0,0,0,1,1,1,1,0,1,0,1
10918.0
0,0,0,0,0,0,0,0,1,1,1,1,0,1,1,0
24351.0
0,0,0,0,0,0,0,0,1,1,1,1,0,1,1,1
10865.0
0,0,0,0,0,0,0,0,1,1,1,1,1,0,0,0
31800.0
0,0,0,0,0,0,0,0,1,1,1,1,1,0,0,1
21576.0
0,0,0,0,0,0,0,0,1,1,1,1,1,0,1,0
31885.0
0,0,0,0,0,0,0,0,1,1,1,1,1,0,1,1
21535.0
0,0,0,0,0,0,0,0,1,1,1,1,1,1,0,0
24301.0
0,0,0,0,0,0,0,0,1,1,1,1,1,1,0,1
10435.0
0,0,0,0,0,0,0,0,1,1,1,1,1,1,1,0
24288.0
0,0,0,0,0,0,0,0,1,1,1,1,1,1,1,1
10418.0
0,0,0,0,0,0,0,1,0,0,0,0,0,0,0,0
677.0
0,0,0,0,0,0,0,1,0,0,0,0,0,0,0,1
16509.0
0,0,0,0,0,0,0,1,0,0,0,0,0,0,1,0
712.0
0,0,0,0,0,0,0,1,0,0,0,0,0,0,1,1
16169.0
0,0,0,0,0,0,0,1,0,0,0,0,0,1,0,0
24007.0
0,0,0,0,0,0,0,1,0,0,0,0,0,1,0,1
36017.0
0,0,0,0,0,0,0,1,0,0,0,0,0,1,1,0
24018.0
0,0,0,0,0,0,0,1,0,0,0,0,0,1,1,1
35872.0
0,0,0,0,0,0,0,1,0,0,0,0,1,0,0,0
672.0
0,0,0,0,0,0,0,1,0,0,0,0,1,0,0,1
15839.0
0,0,0,0,0,0,0,1,0,0,0,0,1,0,1,0
718.0
0,0,0,0,0,0,0,1,0,0,0,0,1,0,1,1
15647.0
0,0,0,0,0,0,0,1,0,0,0,0,1,1,0,0
24013.0
0,0,0,0,0,0,0,1,0,0,0,0,1,1,0,1
35508.0
0,0,0,0,0,0,0,1,0,0,0,0,1,1,1,0
24111.0
0,0,0,0,0,0,0,1,0,0,0,0,1,1,1,1
35487.0
0,0,0,0,0,0,0,1,0,0,0,1,0,0,0,0
1475.0
0,0,0,0,0,0,0,1,0,0,0,1,0,0,0,1
17108.0
0,0,0,0,0,0,0,1,0,0,0,1,0,0,1,0
1498.0
0,0,0,0,0,0,0,1,0,0,0,1,0,0,1,1
16983.0
0,0,0,0,0,0,0,1,0,0,0,1,0,1,0,0
24357.0
0,0,0,0,0,0,0,1,0,0,0,1,0,1,0,1
36294.0
0,0,0,0,0,0,0,1,0,0,0,1,0,1,1,0
24391.0
0,0,0,0,0,0,0,1,0,0,0,1,0,1,1,1
36259.0
0,0,0,0,0,0,0,1,0,0,0,1,1,0,0,0
1485.0
0,0,0,0,0,0,0,1,0,0,0,1,1,0,0,1
16702.0
0,0,0,0,0,0,0,1,0,0,0,1,1,0,1,0
1463.0
0,0,0,0,0,0,0,1,0,0,0,1,1,0,1,1
16892.0
0,0,0,0,0,0,0,1,0,0,0,1,1,1,0,0
24411.0
0,0,0,0,0,0,0,1,0,0,0,1,1,1,0,1
35830.0
0,0,0,0,0,0,0,1,0,0,0,1,1,1,1,0
24350.0
0,0,0,0,0,0,0,1,0,0,0,1,1,1,1,1
35805.0
0,0,0,0,0,0,0,1,0,0,1,0,0,0,0,0
675.0
0,0,0,0,0,0,0,1,0,0,1,0,0,0,0,1
16348.0
0,0,0,0,0,0,0,1,0,0,1,0,0,0,1,0
682.0
0,0,0,0,0,0,0,1,0,0,1,0,0,0,1,1
16339.0
0,0,0,0,0,0,0,1,0,0,1,0,0,1,0,0
24059.0
0,0,0,0,0,0,0,1,0,0,1,0,0,1,0,1
36114.0
0,0,0,0,0,0,0,1,0,0,1,0,0,1,1,0
23954.0
0,0,0,0,0,0,0,1,0,0,1,0,0,1,1,1
35812.0
0,0,0,0,0,0,0,1,0,0,1,0,1,0,0,0
696.0
0,0,0,0,0,0,0,1,0,0,1,0,1,0,0,1
15891.0
0,0,0,0,0,0,0,1,0,0,1,0,1,0,1,0
730.0
0,0,0,0,0,0,0,1,0,0,1,0,1,1,0,0
23986.0
0,0,0,0,0,0,0,1,0,0,1,0,1,1,0,1
35479.0
0,0,0,0,0,0,0,1,0,0,1,0,1,1,1,0
23995.0
0,0,0,0,0,0,0,1,0,0,1,0,1,1,1,1
35292.0
0,0,0,0,0,0,0,1,0,0,1,1,0,0,0,0
1470.0
0,0,0,0,0,0,0,1,0,0,1,1,0,0,0,1
17048.0
0,0,0,0,0,0,0,1,0,0,1,1,0,0,1,0
1490.0
0,0,0,0,0,0,0,1,0,0,1,1,0,0,1,1
16946.0
0,0,0,0,0,0,0,1,0,0,1,1,0,1,0,0
24471.0
0,0,0,0,0,0,0,1,0,0,1,1,0,1,0,1
36181.0
0,0,0,0,0,0,0,1,0,0,1,1,0,1,1,0
24352.0
0,0,0,0,0,0,0,1,0,0,1,1,0,1,1,1
36285.0
0,0,0,0,0,0,0,1,0,0,1,1,1,0,0,0
1502.0
0,0,0,0,0,0,0,1,0,0,1,1,1,0,0,1
16651.0
0,0,0,0,0,0,0,1,0,0,1,1,1,0,1,0
1487.0
0,0,0,0,0,0,0,1,0,0,1,1,1,0,1,1
16397.0
0,0,0,0,0,0,0,1,0,0,1,1,1,1,0,0
24387.0
0,0,0,0,0,0,0,1,0,0,1,1,1,1,0,1
35824.0
0,0,0,0,0,0,0,1,0,0,1,1,1,1,1,0
24206.0
0,0,0,0,0,0,0,1,0,0,1,1,1,1,1,1
35643.0
0,0,0,0,0,0,0,1,0,1,0,0,0,0,0,0
31785.0
0,0,0,0,0,0,0,1,0,1,0,0,0,0,0,1
23704.0
0,0,0,0,0,0,0,1,0,1,0,0,0,0,1,0
31663.0
0,0,0,0,0,0,0,1,0,1,0,0,0,0,1,1
23673.0
0,0,0,0,0,0,0,1,0,1,0,0,0,1,0,0
25866.0
0,0,0,0,0,0,0,1,0,1,0,0,0,1,0,1
14454.0
0,0,0,0,0,0,0,1,0,1,0,0,0,1,1,0
25821.0
0,0,0,0,0,0,0,1,0,1,0,0,0,1,1,1
14423.0
0,0,0,0,0,0,0,1,0,1,0,0,1,0,0,0
31646.0
0,0,0,0,0,0,0,1,0,1,0,0,1,0,0,1
23232.0
0,0,0,0,0,0,0,1,0,1,0,0,1,0,1,0
31735.0
0,0,0,0,0,0,0,1,0,1,0,0,1,0,1,1
23189.0
0,0,0,0,0,0,0,1,0,1,0,0,1,1,0,0
25868.0
0,0,0,0,0,0,0,1,0,1,0,0,1,1,0,1
14287.0
0,0,0,0,0,0,0,1,0,1,0,0,1,1,1,0
25902.0
0,0,0,0,0,0,0,1,0,1,0,0,1,1,1,1
13957.0
0,0,0,0,0,0,0,1,0,1,0,1,0,0,0,0
31442.0
0,0,0,0,0,0,0,1,0,1,0,1,0,0,0,1
23563.0
0,0,0,0,0,0,0,1,0,1,0,1,0,0,1,0
31482.0
0,0,0,0,0,0,0,1,0,1,0,1,0,0,1,1
23665.0
0,0,0,0,0,0,0,1,0,1,0,1,0,1,0,0
25275.0
0,0,0,0,0,0,0,1,0,1,0,1,0,1,0,1
13905.0
0,0,0,0,0,0,0,1,0,1,0,1,0,1,1,1
13926.0
0,0,0,0,0,0,0,1,0,1,0,1,1,0,0,0
31617.0
0,0,0,0,0,0,0,1,0,1,0,1,1,0,0,1
23074.0
0,0,0,0,0,0,0,1,0,1,0,1,1,0,1,0
31506.0
0,0,0,0,0,0,0,1,0,1,0,1,1,0,1,1
23136.0
0,0,0,0,0,0,0,1,0,1,0,1,1,1,0,0
25397.0
0,0,0,0,0,0,0,1,0,1,0,1,1,1,0,1
13460.0
0,0,0,0,0,0,0,1,0,1,0,1,1,1,1,0
25338.0
0,0,0,0,0,0,0,1,0,1,0,1,1,1,1,1
13462.0
0,0,0,0,0,0,0,1,0,1,1,0,0,0,0,0
31587.0
0,0,0,0,0,0,0,1,0,1,1,0,0,0,0,1
23705.0
0,0,0,0,0,0,0,1,0,1,1,0,0,0,1,0
31652.0
0,0,0,0,0,0,0,1,0,1,1,0,0,0,1,1
23751.0
0,0,0,0,0,0,0,1,0,1,1,0,0,1,0,0
25981.0
0,0,0,0,0,0,0,1,0,1,1,0,0,1,0,1
14515.0
0,0,0,0,0,0,0,1,0,1,1,0,0,1,1,0
25972.0
0,0,0,0,0,0,0,1,0,1,1,0,0,1,1,1
14454.0
0,0,0,0,0,0,0,1,0,1,1,0,1,0,0,0
31647.0
0,0,0,0,0,0,0,1,0,1,1,0,1,0,0,1
23220.0
0,0,0,0,0,0,0,1,0,1,1,0,1,0,1,0
31704.0
0,0,0,0,0,0,0,1,0,1,1,0,1,0,1,1
23318.0
0,0,0,0,0,0,0,1,0,1,1,0,1,1,0,0
25959.0
0,0,0,0,0,0,0,1,0,1,1,0,1,1,0,1
13992.0
0,0,0,0,0,0,0,1,0,1,1,0,1,1,1,0
25872.0
0,0,0,0,0,0,0,1,0,1,1,0,1,1,1,1
13977.0
0,0,0,0,0,0,0,1,0,1,1,1,0,0,0,0
31569.0
0,0,0,0,0,0,0,1,0,1,1,1,0,0,0,1
23593.0
0,0,0,0,0,0,0,1,0,1,1,1,0,0,1,0
31536.0
0,0,0,0,0,0,0,1,0,1,1,1,0,0,1,1
23608.0
0,0,0,0,0,0,0,1,0,1,1,1,0,1,0,0
25306.0
0,0,0,0,0,0,0,1,0,1,1,1,0,1,0,1
13916.0
0,0,0,0,0,0,0,1,0,1,1,1,0,1,1,0
25336.0
0,0,0,0,0,0,0,1,0,1,1,1,0,1,1,1
13888.0
0,0,0,0,0,0,0,1,0,1,1,1,1,0,0,0
31485.0
0,0,0,0,0,0,0,1,0,1,1,1,1,0,0,1
23131.0
0,0,0,0,0,0,0,1,0,1,1,1,1,0,1,0
31534.0
0,0,0,0,0,0,0,1,0,1,1,1,1,0,1,1
23116.0
0,0,0,0,0,0,0,1,0,1,1,1,1,1,0,0
25358.0
0,0,0,0,0,0,0,1,0,1,1,1,1,1,0,1
13441.0
0,0,0,0,0,0,0,1,0,1,1,1,1,1,1,0
25396.0
0,0,0,0,0,0,0,1,0,1,1,1,1,1,1,1
13685.0
0,0,0,0,0,0,0,1,1,0,0,0,0,0,0,0
4654.0
0,0,0,0,0,0,0,1,1,0,0,0,0,0,0,1
18173.0
0,0,0,0,0,0,0,1,1,0,0,0,0,0,1,0
4657.0
0,0,0,0,0,0,0,1,1,0,0,0,0,0,1,1
18182.0
0,0,0,0,0,0,0,1,1,0,0,0,0,1,0,0
24003.0
0,0,0,0,0,0,0,1,1,0,0,0,0,1,0,1
33972.0
0,0,0,0,0,0,0,1,1,0,0,0,0,1,1,0
23998.0
0,0,0,0,0,0,0,1,1,0,0,0,0,1,1,1
33853.0
0,0,0,0,0,0,0,1,1,0,0,0,1,0,0,0
4645.0
0,0,0,0,0,0,0,1,1,0,0,0,1,0,0,1
17723.0
0,0,0,0,0,0,0,1,1,0,0,0,1,0,1,0
4696.0
0,0,0,0,0,0,0,1,1,0,0,0,1,0,1,1
17565.0
0,0,0,0,0,0,0,1,1,0,0,0,1,1,0,0
24031.0
0,0,0,0,0,0,0,1,1,0,0,0,1,1,0,1
33572.0
0,0,0,0,0,0,0,1,1,0,0,0,1,1,1,0
24201.0
0,0,0,0,0,0,0,1,1,0,0,0,1,1,1,1
33443.0
0,0,0,0,0,0,0,1,1,0,0,1,0,0,0,0
5408.0
0,0,0,0,0,0,0,1,1,0,0,1,0,0,0,1
18830.0
0,0,0,0,0,0,0,1,1,0,0,1,0,0,1,0
5398.0
0,0,0,0,0,0,0,1,1,0,0,1,0,0,1,1
18789.0
0,0,0,0,0,0,0,1,1,0,0,1,0,1,0,0
24387.0
0,0,0,0,0,0,0,1,1,0,0,1,0,1,0,1
34225.0
0,0,0,0,0,0,0,1,1,0,0,1,0,1,1,1
34408.0
0,0,0,0,0,0,0,1,1,0,0,1,1,0,0,0
5457.0
0,0,0,0,0,0,0,1,1,0,0,1,1,0,0,1
18523.0
0,0,0,0,0,0,0,1,1,0,0,1,1,0,1,0
5436.0
0,0,0,0,0,0,0,1,1,0,0,1,1,0,1,1
18329.0
0,0,0,0,0,0,0,1,1,0,0,1,1,1,0,0
24386.0
0,0,0,0,0,0,0,1,1,0,0,1,1,1,0,1
33729.0
0,0,0,0,0,0,0,1,1,0,0,1,1,1,1,0
24207.0
0,0,0,0,0,0,0,1,1,0,0,1,1,1,1,1
33767.0
0,0,0,0,0,0,0,1,1,0,1,0,0,0,0,0
4642.0
0,0,0,0,0,0,0,1,1,0,1,0,0,0,0,1
18159.0
0,0,0,0,0,0,0,1,1,0,1,0,0,0,1,0
4681.0
0,0,0,0,0,0,0,1,1,0,1,0,0,0,1,1
18037.0
0,0,0,0,0,0,0,1,1,0,1,0,0,1,0,0
24032.0
0,0,0,0,0,0,0,1,1,0,1,0,0,1,0,1
34126.0
0,0,0,0,0,0,0,1,1,0,1,0,0,1,1,0
24013.0
0,0,0,0,0,0,0,1,1,0,1,0,0,1,1,1
33947.0
0,0,0,0,0,0,0,1,1,0,1,0,1,0,0,0
4672.0
0,0,0,0,0,0,0,1,1,0,1,0,1,0,0,1
17732.0
0,0,0,0,0,0,0,1,1,0,1,0,1,0,1,0
4683.0
0,0,0,0,0,0,0,1,1,0,1,0,1,0,1,1
17564.0
0,0,0,0,0,0,0,1,1,0,1,0,1,1,0,0
23968.0
0,0,0,0,0,0,0,1,1,0,1,0,1,1,0,1
33677.0
0,0,0,0,0,0,0,1,1,0,1,0,1,1,1,0
24021.0
0,0,0,0,0,0,0,1,1,0,1,0,1,1,1,1
33380.0
0,0,0,0,0,0,0,1,1,0,1,1,0,0,0,0
5410.0
0,0,0,0,0,0,0,1,1,0,1,1,0,0,0,1
18995.0
0,0,0,0,0,0,0,1,1,0,1,1,0,0,1,0
5431.0
0,0,0,0,0,0,0,1,1,0,1,1,0,0,1,1
18801.0
0,0,0,0,0,0,0,1,1,0,1,1,0,1,0,0
24371.0
0,0,0,0,0,0,0,1,1,0,1,1,0,1,0,1
34358.0
0,0,0,0,0,0,0,1,1,0,1,1,0,1,1,0
24230.0
0,0,0,0,0,0,0,1,1,0,1,1,0,1,1,1
34270.0
0,0,0,0,0,0,0,1,1,0,1,1,1,0,0,0
5379.0
0,0,0,0,0,0,0,1,1,0,1,1,1,0,0,1
18430.0
0,0,0,0,0,0,0,1,1,0,1,1,1,0,1,0
5419.0
0,0,0,0,0,0,0,1,1,0,1,1,1,0,1,1
18362.0
0,0,0,0,0,0,0,1,1,0,1,1,1,1,0,0
24396.0
0,0,0,0,0,0,0,1,1,0,1,1,1,1,0,1
33894.0
0,0,0,0,0,0,0,1,1,0,1,1,1,1,1,0
24306.0
0,0,0,0,0,0,0,1,1,0,1,1,1,1,1,1
33766.0
0,0,0,0,0,0,0,1,1,1,0,0,0,0,0,0
32038.0
0,0,0,0,0,0,0,1,1,1,0,0,0,0,1,0
32060.0
0,0,0,0,0,0,0,1,1,1,0,0,0,0,1,1
22087.0
0,0,0,0,0,0,0,1,1,1,0,0,0,1,0,0
24733.0
0,0,0,0,0,0,0,1,1,1,0,0,0,1,0,1
11431.0
0,0,0,0,0,0,0,1,1,1,0,0,0,1,1,0
24847.0
0,0,0,0,0,0,0,1,1,1,0,0,0,1,1,1
11373.0
0,0,0,0,0,0,0,1,1,1,0,0,1,0,0,0
32044.0
0,0,0,0,0,0,0,1,1,1,0,0,1,0,0,1
21659.0
0,0,0,0,0,0,0,1,1,1,0,0,1,0,1,0
32036.0
0,0,0,0,0,0,0,1,1,1,0,0,1,0,1,1
21604.0
0,0,0,0,0,0,0,1,1,1,0,0,1,1,0,0
24794.0
0,0,0,0,0,0,0,1,1,1,0,0,1,1,0,1
10925.0
0,0,0,0,0,0,0,1,1,1,0,0,1,1,1,0
24922.0
0,0,0,0,0,0,0,1,1,1,0,0,1,1,1,1
10974.0
0,0,0,0,0,0,0,1,1,1,0,1,0,0,0,0
31788.0
0,0,0,0,0,0,0,1,1,1,0,1,0,0,0,1
21885.0
0,0,0,0,0,0,0,1,1,1,0,1,0,0,1,0
31871.0
0,0,0,0,0,0,0,1,1,1,0,1,0,0,1,1
21962.0
0,0,0,0,0,0,0,1,1,1,0,1,0,1,0,0
24279.0
0,0,0,0,0,0,0,1,1,1,0,1,0,1,0,1
39529.0
0,0,0,0,0,0,0,1,1,1,0,1,0,1,1,0
95569.0
0,0,0,0,0,0,0,1,1,1,0,1,0,1,1,1
40257.0
0,0,0,0,0,0,0,1,1,1,0,1,1,0,0,0
98047.0
0,0,0,0,0,0,0,1,1,1,0,1,1,0,0,1
65812.0
0,0,0,0,0,0,0,1,1,1,0,1,1,0,1,0
125965.0
0,0,0,0,0,0,0,1,1,1,0,1,1,0,1,1
80598.0
0,0,0,0,0,0,0,1,1,1,0,1,1,1,0,0
93567.0
0,0,0,0,0,0,0,1,1,1,0,1,1,1,0,1
38957.0
0,0,0,0,0,0,0,1,1,1,0,1,1,1,1,0
93902.0
0,0,0,0,0,0,0,1,1,1,0,1,1,1,1,1
39519.0
0,0,0,0,0,0,0,1,1,1,1,0,0,0,0,0
99704.0
0,0,0,0,0,0,0,1,1,1,1,0,0,0,0,1
67240.0
0,0,0,0,0,0,0,1,1,1,1,0,0,0,1,0
98260.0
0,0,0,0,0,0,0,1,1,1,1,0,0,0,1,1
68146.0
0,0,0,0,0,0,0,1,1,1,1,0,0,1,0,0
94119.0
0,0,0,0,0,0,0,1,1,1,1,0,0,1,0,1
43012.0
0,0,0,0,0,0,0,1,1,1,1,0,0,1,1,0
96081.0
0,0,0,0,0,0,0,1,1,1,1,0,0,1,1,1
43339.0
0,0,0,0,0,0,0,1,1,1,1,0,1,0,0,0
124489.0
0,0,0,0,0,0,0,1,1,1,1,0,1,0,0,1
66995.0
0,0,0,0,0,0,0,1,1,1,1,0,1,0,1,0
100737.0
0,0,0,0,0,0,0,1,1,1,1,0,1,0,1,1
82659.0
0,0,0,0,0,0,0,1,1,1,1,0,1,1,0,0
96194.0
0,0,0,0,0,0,0,1,1,1,1,0,1,1,0,1
40940.0
0,0,0,0,0,0,0,1,1,1,1,0,1,1,1,0
92984.0
0,0,0,0,0,0,0,1,1,1,1,0,1,1,1,1
41114.0
0,0,0,0,0,0,0,1,1,1,1,1,0,0,0,0
121047.0
0,0,0,0,0,0,0,1,1,1,1,1,0,0,0,1
68766.0
0,0,0,0,0,0,0,1,1,1,1,1,0,0,1,0
85297180.0
0,0,0,0,0,0,0,1,1,1,1,1,0,0,1,1
22291.0
0,0,0,0,0,0,0,1,1,1,1,1,0,1,0,0
24800.0
0,0,0,0,0,0,0,1,1,1,1,1,0,1,0,1
11093.0
0,0,0,0,0,0,0,1,1,1,1,1,0,1,1,0
24512.0
0,0,0,0,0,0,0,1,1,1,1,1,0,1,1,1
10938.0
0,0,0,0,0,0,0,1,1,1,1,1,1,0,0,0
32314.0
0,0,0,0,0,0,0,1,1,1,1,1,1,0,0,1
21826.0
0,0,0,0,0,0,0,1,1,1,1,1,1,0,1,0
32599.0
0,0,0,0,0,0,0,1,1,1,1,1,1,0,1,1
21580.0
0,0,0,0,0,0,0,1,1,1,1,1,1,1,0,0
24309.0
0,0,0,0,0,0,0,1,1,1,1,1,1,1,0,1
10539.0
0,0,0,0,0,0,0,1,1,1,1,1,1,1,1,0
24369.0
0,0,0,0,0,0,0,1,1,1,1,1,1,1,1,1
10441.0
0,0,0,0,0,0,1,0,0,0,0,0,0,0,0,0
1382.0
0,0,0,0,0,0,1,0,0,0,0,0,0,0,1,0
679.0
0,0,0,0,0,0,1,0,0,0,0,0,0,0,1,1
16335.0
0,0,0,0,0,0,1,0,0,0,0,0,0,1,0,0
24204.0
0,0,0,0,0,0,1,0,0,0,0,0,0,1,0,1
36085.0
0,0,0,0,0,0,1,0,0,0,0,0,0,1,1,0
24140.0
0,0,0,0,0,0,1,0,0,0,0,0,0,1,1,1
36173.0
0,0,0,0,0,0,1,0,0,0,0,0,1,0,0,0
814.0
0,0,0,0,0,0,1,0,0,0,0,0,1,0,0,1
16015.0
0,0,0,0,0,0,1,0,0,0,0,0,1,0,1,0
702.0
0,0,0,0,0,0,1,0,0,0,0,0,1,0,1,1
15753.0
0,0,0,0,0,0,1,0,0,0,0,0,1,1,0,0
24172.0
0,0,0,0,0,0,1,0,0,0,0,0,1,1,0,1
36800.0
0,0,0,0,0,0,1,0,0,0,0,0,1,1,1,0
24165.0
0,0,0,0,0,0,1,0,0,0,0,0,1,1,1,1
35516.0
0,0,0,0,0,0,1,0,0,0,0,1,0,0,0,0
1458.0
0,0,0,0,0,0,1,0,0,0,0,1,0,0,0,1
17161.0
0,0,0,0,0,0,1,0,0,0,0,1,0,0,1,0
1465.0
0,0,0,0,0,0,1,0,0,0,0,1,0,0,1,1
16931.0
0,0,0,0,0,0,1,0,0,0,0,1,0,1,0,0
24399.0
0,0,0,0,0,0,1,0,0,0,0,1,0,1,0,1
36403.0
0,0,0,0,0,0,1,0,0,0,0,1,0,1,1,0
24249.0
0,0,0,0,0,0,1,0,0,0,0,1,0,1,1,1
36271.0
0,0,0,0,0,0,1,0,0,0,0,1,1,0,0,0
1438.0
0,0,0,0,0,0,1,0,0,0,0,1,1,0,0,1
16736.0
0,0,0,0,0,0,1,0,0,0,0,1,1,0,1,0
1451.0
0,0,0,0,0,0,1,0,0,0,0,1,1,0,1,1
16590.0
0,0,0,0,0,0,1,0,0,0,0,1,1,1,0,0
24416.0
0,0,0,0,0,0,1,0,0,0,0,1,1,1,0,1
36110.0
0,0,0,0,0,0,1,0,0,0,0,1,1,1,1,0
24525.0
0,0,0,0,0,0,1,0,0,0,0,1,1,1,1,1
36032.0
0,0,0,0,0,0,1,0,0,0,1,0,0,0,0,0
719.0
0,0,0,0,0,0,1,0,0,0,1,0,0,0,0,1
16368.0
0,0,0,0,0,0,1,0,0,0,1,0,0,0,1,0
697.0
0,0,0,0,0,0,1,0,0,0,1,0,0,0,1,1
16213.0
0,0,0,0,0,0,1,0,0,0,1,0,0,1,0,0
24051.0
0,0,0,0,0,0,1,0,0,0,1,0,0,1,0,1
36118.0
0,0,0,0,0,0,1,0,0,0,1,0,0,1,1,0
23945.0
0,0,0,0,0,0,1,0,0,0,1,0,0,1,1,1
36097.0
0,0,0,0,0,0,1,0,0,0,1,0,1,0,0,0
695.0
0,0,0,0,0,0,1,0,0,0,1,0,1,0,0,1
15867.0
0,0,0,0,0,0,1,0,0,0,1,0,1,0,1,0
1130.0
0,0,0,0,0,0,1,0,0,0,1,0,1,0,1,1
15739.0
0,0,0,0,0,0,1,0,0,0,1,0,1,1,0,1
35626.0
0,0,0,0,0,0,1,0,0,0,1,0,1,1,1,0
23983.0
0,0,0,0,0,0,1,0,0,0,1,0,1,1,1,1
35425.0
0,0,0,0,0,0,1,0,0,0,1,1,0,0,0,0
1477.0
0,0,0,0,0,0,1,0,0,0,1,1,0,0,0,1
17156.0
0,0,0,0,0,0,1,0,0,0,1,1,0,0,1,0
1464.0
0,0,0,0,0,0,1,0,0,0,1,1,0,0,1,1
16994.0
0,0,0,0,0,0,1,0,0,0,1,1,0,1,0,0
24306.0
0,0,0,0,0,0,1,0,0,0,1,1,0,1,0,1
36467.0
0,0,0,0,0,0,1,0,0,0,1,1,0,1,1,0
24316.0
0,0,0,0,0,0,1,0,0,0,1,1,0,1,1,1
36409.0
0,0,0,0,0,0,1,0,0,0,1,1,1,0,0,0
1468.0
0,0,0,0,0,0,1,0,0,0,1,1,1,0,0,1
16736.0
0,0,0,0,0,0,1,0,0,0,1,1,1,0,1,0
1470.0
0,0,0,0,0,0,1,0,0,0,1,1,1,0,1,1
16636.0
0,0,0,0,0,0,1,0,0,0,1,1,1,1,0,0
24381.0
0,0,0,0,0,0,1,0,0,0,1,1,1,1,0,1
35984.0
0,0,0,0,0,0,1,0,0,0,1,1,1,1,1,0
24359.0
0,0,0,0,0,0,1,0,0,0,1,1,1,1,1,1
35859.0
0,0,0,0,0,0,1,0,0,1,0,0,0,0,0,0
31612.0
0,0,0,0,0,0,1,0,0,1,0,0,0,0,0,1
23788.0
0,0,0,0,0,0,1,0,0,1,0,0,0,0,1,0
31672.0
0,0,0,0,0,0,1,0,0,1,0,0,0,0,1,1
23815.0
0,0,0,0,0,0,1,0,0,1,0,0,0,1,0,0
25907.0
0,0,0,0,0,0,1,0,0,1,0,0,0,1,0,1
14499.0
0,0,0,0,0,0,1,0,0,1,0,0,0,1,1,0
25952.0
0,0,0,0,0,0,1,0,0,1,0,0,0,1,1,1
14490.0
0,0,0,0,0,0,1,0,0,1,0,0,1,0,0,0
31639.0
0,0,0,0,0,0,1,0,0,1,0,0,1,0,0,1
23287.0
0,0,0,0,0,0,1,0,0,1,0,0,1,0,1,0
31595.0
0,0,0,0,0,0,1,0,0,1,0,0,1,0,1,1
23301.0
0,0,0,0,0,0,1,0,0,1,0,0,1,1,0,0
25878.0
0,0,0,0,0,0,1,0,0,1,0,0,1,1,0,1
14062.0
0,0,0,0,0,0,1,0,0,1,0,0,1,1,1,0
25899.0
0,0,0,0,0,0,1,0,0,1,0,0,1,1,1,1
14155.0
0,0,0,0,0,0,1,0,0,1,0,1,0,0,0,0
31533.0
0,0,0,0,0,0,1,0,0,1,0,1,0,0,0,1
23658.0
0,0,0,0,0,0,1,0,0,1,0,1,0,0,1,0
31856.0
0,0,0,0,0,0,1,0,0,1,0,1,0,0,1,1
23902.0
0,0,0,0,0,0,1,0,0,1,0,1,0,1,0,0
25311.0
0,0,0,0,0,0,1,0,0,1,0,1,0,1,0,1
14005.0
0,0,0,0,0,0,1,0,0,1,0,1,0,1,1,0
25339.0
0,0,0,0,0,0,1,0,0,1,0,1,1,0,0,0
31521.0
0,0,0,0,0,0,1,0,0,1,0,1,1,0,0,1
23126.0
0,0,0,0,0,0,1,0,0,1,0,1,1,0,1,0
31531.0
0,0,0,0,0,0,1,0,0,1,0,1,1,0,1,1
23209.0
0,0,0,0,0,0,1,0,0,1,0,1,1,1,0,0
25298.0
0,0,0,0,0,0,1,0,0,1,0,1,1,1,0,1
13584.0
0,0,0,0,0,0,1,0,0,1,0,1,1,1,1,0
25261.0
0,0,0,0,0,0,1,0,0,1,0,1,1,1,1,1
13507.0
0,0,0,0,0,0,1,0,0,1,1,0,0,0,0,0
31593.0
0,0,0,0,0,0,1,0,0,1,1,0,0,0,0,1
23800.0
0,0,0,0,0,0,1,0,0,1,1,0,0,0,1,0
31577.0
0,0,0,0,0,0,1,0,0,1,1,0,0,0,1,1
23786.0
0,0,0,0,0,0,1,0,0,1,1,0,0,1,0,0
25989.0
0,0,0,0,0,0,1,0,0,1,1,0,0,1,0,1
14566.0
0,0,0,0,0,0,1,0,0,1,1,0,0,1,1,0
25850.0
0,0,0,0,0,0,1,0,0,1,1,0,0,1,1,1
14548.0
0,0,0,0,0,0,1,0,0,1,1,0,1,0,0,0
31619.0
0,0,0,0,0,0,1,0,0,1,1,0,1,0,0,1
23293.0
0,0,0,0,0,0,1,0,0,1,1,0,1,0,1,0
31616.0
0,0,0,0,0,0,1,0,0,1,1,0,1,0,1,1
23322.0
0,0,0,0,0,0,1,0,0,1,1,0,1,1,0,0
25915.0
0,0,0,0,0,0,1,0,0,1,1,0,1,1,0,1
14079.0
0,0,0,0,0,0,1,0,0,1,1,0,1,1,1,0
25839.0
0,0,0,0,0,0,1,0,0,1,1,0,1,1,1,1
14062.0
0,0,0,0,0,0,1,0,0,1,1,1,0,0,0,0
31464.0
0,0,0,0,0,0,1,0,0,1,1,1,0,0,0,1
23666.0
0,0,0,0,0,0,1,0,0,1,1,1,0,0,1,0
51908.0
0,0,0,0,0,0,1,0,0,1,1,1,0,0,1,1
23667.0
0,0,0,0,0,0,1,0,0,1,1,1,0,1,0,0
25367.0
0,0,0,0,0,0,1,0,0,1,1,1,0,1,0,1
14072.0
0,0,0,0,0,0,1,0,0,1,1,1,0,1,1,0
25496.0
0,0,0,0,0,0,1,0,0,1,1,1,0,1,1,1
13899.0
0,0,0,0,0,0,1,0,0,1,1,1,1,0,0,0
31560.0
0,0,0,0,0,0,1,0,0,1,1,1,1,0,0,1
23167.0
0,0,0,0,0,0,1,0,0,1,1,1,1,0,1,0
31661.0
0,0,0,0,0,0,1,0,0,1,1,1,1,0,1,1
23162.0
0,0,0,0,0,0,1,0,0,1,1,1,1,1,0,0
25400.0
0,0,0,0,0,0,1,0,0,1,1,1,1,1,0,1
13471.0
0,0,0,0,0,0,1,0,0,1,1,1,1,1,1,0
25469.0
0,0,0,0,0,0,1,0,0,1,1,1,1,1,1,1
13485.0
0,0,0,0,0,0,1,0,1,0,0,0,0,0,0,0
4611.0
0,0,0,0,0,0,1,0,1,0,0,0,0,0,0,1
18271.0
0,0,0,0,0,0,1,0,1,0,0,0,0,0,1,0
4643.0
0,0,0,0,0,0,1,0,1,0,0,0,0,0,1,1
18080.0
0,0,0,0,0,0,1,0,1,0,0,0,0,1,0,0
23944.0
0,0,0,0,0,0,1,0,1,0,0,0,0,1,0,1
33928.0
0,0,0,0,0,0,1,0,1,0,0,0,0,1,1,0
23878.0
0,0,0,0,0,0,1,0,1,0,0,0,0,1,1,1
33778.0
0,0,0,0,0,0,1,0,1,0,0,0,1,0,0,0
4627.0
0,0,0,0,0,0,1,0,1,0,0,0,1,0,0,1
17799.0
0,0,0,0,0,0,1,0,1,0,0,0,1,0,1,0
4682.0
0,0,0,0,0,0,1,0,1,0,0,0,1,0,1,1
17675.0
0,0,0,0,0,0,1,0,1,0,0,0,1,1,0,0
23982.0
0,0,0,0,0,0,1,0,1,0,0,0,1,1,0,1
33457.0
0,0,0,0,0,0,1,0,1,0,0,0,1,1,1,0
23986.0
0,0,0,0,0,0,1,0,1,0,0,0,1,1,1,1
33332.0
0,0,0,0,0,0,1,0,1,0,0,1,0,0,0,0
5470.0
0,0,0,0,0,0,1,0,1,0,0,1,0,0,0,1
19144.0
0,0,0,0,0,0,1,0,1,0,0,1,0,0,1,0
5384.0
0,0,0,0,0,0,1,0,1,0,0,1,0,0,1,1
18875.0
0,0,0,0,0,0,1,0,1,0,0,1,0,1,0,0
24650.0
0,0,0,0,0,0,1,0,1,0,0,1,0,1,0,1
34238.0
0,0,0,0,0,0,1,0,1,0,0,1,0,1,1,0
24320.0
0,0,0,0,0,0,1,0,1,0,0,1,1,0,0,0
5388.0
0,0,0,0,0,0,1,0,1,0,0,1,1,0,0,1
18620.0
0,0,0,0,0,0,1,0,1,0,0,1,1,0,1,0
5420.0
0,0,0,0,0,0,1,0,1,0,0,1,1,0,1,1
18511.0
0,0,0,0,0,0,1,0,1,0,0,1,1,1,0,0
24366.0
0,0,0,0,0,0,1,0,1,0,0,1,1,1,0,1
33802.0
0,0,0,0,0,0,1,0,1,0,0,1,1,1,1,0
24440.0
0,0,0,0,0,0,1,0,1,0,0,1,1,1,1,1
33815.0
0,0,0,0,0,0,1,0,1,0,1,0,0,0,0,0
4600.0
0,0,0,0,0,0,1,0,1,0,1,0,0,0,0,1
18227.0
0,0,0,0,0,0,1,0,1,0,1,0,0,0,1,0
4633.0
0,0,0,0,0,0,1,0,1,0,1,0,0,0,1,1
18411.0
0,0,0,0,0,0,1,0,1,0,1,0,0,1,0,0
24512.0
0,0,0,0,0,0,1,0,1,0,1,0,0,1,0,1
34941.0
0,0,0,0,0,0,1,0,1,0,1,0,0,1,1,0
24525.0
0,0,0,0,0,0,1,0,1,0,1,0,0,1,1,1
34831.0
0,0,0,0,0,0,1,0,1,0,1,0,1,0,0,0
4686.0
0,0,0,0,0,0,1,0,1,0,1,0,1,0,0,1
17810.0
0,0,0,0,0,0,1,0,1,0,1,0,1,0,1,0
4659.0
0,0,0,0,0,0,1,0,1,0,1,0,1,0,1,1
17689.0
0,0,0,0,0,0,1,0,1,0,1,0,1,1,0,0
23951.0
0,0,0,0,0,0,1,0,1,0,1,0,1,1,0,1
33577.0
0,0,0,0,0,0,1,0,1,0,1,0,1,1,1,0
23877.0
0,0,0,0,0,0,1,0,1,0,1,0,1,1,1,1
33463.0
0,0,0,0,0,0,1,0,1,0,1,1,0,0,0,0
5403.0
0,0,0,0,0,0,1,0,1,0,1,1,0,0,0,1
18960.0
0,0,0,0,0,0,1,0,1,0,1,1,0,0,1,0
5452.0
0,0,0,0,0,0,1,0,1,0,1,1,0,0,1,1
18876.0
0,0,0,0,0,0,1,0,1,0,1,1,0,1,0,0
24443.0
0,0,0,0,0,0,1,0,1,0,1,1,0,1,0,1
34759.0
0,0,0,0,0,0,1,0,1,0,1,1,0,1,1,0
24227.0
0,0,0,0,0,0,1,0,1,0,1,1,0,1,1,1
34249.0
0,0,0,0,0,0,1,0,1,0,1,1,1,0,0,0
5416.0
0,0,0,0,0,0,1,0,1,0,1,1,1,0,0,1
18627.0
0,0,0,0,0,0,1,0,1,0,1,1,1,0,1,0
5435.0
0,0,0,0,0,0,1,0,1,0,1,1,1,0,1,1
18396.0
0,0,0,0,0,0,1,0,1,0,1,1,1,1,0,0
24650.0
0,0,0,0,0,0,1,0,1,0,1,1,1,1,0,1
33751.0
0,0,0,0,0,0,1,0,1,0,1,1,1,1,1,0
24236.0
0,0,0,0,0,0,1,0,1,0,1,1,1,1,1,1
33886.0
0,0,0,0,0,0,1,0,1,1,0,0,0,0,0,0
32140.0
0,0,0,0,0,0,1,0,1,1,0,0,0,0,0,1
22114.0
0,0,0,0,0,0,1,0,1,1,0,0,0,0,1,1
22129.0
0,0,0,0,0,0,1,0,1,1,0,0,0,1,0,0
24920.0
0,0,0,0,0,0,1,0,1,1,0,0,0,1,0,1
11474.0
0,0,0,0,0,0,1,0,1,1,0,0,0,1,1,0
24901.0
0,0,0,0,0,0,1,0,1,1,0,0,0,1,1,1
11449.0
0,0,0,0,0,0,1,0,1,1,0,0,1,0,0,0
31916.0
0,0,0,0,0,0,1,0,1,1,0,0,1,0,0,1
21688.0
0,0,0,0,0,0,1,0,1,1,0,0,1,0,1,0
31944.0
0,0,0,0,0,0,1,0,1,1,0,0,1,0,1,1
21742.0
0,0,0,0,0,0,1,0,1,1,0,0,1,1,0,0
24886.0
0,0,0,0,0,0,1,0,1,1,0,0,1,1,0,1
11005.0
0,0,0,0,0,0,1,0,1,1,0,0,1,1,1,0
24819.0
0,0,0,0,0,0,1,0,1,1,0,0,1,1,1,1
10967.0
0,0,0,0,0,0,1,0,1,1,0,1,0,0,0,0
31901.0
0,0,0,0,0,0,1,0,1,1,0,1,0,0,0,1
21988.0
0,0,0,0,0,0,1,0,1,1,0,1,0,0,1,0
31825.0
0,0,0,0,0,0,1,0,1,1,0,1,0,0,1,1
21973.0
0,0,0,0,0,0,1,0,1,1,0,1,0,1,0,0
24320.0
0,0,0,0,0,0,1,0,1,1,0,1,0,1,0,1
10928.0
0,0,0,0,0,0,1,0,1,1,0,1,0,1,1,0
24293.0
0,0,0,0,0,0,1,0,1,1,0,1,0,1,1,1
10836.0
0,0,0,0,0,0,1,0,1,1,0,1,1,0,0,0
31827.0
0,0,0,0,0,0,1,0,1,1,0,1,1,0,0,1
21527.0
0,0,0,0,0,0,1,0,1,1,0,1,1,0,1,0
31855.0
0,0,0,0,0,0,1,0,1,1,0,1,1,0,1,1
21574.0
0,0,0,0,0,0,1,0,1,1,0,1,1,1,0,0
24317.0
0,0,0,0,0,0,1,0,1,1,0,1,1,1,0,1
10457.0
0,0,0,0,0,0,1,0,1,1,0,1,1,1,1,0
24364.0
0,0,0,0,0,0,1,0,1,1,0,1,1,1,1,1
10451.0
0,0,0,0,0,0,1,0,1,1,1,0,0,0,0,0
31915.0
0,0,0,0,0,0,1,0,1,1,1,0,0,0,0,1
22033.0
0,0,0,0,0,0,1,0,1,1,1,0,0,0,1,0
31876.0
0,0,0,0,0,0,1,0,1,1,1,0,0,0,1,1
22183.0
0,0,0,0,0,0,1,0,1,1,1,0,0,1,0,0
25041.0
0,0,0,0,0,0,1,0,1,1,1,0,0,1,0,1
11462.0
0,0,0,0,0,0,1,0,1,1,1,0,0,1,1,0
24741.0
0,0,0,0,0,0,1,0,1,1,1,0,0,1,1,1
11373.0
0,0,0,0,0,0,1,0,1,1,1,0,1,0,0,0
32194.0
0,0,0,0,0,0,1,0,1,1,1,0,1,0,0,1
21723.0
0,0,0,0,0,0,1,0,1,1,1,0,1,0,1,0
32026.0
0,0,0,0,0,0,1,0,1,1,1,0,1,0,1,1
21803.0
0,0,0,0,0,0,1,0,1,1,1,0,1,1,0,0
24907.0
0,0,0,0,0,0,1,0,1,1,1,0,1,1,1,0
24818.0
0,0,0,0,0,0,1,0,1,1,1,0,1,1,1,1
10943.0
0,0,0,0,0,0,1,0,1,1,1,1,0,0,0,0
31833.0
0,0,0,0,0,0,1,0,1,1,1,1,0,0,0,1
21981.0
0,0,0,0,0,0,1,0,1,1,1,1,0,0,1,0
31705.0
0,0,0,0,0,0,1,0,1,1,1,1,0,0,1,1
22057.0
0,0,0,0,0,0,1,0,1,1,1,1,0,1,0,0
24257.0
0,0,0,0,0,0,1,0,1,1,1,1,0,1,0,1
10908.0
0,0,0,0,0,0,1,0,1,1,1,1,0,1,1,0
33495342.0
0,0,0,0,0,0,1,0,1,1,1,1,0,1,1,1
16929.0
0,0,0,0,0,0,1,0,1,1,1,1,1,0,0,0
44692.0
0,0,0,0,0,0,1,0,1,1,1,1,1,0,0,1
30526.0
0,0,0,0,0,0,1,0,1,1,1,1,1,0,1,0
44712.0
0,0,0,0,0,0,1,0,1,1,1,1,1,0,1,1
31114.0
0,0,0,0,0,0,1,0,1,1,1,1,1,1,0,0
34005.0
0,0,0,0,0,0,1,0,1,1,1,1,1,1,0,1
14685.0
0,0,0,0,0,0,1,0,1,1,1,1,1,1,1,0
24925.0
0,0,0,0,0,0,1,0,1,1,1,1,1,1,1,1
10577.0
0,0,0,0,0,0,1,1,0,0,0,0,0,0,0,0
688.0
0,0,0,0,0,0,1,1,0,0,0,0,0,0,0,1
18406.0
0,0,0,0,0,0,1,1,0,0,0,0,0,0,1,0
758.0
0,0,0,0,0,0,1,1,0,0,0,0,0,0,1,1
17099.0
0,0,0,0,0,0,1,1,0,0,0,0,0,1,0,0
25049.0
0,0,0,0,0,0,1,1,0,0,0,0,0,1,0,1
37807.0
0,0,0,0,0,0,1,1,0,0,0,0,0,1,1,0
25087.0
0,0,0,0,0,0,1,1,0,0,0,0,0,1,1,1
37082.0
0,0,0,0,0,0,1,1,0,0,0,0,1,0,0,0
726.0
0,0,0,0,0,0,1,1,0,0,0,0,1,0,0,1
16764.0
0,0,0,0,0,0,1,1,0,0,0,0,1,0,1,0
757.0
0,0,0,0,0,0,1,1,0,0,0,0,1,0,1,1
16277.0
0,0,0,0,0,0,1,1,0,0,0,0,1,1,0,0
25201.0
0,0,0,0,0,0,1,1,0,0,0,0,1,1,0,1
37265.0
0,0,0,0,0,0,1,1,0,0,0,0,1,1,1,0
25417.0
0,0,0,0,0,0,1,1,0,0,0,0,1,1,1,1
37729.0
0,0,0,0,0,0,1,1,0,0,0,1,0,0,0,0
1574.0
0,0,0,0,0,0,1,1,0,0,0,1,0,0,0,1
17257.0
0,0,0,0,0,0,1,1,0,0,0,1,0,0,1,0
1505.0
0,0,0,0,0,0,1,1,0,0,0,1,0,0,1,1
17053.0
0,0,0,0,0,0,1,1,0,0,0,1,0,1,0,0
24565.0
0,0,0,0,0,0,1,1,0,0,0,1,0,1,0,1
36757.0
0,0,0,0,0,0,1,1,0,0,0,1,0,1,1,0
24496.0
0,0,0,0,0,0,1,1,0,0,0,1,0,1,1,1
36627.0
0,0,0,0,0,0,1,1,0,0,0,1,1,0,0,0
1537.0
0,0,0,0,0,0,1,1,0,0,0,1,1,0,0,1
17054.0
0,0,0,0,0,0,1,1,0,0,0,1,1,0,1,0
1509.0
0,0,0,0,0,0,1,1,0,0,0,1,1,0,1,1
17197.0
0,0,0,0,0,0,1,1,0,0,0,1,1,1,0,0
25384.0
0,0,0,0,0,0,1,1,0,0,0,1,1,1,0,1
36331.0
0,0,0,0,0,0,1,1,0,0,0,1,1,1,1,0
24501.0
0,0,0,0,0,0,1,1,0,0,0,1,1,1,1,1
37221.0
0,0,0,0,0,0,1,1,0,0,1,0,0,0,0,0
721.0
0,0,0,0,0,0,1,1,0,0,1,0,0,0,0,1
16664.0
0,0,0,0,0,0,1,1,0,0,1,0,0,0,1,0
797.0
0,0,0,0,0,0,1,1,0,0,1,0,0,0,1,1
17227.0
0,0,0,0,0,0,1,1,0,0,1,0,0,1,0,0
25940.0
0,0,0,0,0,0,1,1,0,0,1,0,0,1,0,1
38602.0
0,0,0,0,0,0,1,1,0,0,1,0,0,1,1,0
25752.0
0,0,0,0,0,0,1,1,0,0,1,0,0,1,1,1
38774.0
0,0,0,0,0,0,1,1,0,0,1,0,1,0,0,0
748.0
0,0,0,0,0,0,1,1,0,0,1,0,1,0,0,1
17138.0
0,0,0,0,0,0,1,1,0,0,1,0,1,0,1,0
793.0
0,0,0,0,0,0,1,1,0,0,1,0,1,0,1,1
17024.0
0,0,0,0,0,0,1,1,0,0,1,0,1,1,0,0
25750.0
0,0,0,0,0,0,1,1,0,0,1,0,1,1,1,0
25890.0
0,0,0,0,0,0,1,1,0,0,1,0,1,1,1,1
38309.0
0,0,0,0,0,0,1,1,0,0,1,1,0,0,0,0
1562.0
0,0,0,0,0,0,1,1,0,0,1,1,0,0,0,1
18172.0
0,0,0,0,0,0,1,1,0,0,1,1,0,0,1,0
1615.0
0,0,0,0,0,0,1,1,0,0,1,1,0,0,1,1
18047.0
0,0,0,0,0,0,1,1,0,0,1,1,0,1,0,0
26257.0
0,0,0,0,0,0,1,1,0,0,1,1,0,1,0,1
39145.0
0,0,0,0,0,0,1,1,0,0,1,1,0,1,1,0
26108.0
0,0,0,0,0,0,1,1,0,0,1,1,0,1,1,1
38435.0
0,0,0,0,0,0,1,1,0,0,1,1,1,0,0,0
1617.0
0,0,0,0,0,0,1,1,0,0,1,1,1,0,0,1
17858.0
0,0,0,0,0,0,1,1,0,0,1,1,1,0,1,0
1618.0
0,0,0,0,0,0,1,1,0,0,1,1,1,0,1,1
17758.0
0,0,0,0,0,0,1,1,0,0,1,1,1,1,0,0
25918.0
0,0,0,0,0,0,1,1,0,0,1,1,1,1,0,1
38460.0
0,0,0,0,0,0,1,1,0,0,1,1,1,1,1,0
25855.0
0,0,0,0,0,0,1,1,0,0,1,1,1,1,1,1
38366.0
0,0,0,0,0,0,1,1,0,1,0,0,0,0,0,0
33649.0
0,0,0,0,0,0,1,1,0,1,0,0,0,0,0,1
25255.0
0,0,0,0,0,0,1,1,0,1,0,0,0,0,1,0
33631.0
0,0,0,0,0,0,1,1,0,1,0,0,0,0,1,1
25325.0
0,0,0,0,0,0,1,1,0,1,0,0,0,1,0,0
27589.0
0,0,0,0,0,0,1,1,0,1,0,0,0,1,0,1
15491.0
0,0,0,0,0,0,1,1,0,1,0,0,0,1,1,0
27890.0
0,0,0,0,0,0,1,1,0,1,0,0,0,1,1,1
15492.0
0,0,0,0,0,0,1,1,0,1,0,0,1,0,0,0
34150.0
0,0,0,0,0,0,1,1,0,1,0,0,1,0,0,1
25039.0
0,0,0,0,0,0,1,1,0,1,0,0,1,0,1,0
34038.0
0,0,0,0,0,0,1,1,0,1,0,0,1,0,1,1
24840.0
0,0,0,0,0,0,1,1,0,1,0,0,1,1,0,0
27590.0
0,0,0,0,0,0,1,1,0,1,0,0,1,1,0,1
14925.0
0,0,0,0,0,0,1,1,0,1,0,0,1,1,1,0
27657.0
0,0,0,0,0,0,1,1,0,1,0,0,1,1,1,1
15129.0
0,0,0,0,0,0,1,1,0,1,0,1,0,0,0,0
33763.0
0,0,0,0,0,0,1,1,0,1,0,1,0,0,0,1
25233.0
0,0,0,0,0,0,1,1,0,1,0,1,0,0,1,0
33756.0
0,0,0,0,0,0,1,1,0,1,0,1,0,0,1,1
25208.0
0,0,0,0,0,0,1,1,0,1,0,1,0,1,0,0
27180.0
0,0,0,0,0,0,1,1,0,1,0,1,0,1,0,1
14903.0
0,0,0,0,0,0,1,1,0,1,0,1,0,1,1,0
27421.0
0,0,0,0,0,0,1,1,0,1,0,1,0,1,1,1
14987.0
0,0,0,0,0,0,1,1,0,1,0,1,1,0,0,1
24697.0
0,0,0,0,0,0,1,1,0,1,0,1,1,0,1,0
33590.0
0,0,0,0,0,0,1,1,0,1,0,1,1,0,1,1
24732.0
0,0,0,0,0,0,1,1,0,1,0,1,1,1,0,0
27010.0
0,0,0,0,0,0,1,1,0,1,0,1,1,1,0,1
14450.0
0,0,0,0,0,0,1,1,0,1,0,1,1,1,1,0
26921.0
0,0,0,0,0,0,1,1,0,1,0,1,1,1,1,1
14278.0
0,0,0,0,0,0,1,1,0,1,1,0,0,0,0,0
33802.0
0,0,0,0,0,0,1,1,0,1,1,0,0,0,0,1
25346.0
0,0,0,0,0,0,1,1,0,1,1,0,0,0,1,0
33962.0
0,0,0,0,0,0,1,1,0,1,1,0,0,0,1,1
25518.0
0,0,0,0,0,0,1,1,0,1,1,0,0,1,0,0
27897.0
0,0,0,0,0,0,1,1,0,1,1,0,0,1,0,1
15475.0
0,0,0,0,0,0,1,1,0,1,1,0,0,1,1,0
27477.0
0,0,0,0,0,0,1,1,0,1,1,0,0,1,1,1
15390.0
0,0,0,0,0,0,1,1,0,1,1,0,1,0,0,0
33818.0
0,0,0,0,0,0,1,1,0,1,1,0,1,0,0,1
24722.0
0,0,0,0,0,0,1,1,0,1,1,0,1,0,1,0
33934.0
0,0,0,0,0,0,1,1,0,1,1,0,1,0,1,1
24894.0
0,0,0,0,0,0,1,1,0,1,1,0,1,1,0,0
27940.0
0,0,0,0,0,0,1,1,0,1,1,0,1,1,0,1
14522.0
0,0,0,0,0,0,1,1,0,1,1,0,1,1,1,0
26264.0
0,0,0,0,0,0,1,1,0,1,1,0,1,1,1,1
14191.0
0,0,0,0,0,0,1,1,0,1,1,1,0,0,0,0
32290.0
0,0,0,0,0,0,1,1,0,1,1,1,0,0,0,1
23914.0
0,0,0,0,0,0,1,1,0,1,1,1,0,0,1,0
32057.0
0,0,0,0,0,0,1,1,0,1,1,1,0,0,1,1
23981.0
0,0,0,0,0,0,1,1,0,1,1,1,0,1,0,0
25775.0
0,0,0,0,0,0,1,1,0,1,1,1,0,1,0,1
14322.0
0,0,0,0,0,0,1,1,0,1,1,1,0,1,1,0
25688.0
0,0,0,0,0,0,1,1,0,1,1,1,0,1,1,1
14023.0
0,0,0,0,0,0,1,1,0,1,1,1,1,0,0,0
32093.0
0,0,0,0,0,0,1,1,0,1,1,1,1,0,0,1
23421.0
0,0,0,0,0,0,1,1,0,1,1,1,1,0,1,0
32098.0
0,0,0,0,0,0,1,1,0,1,1,1,1,0,1,1
23460.0
0,0,0,0,0,0,1,1,0,1,1,1,1,1,0,0
25811.0
0,0,0,0,0,0,1,1,0,1,1,1,1,1,0,1
13739.0
0,0,0,0,0,0,1,1,0,1,1,1,1,1,1,0
25818.0
0,0,0,0,0,0,1,1,0,1,1,1,1,1,1,1
13634.0
0,0,0,0,0,0,1,1,1,0,0,0,0,0,0,0
4717.0
0,0,0,0,0,0,1,1,1,0,0,0,0,0,0,1
18539.0
0,0,0,0,0,0,1,1,1,0,0,0,0,0,1,0
4720.0
0,0,0,0,0,0,1,1,1,0,0,0,0,0,1,1
18324.0
0,0,0,0,0,0,1,1,1,0,0,0,0,1,0,0
24335.0
0,0,0,0,0,0,1,1,1,0,0,0,0,1,0,1
34552.0
0,0,0,0,0,0,1,1,1,0,0,0,0,1,1,0
24238.0
0,0,0,0,0,0,1,1,1,0,0,0,0,1,1,1
34398.0
0,0,0,0,0,0,1,1,1,0,0,0,1,0,0,0
4718.0
0,0,0,0,0,0,1,1,1,0,0,0,1,0,0,1
17970.0
0,0,0,0,0,0,1,1,1,0,0,0,1,0,1,0
4748.0
0,0,0,0,0,0,1,1,1,0,0,0,1,0,1,1
17824.0
0,0,0,0,0,0,1,1,1,0,0,0,1,1,0,0
24272.0
0,0,0,0,0,0,1,1,1,0,0,0,1,1,0,1
34009.0
0,0,0,0,0,0,1,1,1,0,0,0,1,1,1,0
24244.0
0,0,0,0,0,0,1,1,1,0,0,0,1,1,1,1
33780.0
0,0,0,0,0,0,1,1,1,0,0,1,0,0,0,0
5474.0
0,0,0,0,0,0,1,1,1,0,0,1,0,0,0,1
19176.0
0,0,0,0,0,0,1,1,1,0,0,1,0,0,1,0
5486.0
0,0,0,0,0,0,1,1,1,0,0,1,0,0,1,1
19011.0
0,0,0,0,0,0,1,1,1,0,0,1,0,1,0,0
24834.0
0,0,0,0,0,0,1,1,1,0,0,1,0,1,0,1
35608.0
0,0,0,0,0,0,1,1,1,0,0,1,0,1,1,0
24529.0
0,0,0,0,0,0,1,1,1,0,0,1,0,1,1,1
34613.0
0,0,0,0,0,0,1,1,1,0,0,1,1,0,0,1
18792.0
0,0,0,0,0,0,1,1,1,0,0,1,1,0,1,0
5558.0
0,0,0,0,0,0,1,1,1,0,0,1,1,0,1,1
18579.0
0,0,0,0,0,0,1,1,1,0,0,1,1,1,0,0
24718.0
0,0,0,0,0,0,1,1,1,0,0,1,1,1,0,1
34201.0
0,0,0,0,0,0,1,1,1,0,0,1,1,1,1,0
24704.0
0,0,0,0,0,0,1,1,1,0,0,1,1,1,1,1
34162.0
0,0,0,0,0,0,1,1,1,0,1,0,0,0,0,0
4689.0
0,0,0,0,0,0,1,1,1,0,1,0,0,0,0,1
18541.0
0,0,0,0,0,0,1,1,1,0,1,0,0,0,1,0
4737.0
0,0,0,0,0,0,1,1,1,0,1,0,0,0,1,1
18391.0
0,0,0,0,0,0,1,1,1,0,1,0,0,1,0,0
24313.0
0,0,0,0,0,0,1,1,1,0,1,0,0,1,0,1
34558.0
0,0,0,0,0,0,1,1,1,0,1,0,0,1,1,0
24311.0
0,0,0,0,0,0,1,1,1,0,1,0,0,1,1,1
34588.0
0,0,0,0,0,0,1,1,1,0,1,0,1,0,0,0
4681.0
0,0,0,0,0,0,1,1,1,0,1,0,1,0,0,1
17975.0
0,0,0,0,0,0,1,1,1,0,1,0,1,0,1,0
4784.0
0,0,0,0,0,0,1,1,1,0,1,0,1,0,1,1
17882.0
0,0,0,0,0,0,1,1,1,0,1,0,1,1,0,0
24317.0
0,0,0,0,0,0,1,1,1,0,1,0,1,1,0,1
34050.0
0,0,0,0,0,0,1,1,1,0,1,0,1,1,1,0
24217.0
0,0,0,0,0,0,1,1,1,0,1,0,1,1,1,1
33875.0
0,0,0,0,0,0,1,1,1,0,1,1,0,0,0,0
5506.0
0,0,0,0,0,0,1,1,1,0,1,1,0,0,0,1
19264.0
0,0,0,0,0,0,1,1,1,0,1,1,0,0,1,0
5498.0
0,0,0,0,0,0,1,1,1,0,1,1,0,0,1,1
19012.0
0,0,0,0,0,0,1,1,1,0,1,1,0,1,0,0
24640.0
0,0,0,0,0,0,1,1,1,0,1,1,0,1,0,1
34771.0
0,0,0,0,0,0,1,1,1,0,1,1,0,1,1,0
24553.0
0,0,0,0,0,0,1,1,1,0,1,1,0,1,1,1
34734.0
0,0,0,0,0,0,1,1,1,0,1,1,1,0,0,0
5475.0
0,0,0,0,0,0,1,1,1,0,1,1,1,0,0,1
18789.0
0,0,0,0,0,0,1,1,1,0,1,1,1,0,1,0
5524.0
0,0,0,0,0,0,1,1,1,0,1,1,1,0,1,1
18629.0
0,0,0,0,0,0,1,1,1,0,1,1,1,1,0,0
24722.0
0,0,0,0,0,0,1,1,1,0,1,1,1,1,0,1
34328.0
0,0,0,0,0,0,1,1,1,0,1,1,1,1,1,0
24664.0
0,0,0,0,0,0,1,1,1,0,1,1,1,1,1,1
34203.0
0,0,0,0,0,0,1,1,1,1,0,0,0,0,0,0
32346.0
0,0,0,0,0,0,1,1,1,1,0,0,0,0,0,1
22535.0
0,0,0,0,0,0,1,1,1,1,0,0,0,0,1,0
32451.0
0,0,0,0,0,0,1,1,1,1,0,0,0,1,0,0
25071.0
0,0,0,0,0,0,1,1,1,1,0,0,0,1,0,1
11600.0
0,0,0,0,0,0,1,1,1,1,0,0,0,1,1,0
25250.0
0,0,0,0,0,0,1,1,1,1,0,0,0,1,1,1
11542.0
0,0,0,0,0,0,1,1,1,1,0,0,1,0,0,0
32381.0
0,0,0,0,0,0,1,1,1,1,0,0,1,0,0,1
21899.0
0,0,0,0,0,0,1,1,1,1,0,0,1,0,1,0
32383.0
0,0,0,0,0,0,1,1,1,1,0,0,1,0,1,1
21869.0
0,0,0,0,0,0,1,1,1,1,0,0,1,1,0,0
25111.0
0,0,0,0,0,0,1,1,1,1,0,0,1,1,0,1
11231.0
0,0,0,0,0,0,1,1,1,1,0,0,1,1,1,0
25315.0
0,0,0,0,0,0,1,1,1,1,0,0,1,1,1,1
11121.0
0,0,0,0,0,0,1,1,1,1,0,1,0,0,0,0
32277.0
0,0,0,0,0,0,1,1,1,1,0,1,0,0,0,1
22185.0
0,0,0,0,0,0,1,1,1,1,0,1,0,0,1,0
32215.0
0,0,0,0,0,0,1,1,1,1,0,1,0,0,1,1
22251.0
0,0,0,0,0,0,1,1,1,1,0,1,0,1,0,0
24601.0
0,0,0,0,0,0,1,1,1,1,0,1,0,1,0,1
11025.0
0,0,0,0,0,0,1,1,1,1,0,1,0,1,1,0
24590.0
0,0,0,0,0,0,1,1,1,1,0,1,0,1,1,1
10993.0
0,0,0,0,0,0,1,1,1,1,0,1,1,0,0,0
32283.0
0,0,0,0,0,0,1,1,1,1,0,1,1,0,0,1
21859.0
0,0,0,0,0,0,1,1,1,1,0,1,1,0,1,0
32401.0
0,0,0,0,0,0,1,1,1,1,0,1,1,0,1,1
21894.0
0,0,0,0,0,0,1,1,1,1,0,1,1,1,0,0
24742.0
0,0,0,0,0,0,1,1,1,1,0,1,1,1,0,1
10498.0
0,0,0,0,0,0,1,1,1,1,0,1,1,1,1,0
24674.0
0,0,0,0,0,0,1,1,1,1,0,1,1,1,1,1
10459.0
0,0,0,0,0,0,1,1,1,1,1,0,0,0,0,0
32482.0
0,0,0,0,0,0,1,1,1,1,1,0,0,0,0,1
23395.0
0,0,0,0,0,0,1,1,1,1,1,0,0,0,1,0
32708.0
0,0,0,0,0,0,1,1,1,1,1,0,0,0,1,1
22697.0
0,0,0,0,0,0,1,1,1,1,1,0,0,1,0,0
25218.0
0,0,0,0,0,0,1,1,1,1,1,0,0,1,0,1
11545.0
0,0,0,0,0,0,1,1,1,1,1,0,0,1,1,0
25195.0
0,0,0,0,0,0,1,1,1,1,1,0,0,1,1,1
11486.0
0,0,0,0,0,0,1,1,1,1,1,0,1,0,0,0
32582.0
0,0,0,0,0,0,1,1,1,1,1,0,1,0,0,1
21890.0
0,0,0,0,0,0,1,1,1,1,1,0,1,0,1,0
32533.0
0,0,0,0,0,0,1,1,1,1,1,0,1,0,1,1
21972.0
0,0,0,0,0,0,1,1,1,1,1,0,1,1,0,0
25237.0
0,0,0,0,0,0,1,1,1,1,1,0,1,1,0,1
11075.0
0,0,0,0,0,0,1,1,1,1,1,0,1,1,1,0
25192.0
0,0,0,0,0,0,1,1,1,1,1,0,1,1,1,1
11066.0
0,0,0,0,0,0,1,1,1,1,1,1,0,0,0,0
32410.0
0,0,0,0,0,0,1,1,1,1,1,1,0,0,0,1
22205.0
0,0,0,0,0,0,1,1,1,1,1,1,0,0,1,0
32246.0
0,0,0,0,0,0,1,1,1,1,1,1,0,0,1,1
22215.0
0,0,0,0,0,0,1,1,1,1,1,1,0,1,0,0
24602.0
0,0,0,0,0,0,1,1,1,1,1,1,0,1,0,1
11039.0
0,0,0,0,0,0,1,1,1,1,1,1,0,1,1,0
24665.0
0,0,0,0,0,0,1,1,1,1,1,1,0,1,1,1
11039.0
0,0,0,0,0,0,1,1,1,1,1,1,1,0,0,0
32317.0
0,0,0,0,0,0,1,1,1,1,1,1,1,0,0,1
21771.0
0,0,0,0,0,0,1,1,1,1,1,1,1,0,1,0
32182.0
0,0,0,0,0,0,1,1,1,1,1,1,1,0,1,1
21748.0
0,0,0,0,0,0,1,1,1,1,1,1,1,1,0,0
24672.0
0,0,0,0,0,0,1,1,1,1,1,1,1,1,0,1
10489.0
0,0,0,0,0,0,1,1,1,1,1,1,1,1,1,0
24618.0
0,0,0,0,0,0,1,1,1,1,1,1,1,1,1,1
10600.0
0,0,0,0,0,1,0,0,0,0,0,0,0,0,0,0
2355.0
0,0,0,0,0,1,0,0,0,0,0,0,0,0,0,1
17995.0
0,0,0,0,0,1,0,0,0,0,0,0,0,0,1,0
2258.0
0,0,0,0,0,1,0,0,0,0,0,0,0,1,0,0
25919.0
0,0,0,0,0,1,0,0,0,0,0,0,0,1,0,1
37782.0
0,0,0,0,0,1,0,0,0,0,0,0,0,1,1,0
25826.0
0,0,0,0,0,1,0,0,0,0,0,0,0,1,1,1
37864.0
0,0,0,0,0,1,0,0,0,0,0,0,1,0,0,0
2346.0
0,0,0,0,0,1,0,0,0,0,0,0,1,0,0,1
17501.0
0,0,0,0,0,1,0,0,0,0,0,0,1,0,1,0
2238.0
0,0,0,0,0,1,0,0,0,0,0,0,1,0,1,1
17373.0
0,0,0,0,0,1,0,0,0,0,0,0,1,1,0,0
27101.0
0,0,0,0,0,1,0,0,0,0,0,0,1,1,0,1
38870.0
0,0,0,0,0,1,0,0,0,0,0,0,1,1,1,0
26863.0
0,0,0,0,0,1,0,0,0,0,0,0,1,1,1,1
38951.0
0,0,0,0,0,1,0,0,0,0,0,1,0,0,0,0
3081.0
0,0,0,0,0,1,0,0,0,0,0,1,0,0,0,1
19506.0
0,0,0,0,0,1,0,0,0,0,0,1,0,0,1,0
3107.0
0,0,0,0,0,1,0,0,0,0,0,1,0,0,1,1
75831.0
0,0,0,0,0,1,0,0,0,0,0,1,0,1,0,0
101936.0
0,0,0,0,0,1,0,0,0,0,0,1,0,1,0,1
147840.0
0,0,0,0,0,1,0,0,0,0,0,1,0,1,1,0
97863.0
0,0,0,0,0,1,0,0,0,0,0,1,0,1,1,1
147538.0
0,0,0,0,0,1,0,0,0,0,0,1,1,0,0,0
12535.0
0,0,0,0,0,0,0,0,0,0,0,0,0,0,0,0
0.633
0,0,0,0,0,0,0,0,0,0,0,0,0,0,0,1
16.517
0,0,0,0,0,0,0,0,0,0,0,0,0,0,1,0
0.917
0,0,0,0,0,0,0,0,0,0,0,0,0,0,1,1
16.286
0,0,0,0,0,0,0,0,0,0,0,0,0,1,0,0
24.115
0,0,0,0,0,0,0,0,0,0,0,0,0,1,0,1
36.11
0,0,0,0,0,0,0,0,0,0,0,0,0,1,1,0
24.057
0,0,0,0,0,0,0,0,0,0,0,0,0,1,1,1
36.051
0,0,0,0,0,0,0,0,0,0,0,0,1,0,0,0
0.649
0,0,0,0,0,0,0,0,0,0,0,0,1,0,0,1
15.986
0,0,0,0,0,0,0,0,0,0,0,0,1,0,1,0
0.689
0,0,0,0,0,0,0,0,0,0,0,0,1,0,1,1
15.784
0,0,0,0,0,0,0,0,0,0,0,0,1,1,0,0
24.092
0,0,0,0,0,0,0,0,0,0,0,0,1,1,0,1
35.769
0,0,0,0,0,0,0,0,0,0,0,0,1,1,1,0
24.113
0,0,0,0,0,0,0,0,0,0,0,0,1,1,1,1
36.696
0,0,0,0,0,0,0,0,0,0,0,1,0,0,0,0
1.476
0,0,0,0,0,0,0,0,0,0,0,1,0,0,0,1
17.715
0,0,0,0,0,0,0,0,0,0,0,1,0,0,1,0
1.49
0,0,0,0,0,0,0,0,0,0,0,1,0,0,1,1
17.561
0,0,0,0,0,0,0,0,0,0,0,1,0,1,0,0
24.495
0,0,0,0,0,0,0,0,0,0,0,1,0,1,0,1
36.753
0,0,0,0,0,0,0,0,0,0,0,1,0,1,1,0
24.518
0,0,0,0,0,0,0,0,0,0,0,1,0,1,1,1
36.808
0,0,0,0,0,0,0,0,0,0,0,1,1,0,0,0
1.532
0,0,0,0,0,0,0,0,0,0,0,1,1,0,0,1
17.008
0,0,0,0,0,0,0,0,0,0,0,1,1,0,1,0
1.507
0,0,0,0,0,0,0,0,0,0,0,1,1,0,1,1
16.521
0,0,0,0,0,0,0,0,0,0,0,1,1,1,0,0
24.369
0,0,0,0,0,0,0,0,0,0,0,1,1,1,0,1
35.855
0,0,0,0,0,0,0,0,0,0,0,1,1,1,1,0
24.32
0,0,0,0,0,0,0,0,0,0,0,1,1,1,1,1
35.959
0,0,0,0,0,0,0,0,0,0,1,0,0,0,0,0
0.685
0,0,0,0,0,0,0,0,0,0,1,0,0,0,0,1
16.482
0,0,0,0,0,0,0,0,0,0,1,0,0,0,1,0
0.679
0,0,0,0,0,0,0,0,0,0,1,0,0,0,1,1
16.177
0,0,0,0,0,0,0,0,0,0,1,0,0,1,0,0
23.962
0,0,0,0,0,0,0,0,0,0,1,0,0,1,0,1
36.026
0,0,0,0,0,0,0,0,0,0,1,0,0,1,1,0
23.88
0,0,0,0,0,0,0,0,0,0,1,0,0,1,1,1
36.115
0,0,0,0,0,0,0,0,0,0,1,0,1,0,0,0
0.672
0,0,0,0,0,0,0,0,0,0,1,0,1,0,0,1
15.941
0,0,0,0,0,0,0,0,0,0,1,0,1,0,1,1
15.776
0,0,0,0,0,0,0,0,0,0,1,0,1,1,0,0
24.006
0,0,0,0,0,0,0,0,0,0,1,0,1,1,0,1
35.725
0,0,0,0,0,0,0,0,0,0,1,0,1,1,1,0
23.939
0,0,0,0,0,0,0,0,0,0,1,0,1,1,1,1
35.522
0,0,0,0,0,0,0,0,0,0,1,1,0,0,0,0
1.468
0,0,0,0,0,0,0,0,0,0,1,1,0,0,0,1
17.158
0,0,0,0,0,0,0,0,0,0,1,1,0,0,1,0
1.475
0,0,0,0,0,0,0,0,0,0,1,1,0,0,1,1
17.097
0,0,0,0,0,0,0,0,0,0,1,1,0,1,0,0
24.42
0,0,0,0,0,0,0,0,0,0,1,1,0,1,0,1
36.364
0,0,0,0,0,0,0,0,0,0,1,1,0,1,1,0
24.319
0,0,0,0,0,0,0,0,0,0,1,1,0,1,1,1
36.522
0,0,0,0,0,0,0,0,0,0,1,1,1,0,0,0
1.473
0,0,0,0,0,0,0,0,0,0,1,1,1,0,0,1
16.702
0,0,0,0,0,0,0,0,0,0,1,1,1,0,1,0
1.462
0,0,0,0,0,0,0,0,0,0,1,1,1,0,1,1
16.53
0,0,0,0,0,0,0,0,0,0,1,1,1,1,0,0
24.368
0,0,0,0,0,0,0,0,0,0,1,1,1,1,0,1
35.96
0,0,0,0,0,0,0,0,0,0,1,1,1,1,1,0
24.263
0,0,0,0,0,0,0,0,0,0,1,1,1,1,1,1
35.834
0,0,0,0,0,0,0,0,0,1,0,0,0,0,0,0
31.582
0,0,0,0,0,0,0,0,0,1,0,0,0,0,0,1
23.752
0,0,0,0,0,0,0,0,0,1,0,0,0,0,1,0
31.582
0,0,0,0,0,0,0,0,0,1,0,0,0,0,1,1
23.851
0,0,0,0,0,0,0,0,0,1,0,0,0,1,0,0
26.013
0,0,0,0,0,0,0,0,0,1,0,0,0,1,0,1
14.536
0,0,0,0,0,0,0,0,0,1,0,0,0,1,1,0
25.991
0,0,0,0,0,0,0,0,0,1,0,0,0,1,1,1
14.476
0,0,0,0,0,0,0,0,0,1,0,0,1,0,0,0
31.703
0,0,0,0,0,0,0,0,0,1,0,0,1,0,0,1
23.301
0,0,0,0,0,0,0,0,0,1,0,0,1,0,1,0
31.704
0,0,0,0,0,0,0,0,0,1,0,0,1,0,1,1
23.314
0,0,0,0,0,0,0,0,0,1,0,0,1,1,0,0
25.885
0,0,0,0,0,0,0,0,0,1,0,0,1,1,0,1
14.075
0,0,0,0,0,0,0,0,0,1,0,0,1,1,1,0
25.974
0,0,0,0,0,0,0,0,0,1,0,0,1,1,1,1
14.069
0,0,0,0,0,0,0,0,0,1,0,1,0,0,0,0
31.454
0,0,0,0,0,0,0,0,0,1,0,1,0,0,0,1
23.558
0,0,0,0,0,0,0,0,0,1,0,1,0,0,1,0
31.564
0,0,0,0,0,0,0,0,0,1,0,1,0,0,1,1
23.645
0,0,0,0,0,0,0,0,0,1,0,1,0,1,0,0
25.316
0,0,0,0,0,0,0,0,0,1,0,1,0,1,1,0
25.391
0,0,0,0,0,0,0,0,0,1,0,1,0,1,1,1
13.923
0,0,0,0,0,0,0,0,0,1,0,1,1,0,0,0
31.464
0,0,0,0,0,0,0,0,0,1,0,1,1,0,0,1
23.16
0,0,0,0,0,0,0,0,0,1,0,1,1,0,1,0
31.545
0,0,0,0,0,0,0,0,0,1,0,1,1,0,1,1
23.194
0,0,0,0,0,0,0,0,0,1,0,1,1,1,0,0
25.345
0,0,0,0,0,0,0,0,0,1,0,1,1,1,0,1
13.545
0,0,0,0,0,0,0,0,0,1,0,1,1,1,1,0
25.305
0,0,0,0,0,0,0,0,0,1,0,1,1,1,1,1
13.527
0,0,0,0,0,0,0,0,0,1,1,0,0,0,0,0
31.674
0,0,0,0,0,0,0,0,0,1,1,0,0,0,0,1
23.756
0,0,0,0,0,0,0,0,0,1,1,0,0,0,1,0
31.641
0,0,0,0,0,0,0,0,0,1,1,0,0,0,1,1
23.783
0,0,0,0,0,0,0,0,0,1,1,0,0,1,0,0
25.902
0,0,0,0,0,0,0,0,0,1,1,0,0,1,0,1
14.481
0,0,0,0,0,0,0,0,0,1,1,0,0,1,1,0
25.908
0,0,0,0,0,0,0,0,0,1,1,0,0,1,1,1
14.517
0,0,0,0,0,0,0,0,0,1,1,0,1,0,0,0
31.769
0,0,0,0,0,0,0,0,0,1,1,0,1,0,0,1
23.449
0,0,0,0,0,0,0,0,0,1,1,0,1,0,1,0
31.714
0,0,0,0,0,0,0,0,0,1,1,0,1,0,1,1
23.437
0,0,0,0,0,0,0,0,0,1,1,0,1,1,0,0
26.103
0,0,0,0,0,0,0,0,0,1,1,0,1,1,0,1
14.094
0,0,0,0,0,0,0,0,0,1,1,0,1,1,1,0
25.887
0,0,0,0,0,0,0,0,0,1,1,0,1,1,1,1
14.086
0,0,0,0,0,0,0,0,0,1,1,1,0,0,0,0
31.533
0,0,0,0,0,0,0,0,0,1,1,1,0,0,0,1
23.667
0,0,0,0,0,0,0,0,0,1,1,1,0,0,1,0
31.565
0,0,0,0,0,0,0,0,0,1,1,1,0,0,1,1
23.819
0,0,0,0,0,0,0,0,0,1,1,1,0,1,0,0
25.282
0,0,0,0,0,0,0,0,0,1,1,1,0,1,0,1
13.922
0,0,0,0,0,0,0,0,0,1,1,1,0,1,1,0
25.317
0,0,0,0,0,0,0,0,0,1,1,1,0,1,1,1
13.958
0,0,0,0,0,0,0,0,0,1,1,1,1,0,0,0
31.616
0,0,0,0,0,0,0,0,0,1,1,1,1,0,0,1
23.193
0,0,0,0,0,0,0,0,0,1,1,1,1,0,1,0
31.54
0,0,0,0,0,0,0,0,0,1,1,1,1,0,1,1
23.211
0,0,0,0,0,0,0,0,0,1,1,1,1,1,0,0
25.333
0,0,0,0,0,0,0,0,0,1,1,1,1,1,0,1
13.493
0,0,0,0,0,0,0,0,0,1,1,1,1,1,1,0
25.454
0,0,0,0,0,0,0,0,0,1,1,1,1,1,1,1
13.478
0,0,0,0,0,0,0,0,1,0,0,0,0,0,0,0
4.625
0,0,0,0,0,0,0,0,1,0,0,0,0,0,0,1
18.301
0,0,0,0,0,0,0,0,1,0,0,0,0,0,1,0
4.633
0,0,0,0,0,0,0,0,1,0,0,0,0,0,1,1
18.069
0,0,0,0,0,0,0,0,1,0,0,0,0,1,0,0
24.023
0,0,0,0,0,0,0,0,1,0,0,0,0,1,0,1
34.0
0,0,0,0,0,0,0,0,1,0,0,0,0,1,1,0
23.957
0,0,0,0,0,0,0,0,1,0,0,0,0,1,1,1
33.822
0,0,0,0,0,0,0,0,1,0,0,0,1,0,0,0
4.633
0,0,0,0,0,0,0,0,1,0,0,0,1,0,0,1
17.818
0,0,0,0,0,0,0,0,1,0,0,0,1,0,1,0
4.677
0,0,0,0,0,0,0,0,1,0,0,0,1,0,1,1
17.604
0,0,0,0,0,0,0,0,1,0,0,0,1,1,0,0
24.01
0,0,0,0,0,0,0,0,1,0,0,0,1,1,0,1
33.639
0,0,0,0,0,0,0,0,1,0,0,0,1,1,1,0
24.002
0,0,0,0,0,0,0,0,1,0,0,0,1,1,1,1
33.369
0,0,0,0,0,0,0,0,1,0,0,1,0,0,0,0
5.424
0,0,0,0,0,0,0,0,1,0,0,1,0,0,0,1
18.998
0,0,0,0,0,0,0,0,1,0,0,1,0,0,1,0
5.422
0,0,0,0,0,0,0,0,1,0,0,1,0,0,1,1
18.85
0,0,0,0,0,0,0,0,1,0,0,1,0,1,0,0
24.36
0,0,0,0,0,0,0,0,1,0,0,1,0,1,1,0
24.25
0,0,0,0,0,0,0,0,1,0,0,1,0,1,1,1
34.352
0,0,0,0,0,0,0,0,1,0,0,1,1,0,0,0
5.415
0,0,0,0,0,0,0,0,1,0,0,1,1,0,0,1
18.548
0,0,0,0,0,0,0,0,1,0,0,1,1,0,1,0
5.418
0,0,0,0,0,0,0,0,1,0,0,1,1,0,1,1
18.428
0,0,0,0,0,0,0,0,1,0,0,1,1,1,0,0
24.443
0,0,0,0,0,0,0,0,1,0,0,1,1,1,0,1
33.926
0,0,0,0,0,0,0,0,1,0,0,1,1,1,1,0
24.397
0,0,0,0,0,0,0,0,1,0,0,1,1,1,1,1
33.89
0,0,0,0,0,0,0,0,1,0,1,0,0,0,0,0
4.62
0,0,0,0,0,0,0,0,1,0,1,0,0,0,0,1
18.235
0,0,0,0,0,0,0,0,1,0,1,0,0,0,1,0
4.677
0,0,0,0,0,0,0,0,1,0,1,0,0,0,1,1
18.057
0,0,0,0,0,0,0,0,1,0,1,0,0,1,0,0
23.96
0,0,0,0,0,0,0,0,1,0,1,0,0,1,0,1
36.295
0,0,0,0,0,0,0,0,1,0,1,0,0,1,1,0
23.994
0,0,0,0,0,0,0,0,1,0,1,0,0,1,1,1
34.005
0,0,0,0,0,0,0,0,1,0,1,0,1,0,0,0
4.657
0,0,0,0,0,0,0,0,1,0,1,0,1,0,0,1
17.789
0,0,0,0,0,0,0,0,1,0,1,0,1,0,1,0
4.662
0,0,0,0,0,0,0,0,1,0,1,0,1,0,1,1
17.629
0,0,0,0,0,0,0,0,1,0,1,0,1,1,0,0
23.991
0,0,0,0,0,0,0,0,1,0,1,0,1,1,0,1
33.537
0,0,0,0,0,0,0,0,1,0,1,0,1,1,1,0
23.989
0,0,0,0,0,0,0,0,1,0,1,0,1,1,1,1
33.503
0,0,0,0,0,0,0,0,1,0,1,1,0,0,0,0
5.424
0,0,0,0,0,0,0,0,1,0,1,1,0,0,0,1
18.96
0,0,0,0,0,0,0,0,1,0,1,1,0,0,1,0
5.494
0,0,0,0,0,0,0,0,1,0,1,1,0,0,1,1
19.105
0,0,0,0,0,0,0,0,1,0,1,1,0,1,0,0
24.658
0,0,0,0,0,0,0,0,1,0,1,1,0,1,0,1
34.497
0,0,0,0,0,0,0,0,1,0,1,1,0,1,1,0
24.272
0,0,0,0,0,0,0,0,1,0,1,1,0,1,1,1
34.352
0,0,0,0,0,0,0,0,1,0,1,1,1,0,0,0
5.385
0,0,0,0,0,0,0,0,1,0,1,1,1,0,0,1
18.603
0,0,0,0,0,0,0,0,1,0,1,1,1,0,1,0
5.472
0,0,0,0,0,0,0,0,1,0,1,1,1,0,1,1
20.482
0,0,0,0,0,0,0,0,1,0,1,1,1,1,0,0
24.476
0,0,0,0,0,0,0,0,1,0,1,1,1,1,0,1
33.654
0,0,0,0,0,0,0,0,1,0,1,1,1,1,1,0
24.278
0,0,0,0,0,0,0,0,1,0,1,1,1,1,1,1
33.923
0,0,0,0,0,0,0,0,1,1,0,0,0,0,0,1
22.233
0,0,0,0,0,0,0,0,1,1,0,0,0,0,1,0
32.057
0,0,0,0,0,0,0,0,1,1,0,0,0,0,1,1
22.109
0,0,0,0,0,0,0,0,1,1,0,0,0,1,0,0
24.836
0,0,0,0,0,0,0,0,1,1,0,0,0,1,0,1
11.523
0,0,0,0,0,0,0,0,1,1,0,0,0,1,1,0
24.838
0,0,0,0,0,0,0,0,1,1,0,0,0,1,1,1
11.41
0,0,0,0,0,0,0,0,1,1,0,0,1,0,0,0
32.095
0,0,0,0,0,0,0,0,1,1,0,0,1,0,0,1
21.716
0,0,0,0,0,0,0,0,1,1,0,0,1,0,1,0
31.939
0,0,0,0,0,0,0,0,1,1,0,0,1,0,1,1
21.656
0,0,0,0,0,0,0,0,1,1,0,0,1,1,0,0
24.883
0,0,0,0,0,0,0,0,1,1,0,0,1,1,0,1
10.991
0,0,0,0,0,0,0,0,1,1,0,0,1,1,1,0
24.856
0,0,0,0,0,0,0,0,1,1,0,0,1,1,1,1
10.94
0,0,0,0,0,0,0,0,1,1,0,1,0,0,0,0
31.743
0,0,0,0,0,0,0,0,1,1,0,1,0,0,0,1
21.944
0,0,0,0,0,0,0,0,1,1,0,1,0,0,1,0
31.829
0,0,0,0,0,0,0,0,1,1,0,1,0,0,1,1
22.023
0,0,0,0,0,0,0,0,1,1,0,1,0,1,0,0
24.263
0,0,0,0,0,0,0,0,1,1,0,1,0,1,0,1
10.907
0,0,0,0,0,0,0,0,1,1,0,1,0,1,1,0
24.25
0,0,0,0,0,0,0,0,1,1,0,1,0,1,1,1
10.85
0,0,0,0,0,0,0,0,1,1,0,1,1,0,0,0
31.839
0,0,0,0,0,0,0,0,1,1,0,1,1,0,0,1
21.525
0,0,0,0,0,0,0,0,1,1,0,1,1,0,1,0
31.878
0,0,0,0,0,0,0,0,1,1,0,1,1,0,1,1
21.649
0,0,0,0,0,0,0,0,1,1,0,1,1,1,0,0
24.289
0,0,0,0,0,0,0,0,1,1,0,1,1,1,0,1
10.422
0,0,0,0,0,0,0,0,1,1,0,1,1,1,1,0
24.238
0,0,0,0,0,0,0,0,1,1,0,1,1,1,1,1
10.401
0,0,0,0,0,0,0,0,1,1,1,0,0,0,0,0
31.977
0,0,0,0,0,0,0,0,1,1,1,0,0,0,0,1
22.079
0,0,0,0,0,0,0,0,1,1,1,0,0,0,1,0
31.871
0,0,0,0,0,0,0,0,1,1,1,0,0,0,1,1
22.173
0,0,0,0,0,0,0,0,1,1,1,0,0,1,0,0
24.847
0,0,0,0,0,0,0,0,1,1,1,0,0,1,0,1
11.434
0,0,0,0,0,0,0,0,1,1,1,0,0,1,1,0
24.78
0,0,0,0,0,0,0,0,1,1,1,0,0,1,1,1
11.421
0,0,0,0,0,0,0,0,1,1,1,0,1,0,0,0
32.425
0,0,0,0,0,0,0,0,1,1,1,0,1,0,0,1
21.658
0,0,0,0,0,0,0,0,1,1,1,0,1,0,1,0
31.954
0,0,0,0,0,0,0,0,1,1,1,0,1,1,0,0
24.828
0,0,0,0,0,0,0,0,1,1,1,0,1,1,0,1
10.984
0,0,0,0,0,0,0,0,1,1,1,0,1,1,1,0
24.859
0,0,0,0,0,0,0,0,1,1,1,0,1,1,1,1
11.055
0,0,0,0,0,0,0,0,1,1,1,1,0,0,0,0
31.864
0,0,0,0,0,0,0,0,1,1,1,1,0,0,0,1
21.942
0,0,0,0,0,0,0,0,1,1,1,1,0,0,1,0
31.764
0,0,0,0,0,0,0,0,1,1,1,1,0,0,1,1
21.976
0,0,0,0,0,0,0,0,1,1,1,1,0,1,0,0
24.234
0,0,0,0,0,0,0,0,1,1,1,1,0,1,0,1
10.918
0,0,0,0,0,0,0,0,1,1,1,1,0,1,1,0
24.351
0,0,0,0,0,0,0,0,1,1,1,1,0,1,1,1
10.865
0,0,0,0,0,0,0,0,1,1,1,1,1,0,0,0
31.8
0,0,0,0,0,0,0,0,1,1,1,1,1,0,0,1
21.576
0,0,0,0,0,0,0,0,1,1,1,1,1,0,1,0
31.885
0,0,0,0,0,0,0,0,1,1,1,1,1,0,1,1
21.535
0,0,0,0,0,0,0,0,1,1,1,1,1,1,0,0
24.301
0,0,0,0,0,0,0,0,1,1,1,1,1,1,0,1
10.435
0,0,0,0,0,0,0,0,1,1,1,1,1,1,1,0
24.288
0,0,0,0,0,0,0,0,1,1,1,1,1,1,1,1
10.418
0,0,0,0,0,0,0,1,0,0,0,0,0,0,0,0
0.677
0,0,0,0,0,0,0,1,0,0,0,0,0,0,0,1
16.509
0,0,0,0,0,0,0,1,0,0,0,0,0,0,1,0
0.712
0,0,0,0,0,0,0,1,0,0,0,0,0,0,1,1
16.169
0,0,0,0,0,0,0,1,0,0,0,0,0,1,0,0
24.007
0,0,0,0,0,0,0,1,0,0,0,0,0,1,0,1
36.017
0,0,0,0,0,0,0,1,0,0,0,0,0,1,1,0
24.018
0,0,0,0,0,0,0,1,0,0,0,0,0,1,1,1
35.872
0,0,0,0,0,0,0,1,0,0,0,0,1,0,0,0
0.672
0,0,0,0,0,0,0,1,0,0,0,0,1,0,0,1
15.839
0,0,0,0,0,0,0,1,0,0,0,0,1,0,1,0
0.718
0,0,0,0,0,0,0,1,0,0,0,0,1,0,1,1
15.647
0,0,0,0,0,0,0,1,0,0,0,0,1,1,0,0
24.013
0,0,0,0,0,0,0,1,0,0,0,0,1,1,0,1
35.508
0,0,0,0,0,0,0,1,0,0,0,0,1,1,1,0
24.111
0,0,0,0,0,0,0,1,0,0,0,0,1,1,1,1
35.487
0,0,0,0,0,0,0,1,0,0,0,1,0,0,0,0
1.475
0,0,0,0,0,0,0,1,0,0,0,1,0,0,0,1
17.108
0,0,0,0,0,0,0,1,0,0,0,1,0,0,1,0
1.498
0,0,0,0,0,0,0,1,0,0,0,1,0,0,1,1
16.983
0,0,0,0,0,0,0,1,0,0,0,1,0,1,0,0
24.357
0,0,0,0,0,0,0,1,0,0,0,1,0,1,0,1
36.294
0,0,0,0,0,0,0,1,0,0,0,1,0,1,1,0
24.391
0,0,0,0,0,0,0,1,0,0,0,1,0,1,1,1
36.259
0,0,0,0,0,0,0,1,0,0,0,1,1,0,0,0
1.485
0,0,0,0,0,0,0,1,0,0,0,1,1,0,0,1
16.702
0,0,0,0,0,0,0,1,0,0,0,1,1,0,1,0
1.463
0,0,0,0,0,0,0,1,0,0,0,1,1,0,1,1
16.892
0,0,0,0,0,0,0,1,0,0,0,1,1,1,0,0
24.411
0,0,0,0,0,0,0,1,0,0,0,1,1,1,0,1
35.83
0,0,0,0,0,0,0,1,0,0,0,1,1,1,1,0
24.35
0,0,0,0,0,0,0,1,0,0,0,1,1,1,1,1
35.805
0,0,0,0,0,0,0,1,0,0,1,0,0,0,0,0
0.675
0,0,0,0,0,0,0,1,0,0,1,0,0,0,0,1
16.348
0,0,0,0,0,0,0,1,0,0,1,0,0,0,1,0
0.682
0,0,0,0,0,0,0,1,0,0,1,0,0,0,1,1
16.339
0,0,0,0,0,0,0,1,0,0,1,0,0,1,0,0
24.059
0,0,0,0,0,0,0,1,0,0,1,0,0,1,0,1
36.114
0,0,0,0,0,0,0,1,0,0,1,0,0,1,1,0
23.954
0,0,0,0,0,0,0,1,0,0,1,0,0,1,1,1
35.812
0,0,0,0,0,0,0,1,0,0,1,0,1,0,0,0
0.696
0,0,0,0,0,0,0,1,0,0,1,0,1,0,0,1
15.891
0,0,0,0,0,0,0,1,0,0,1,0,1,0,1,0
0.73
0,0,0,0,0,0,0,1,0,0,1,0,1,1,0,0
23.986
0,0,0,0,0,0,0,1,0,0,1,0,1,1,0,1
35.479
0,0,0,0,0,0,0,1,0,0,1,0,1,1,1,0
23.995
0,0,0,0,0,0,0,1,0,0,1,0,1,1,1,1
35.292
0,0,0,0,0,0,0,1,0,0,1,1,0,0,0,0
1.47
0,0,0,0,0,0,0,1,0,0,1,1,0,0,0,1
17.048
0,0,0,0,0,0,0,1,0,0,1,1,0,0,1,0
1.49
0,0,0,0,0,0,0,1,0,0,1,1,0,0,1,1
16.946
0,0,0,0,0,0,0,1,0,0,1,1,0,1,0,0
24.471
0,0,0,0,0,0,0,1,0,0,1,1,0,1,0,1
36.181
0,0,0,0,0,0,0,1,0,0,1,1,0,1,1,0
24.352
0,0,0,0,0,0,0,1,0,0,1,1,0,1,1,1
36.285
0,0,0,0,0,0,0,1,0,0,1,1,1,0,0,0
1.502
0,0,0,0,0,0,0,1,0,0,1,1,1,0,0,1
16.651
0,0,0,0,0,0,0,1,0,0,1,1,1,0,1,0
1.487
0,0,0,0,0,0,0,1,0,0,1,1,1,0,1,1
16.397
0,0,0,0,0,0,0,1,0,0,1,1,1,1,0,0
24.387
0,0,0,0,0,0,0,1,0,0,1,1,1,1,0,1
35.824
0,0,0,0,0,0,0,1,0,0,1,1,1,1,1,0
24.206
0,0,0,0,0,0,0,1,0,0,1,1,1,1,1,1
35.643
0,0,0,0,0,0,0,1,0,1,0,0,0,0,0,0
31.785
0,0,0,0,0,0,0,1,0,1,0,0,0,0,0,1
23.704
0,0,0,0,0,0,0,1,0,1,0,0,0,0,1,0
31.663
0,0,0,0,0,0,0,1,0,1,0,0,0,0,1,1
23.673
0,0,0,0,0,0,0,1,0,1,0,0,0,1,0,0
25.866
0,0,0,0,0,0,0,1,0,1,0,0,0,1,0,1
14.454
0,0,0,0,0,0,0,1,0,1,0,0,0,1,1,0
25.821
0,0,0,0,0,0,0,1,0,1,0,0,0,1,1,1
14.423
0,0,0,0,0,0,0,1,0,1,0,0,1,0,0,0
31.646
0,0,0,0,0,0,0,1,0,1,0,0,1,0,0,1
23.232
0,0,0,0,0,0,0,1,0,1,0,0,1,0,1,0
31.735
0,0,0,0,0,0,0,1,0,1,0,0,1,0,1,1
23.189
0,0,0,0,0,0,0,1,0,1,0,0,1,1,0,0
25.868
0,0,0,0,0,0,0,1,0,1,0,0,1,1,0,1
14.287
0,0,0,0,0,0,0,1,0,1,0,0,1,1,1,0
25.902
0,0,0,0,0,0,0,1,0,1,0,0,1,1,1,1
13.957
0,0,0,0,0,0,0,1,0,1,0,1,0,0,0,0
31.442
0,0,0,0,0,0,0,1,0,1,0,1,0,0,0,1
23.563
0,0,0,0,0,0,0,1,0,1,0,1,0,0,1,0
31.482
0,0,0,0,0,0,0,1,0,1,0,1,0,0,1,1
23.665
0,0,0,0,0,0,0,1,0,1,0,1,0,1,0,0
25.275
0,0,0,0,0,0,0,1,0,1,0,1,0,1,0,1
13.905
0,0,0,0,0,0,0,1,0,1,0,1,0,1,1,1
13.926
0,0,0,0,0,0,0,1,0,1,0,1,1,0,0,0
31.617
0,0,0,0,0,0,0,1,0,1,0,1,1,0,0,1
23.074
0,0,0,0,0,0,0,1,0,1,0,1,1,0,1,0
31.506
0,0,0,0,0,0,0,1,0,1,0,1,1,0,1,1
23.136
0,0,0,0,0,0,0,1,0,1,0,1,1,1,0,0
25.397
0,0,0,0,0,0,0,1,0,1,0,1,1,1,0,1
13.46
0,0,0,0,0,0,0,1,0,1,0,1,1,1,1,0
25.338
0,0,0,0,0,0,0,1,0,1,0,1,1,1,1,1
13.462
0,0,0,0,0,0,0,1,0,1,1,0,0,0,0,0
31.587
0,0,0,0,0,0,0,1,0,1,1,0,0,0,0,1
23.705
0,0,0,0,0,0,0,1,0,1,1,0,0,0,1,0
31.652
0,0,0,0,0,0,0,1,0,1,1,0,0,0,1,1
23.751
0,0,0,0,0,0,0,1,0,1,1,0,0,1,0,0
25.981
0,0,0,0,0,0,0,1,0,1,1,0,0,1,0,1
14.515
0,0,0,0,0,0,0,1,0,1,1,0,0,1,1,0
25.972
0,0,0,0,0,0,0,1,0,1,1,0,0,1,1,1
14.454
0,0,0,0,0,0,0,1,0,1,1,0,1,0,0,0
31.647
0,0,0,0,0,0,0,1,0,1,1,0,1,0,0,1
23.22
0,0,0,0,0,0,0,1,0,1,1,0,1,0,1,0
31.704
0,0,0,0,0,0,0,1,0,1,1,0,1,0,1,1
23.318
0,0,0,0,0,0,0,1,0,1,1,0,1,1,0,0
25.959
0,0,0,0,0,0,0,1,0,1,1,0,1,1,0,1
13.992
0,0,0,0,0,0,0,1,0,1,1,0,1,1,1,0
25.872
0,0,0,0,0,0,0,1,0,1,1,0,1,1,1,1
13.977
0,0,0,0,0,0,0,1,0,1,1,1,0,0,0,0
31.569
0,0,0,0,0,0,0,1,0,1,1,1,0,0,0,1
23.593
0,0,0,0,0,0,0,1,0,1,1,1,0,0,1,0
31.536
0,0,0,0,0,0,0,1,0,1,1,1,0,0,1,1
23.608
0,0,0,0,0,0,0,1,0,1,1,1,0,1,0,0
25.306
0,0,0,0,0,0,0,1,0,1,1,1,0,1,0,1
13.916
0,0,0,0,0,0,0,1,0,1,1,1,0,1,1,0
25.336
0,0,0,0,0,0,0,1,0,1,1,1,0,1,1,1
13.888
0,0,0,0,0,0,0,1,0,1,1,1,1,0,0,0
31.485
0,0,0,0,0,0,0,1,0,1,1,1,1,0,0,1
23.131
0,0,0,0,0,0,0,1,0,1,1,1,1,0,1,0
31.534
0,0,0,0,0,0,0,1,0,1,1,1,1,0,1,1
23.116
0,0,0,0,0,0,0,1,0,1,1,1,1,1,0,0
25.358
0,0,0,0,0,0,0,1,0,1,1,1,1,1,0,1
13.441
0,0,0,0,0,0,0,1,0,1,1,1,1,1,1,0
25.396
0,0,0,0,0,0,0,1,0,1,1,1,1,1,1,1
13.685
0,0,0,0,0,0,0,1,1,0,0,0,0,0,0,0
4.654
0,0,0,0,0,0,0,1,1,0,0,0,0,0,0,1
18.173
0,0,0,0,0,0,0,1,1,0,0,0,0,0,1,0
4.657
0,0,0,0,0,0,0,1,1,0,0,0,0,0,1,1
18.182
0,0,0,0,0,0,0,1,1,0,0,0,0,1,0,0
24.003
0,0,0,0,0,0,0,1,1,0,0,0,0,1,0,1
33.972
0,0,0,0,0,0,0,1,1,0,0,0,0,1,1,0
23.998
0,0,0,0,0,0,0,1,1,0,0,0,0,1,1,1
33.853
0,0,0,0,0,0,0,1,1,0,0,0,1,0,0,0
4.645
0,0,0,0,0,0,0,1,1,0,0,0,1,0,0,1
17.723
0,0,0,0,0,0,0,1,1,0,0,0,1,0,1,0
4.696
0,0,0,0,0,0,0,1,1,0,0,0,1,0,1,1
17.565
0,0,0,0,0,0,0,1,1,0,0,0,1,1,0,0
24.031
0,0,0,0,0,0,0,1,1,0,0,0,1,1,0,1
33.572
0,0,0,0,0,0,0,1,1,0,0,0,1,1,1,0
24.201
0,0,0,0,0,0,0,1,1,0,0,0,1,1,1,1
33.443
0,0,0,0,0,0,0,1,1,0,0,1,0,0,0,0
5.408
0,0,0,0,0,0,0,1,1,0,0,1,0,0,0,1
18.83
0,0,0,0,0,0,0,1,1,0,0,1,0,0,1,0
5.398
0,0,0,0,0,0,0,1,1,0,0,1,0,0,1,1
18.789
0,0,0,0,0,0,0,1,1,0,0,1,0,1,0,0
24.387
0,0,0,0,0,0,0,1,1,0,0,1,0,1,0,1
34.225
0,0,0,0,0,0,0,1,1,0,0,1,0,1,1,1
34.408
0,0,0,0,0,0,0,1,1,0,0,1,1,0,0,0
5.457
0,0,0,0,0,0,0,1,1,0,0,1,1,0,0,1
18.523
0,0,0,0,0,0,0,1,1,0,0,1,1,0,1,0
5.436
0,0,0,0,0,0,0,1,1,0,0,1,1,0,1,1
18.329
0,0,0,0,0,0,0,1,1,0,0,1,1,1,0,0
24.386
0,0,0,0,0,0,0,1,1,0,0,1,1,1,0,1
33.729
0,0,0,0,0,0,0,1,1,0,0,1,1,1,1,0
24.207
0,0,0,0,0,0,0,1,1,0,0,1,1,1,1,1
33.767
0,0,0,0,0,0,0,1,1,0,1,0,0,0,0,0
4.642
0,0,0,0,0,0,0,1,1,0,1,0,0,0,0,1
18.159
0,0,0,0,0,0,0,1,1,0,1,0,0,0,1,0
4.681
0,0,0,0,0,0,0,1,1,0,1,0,0,0,1,1
18.037
0,0,0,0,0,0,0,1,1,0,1,0,0,1,0,0
24.032
0,0,0,0,0,0,0,1,1,0,1,0,0,1,0,1
34.126
0,0,0,0,0,0,0,1,1,0,1,0,0,1,1,0
24.013
0,0,0,0,0,0,0,1,1,0,1,0,0,1,1,1
33.947
0,0,0,0,0,0,0,1,1,0,1,0,1,0,0,0
4.672
0,0,0,0,0,0,0,1,1,0,1,0,1,0,0,1
17.732
0,0,0,0,0,0,0,1,1,0,1,0,1,0,1,0
4.683
0,0,0,0,0,0,0,1,1,0,1,0,1,0,1,1
17.564
0,0,0,0,0,0,0,1,1,0,1,0,1,1,0,0
23.968
0,0,0,0,0,0,0,1,1,0,1,0,1,1,0,1
33.677
0,0,0,0,0,0,0,1,1,0,1,0,1,1,1,0
24.021
0,0,0,0,0,0,0,1,1,0,1,0,1,1,1,1
33.38
0,0,0,0,0,0,0,1,1,0,1,1,0,0,0,0
5.41
0,0,0,0,0,0,0,1,1,0,1,1,0,0,0,1
18.995
0,0,0,0,0,0,0,1,1,0,1,1,0,0,1,0
5.431
0,0,0,0,0,0,0,1,1,0,1,1,0,0,1,1
18.801
0,0,0,0,0,0,0,1,1,0,1,1,0,1,0,0
24.371
0,0,0,0,0,0,0,1,1,0,1,1,0,1,0,1
34.358
0,0,0,0,0,0,0,1,1,0,1,1,0,1,1,0
24.23
0,0,0,0,0,0,0,1,1,0,1,1,0,1,1,1
34.27
0,0,0,0,0,0,0,1,1,0,1,1,1,0,0,0
5.379
0,0,0,0,0,0,0,1,1,0,1,1,1,0,0,1
18.43
0,0,0,0,0,0,0,1,1,0,1,1,1,0,1,0
5.419
0,0,0,0,0,0,0,1,1,0,1,1,1,0,1,1
18.362
0,0,0,0,0,0,0,1,1,0,1,1,1,1,0,0
24.396
0,0,0,0,0,0,0,1,1,0,1,1,1,1,0,1
33.894
0,0,0,0,0,0,0,1,1,0,1,1,1,1,1,0
24.306
0,0,0,0,0,0,0,1,1,0,1,1,1,1,1,1
33.766
0,0,0,0,0,0,0,1,1,1,0,0,0,0,0,0
32.038
0,0,0,0,0,0,0,1,1,1,0,0,0,0,1,0
32.06
0,0,0,0,0,0,0,1,1,1,0,0,0,0,1,1
22.087
0,0,0,0,0,0,0,1,1,1,0,0,0,1,0,0
24.733
0,0,0,0,0,0,0,1,1,1,0,0,0,1,0,1
11.431
0,0,0,0,0,0,0,1,1,1,0,0,0,1,1,0
24.847
0,0,0,0,0,0,0,1,1,1,0,0,0,1,1,1
11.373
0,0,0,0,0,0,0,1,1,1,0,0,1,0,0,0
32.044
0,0,0,0,0,0,0,1,1,1,0,0,1,0,0,1
21.659
0,0,0,0,0,0,0,1,1,1,0,0,1,0,1,0
32.036
0,0,0,0,0,0,0,1,1,1,0,0,1,0,1,1
21.604
0,0,0,0,0,0,0,1,1,1,0,0,1,1,0,0
24.794
0,0,0,0,0,0,0,1,1,1,0,0,1,1,0,1
10.925
0,0,0,0,0,0,0,1,1,1,0,0,1,1,1,0
24.922
0,0,0,0,0,0,0,1,1,1,0,0,1,1,1,1
10.974
0,0,0,0,0,0,0,1,1,1,0,1,0,0,0,0
31.788
0,0,0,0,0,0,0,1,1,1,0,1,0,0,0,1
21.885
0,0,0,0,0,0,0,1,1,1,0,1,0,0,1,0
31.871
0,0,0,0,0,0,0,1,1,1,0,1,0,0,1,1
21.962
0,0,0,0,0,0,0,1,1,1,0,1,0,1,0,0
24.279
0,0,0,0,0,0,0,1,1,1,0,1,0,1,0,1
39.529
0,0,0,0,0,0,0,1,1,1,0,1,0,1,1,0
95.569
0,0,0,0,0,0,0,1,1,1,0,1,0,1,1,1
40.257
0,0,0,0,0,0,0,1,1,1,0,1,1,0,0,0
98.047
0,0,0,0,0,0,0,1,1,1,0,1,1,0,0,1
65.812
0,0,0,0,0,0,0,1,1,1,0,1,1,0,1,0
125.965
0,0,0,0,0,0,0,1,1,1,0,1,1,0,1,1
80.598
0,0,0,0,0,0,0,1,1,1,0,1,1,1,0,0
93.567
0,0,0,0,0,0,0,1,1,1,0,1,1,1,0,1
38.957
0,0,0,0,0,0,0,1,1,1,0,1,1,1,1,0
93.902
0,0,0,0,0,0,0,1,1,1,0,1,1,1,1,1
39.519
0,0,0,0,0,0,0,1,1,1,1,0,0,0,0,0
99.704
0,0,0,0,0,0,0,1,1,1,1,0,0,0,0,1
67.24
0,0,0,0,0,0,0,1,1,1,1,0,0,0,1,0
98.26
0,0,0,0,0,0,0,1,1,1,1,0,0,0,1,1
68.146
0,0,0,0,0,0,0,1,1,1,1,0,0,1,0,0
94.119
0,0,0,0,0,0,0,1,1,1,1,0,0,1,0,1
43.012
0,0,0,0,0,0,0,1,1,1,1,0,0,1,1,0
96.081
0,0,0,0,0,0,0,1,1,1,1,0,0,1,1,1
43.339
0,0,0,0,0,0,0,1,1,1,1,0,1,0,0,0
124.489
0,0,0,0,0,0,0,1,1,1,1,0,1,0,0,1
66.995
0,0,0,0,0,0,0,1,1,1,1,0,1,0,1,0
100.737
0,0,0,0,0,0,0,1,1,1,1,0,1,0,1,1
82.659
0,0,0,0,0,0,0,1,1,1,1,0,1,1,0,0
96.194
0,0,0,0,0,0,0,1,1,1,1,0,1,1,0,1
40.94
0,0,0,0,0,0,0,1,1,1,1,0,1,1,1,0
92.984
0,0,0,0,0,0,0,1,1,1,1,0,1,1,1,1
41.114
0,0,0,0,0,0,0,1,1,1,1,1,0,0,0,0
121.047
0,0,0,0,0,0,0,1,1,1,1,1,0,0,0,1
68.766
0,0,0,0,0,0,0,1,1,1,1,1,0,0,1,0
85297.18
0,0,0,0,0,0,0,1,1,1,1,1,0,0,1,1
22.291
0,0,0,0,0,0,0,1,1,1,1,1,0,1,0,0
24.8
0,0,0,0,0,0,0,1,1,1,1,1,0,1,0,1
11.093
0,0,0,0,0,0,0,1,1,1,1,1,0,1,1,0
24.512
0,0,0,0,0,0,0,1,1,1,1,1,0,1,1,1
10.938
0,0,0,0,0,0,0,1,1,1,1,1,1,0,0,0
32.314
0,0,0,0,0,0,0,1,1,1,1,1,1,0,0,1
21.826
0,0,0,0,0,0,0,1,1,1,1,1,1,0,1,0
32.599
0,0,0,0,0,0,0,1,1,1,1,1,1,0,1,1
21.58
0,0,0,0,0,0,0,1,1,1,1,1,1,1,0,0
24.309
0,0,0,0,0,0,0,1,1,1,1,1,1,1,0,1
10.539
0,0,0,0,0,0,0,1,1,1,1,1,1,1,1,0
24.369
0,0,0,0,0,0,0,1,1,1,1,1,1,1,1,1
10.441
0,0,0,0,0,0,1,0,0,0,0,0,0,0,0,0
1.382
0,0,0,0,0,0,1,0,0,0,0,0,0,0,1,0
0.679
0,0,0,0,0,0,1,0,0,0,0,0,0,0,1,1
16.335
0,0,0,0,0,0,1,0,0,0,0,0,0,1,0,0
24.204
0,0,0,0,0,0,1,0,0,0,0,0,0,1,0,1
36.085
0,0,0,0,0,0,1,0,0,0,0,0,0,1,1,0
24.14
0,0,0,0,0,0,1,0,0,0,0,0,0,1,1,1
36.173
0,0,0,0,0,0,1,0,0,0,0,0,1,0,0,0
0.814
0,0,0,0,0,0,1,0,0,0,0,0,1,0,0,1
16.015
0,0,0,0,0,0,1,0,0,0,0,0,1,0,1,0
0.702
0,0,0,0,0,0,1,0,0,0,0,0,1,0,1,1
15.753
0,0,0,0,0,0,1,0,0,0,0,0,1,1,0,0
24.172
0,0,0,0,0,0,1,0,0,0,0,0,1,1,0,1
36.8
0,0,0,0,0,0,1,0,0,0,0,0,1,1,1,0
24.165
0,0,0,0,0,0,1,0,0,0,0,0,1,1,1,1
35.516
0,0,0,0,0,0,1,0,0,0,0,1,0,0,0,0
1.458
0,0,0,0,0,0,1,0,0,0,0,1,0,0,0,1
17.161
0,0,0,0,0,0,1,0,0,0,0,1,0,0,1,0
1.465
0,0,0,0,0,0,1,0,0,0,0,1,0,0,1,1
16.931
0,0,0,0,0,0,1,0,0,0,0,1,0,1,0,0
24.399
0,0,0,0,0,0,1,0,0,0,0,1,0,1,0,1
36.403
0,0,0,0,0,0,1,0,0,0,0,1,0,1,1,0
24.249
0,0,0,0,0,0,1,0,0,0,0,1,0,1,1,1
36.271
0,0,0,0,0,0,1,0,0,0,0,1,1,0,0,0
1.438
0,0,0,0,0,0,1,0,0,0,0,1,1,0,0,1
16.736
0,0,0,0,0,0,1,0,0,0,0,1,1,0,1,0
1.451
0,0,0,0,0,0,1,0,0,0,0,1,1,0,1,1
16.59
0,0,0,0,0,0,1,0,0,0,0,1,1,1,0,0
24.416
0,0,0,0,0,0,1,0,0,0,0,1,1,1,0,1
36.11
0,0,0,0,0,0,1,0,0,0,0,1,1,1,1,0
24.525
0,0,0,0,0,0,1,0,0,0,0,1,1,1,1,1
36.032
0,0,0,0,0,0,1,0,0,0,1,0,0,0,0,0
0.719
0,0,0,0,0,0,1,0,0,0,1,0,0,0,0,1
16.368
0,0,0,0,0,0,1,0,0,0,1,0,0,0,1,0
0.697
0,0,0,0,0,0,1,0,0,0,1,0,0,0,1,1
16.213
0,0,0,0,0,0,1,0,0,0,1,0,0,1,0,0
24.051
0,0,0,0,0,0,1,0,0,0,1,0,0,1,0,1
36.118
0,0,0,0,0,0,1,0,0,0,1,0,0,1,1,0
23.945
0,0,0,0,0,0,1,0,0,0,1,0,0,1,1,1
36.097
0,0,0,0,0,0,1,0,0,0,1,0,1,0,0,0
0.695
0,0,0,0,0,0,1,0,0,0,1,0,1,0,0,1
15.867
0,0,0,0,0,0,1,0,0,0,1,0,1,0,1,0
1.13
0,0,0,0,0,0,1,0,0,0,1,0,1,0,1,1
15.739
0,0,0,0,0,0,1,0,0,0,1,0,1,1,0,1
35.626
0,0,0,0,0,0,1,0,0,0,1,0,1,1,1,0
23.983
0,0,0,0,0,0,1,0,0,0,1,0,1,1,1,1
35.425
0,0,0,0,0,0,1,0,0,0,1,1,0,0,0,0
1.477
0,0,0,0,0,0,1,0,0,0,1,1,0,0,0,1
17.156
0,0,0,0,0,0,1,0,0,0,1,1,0,0,1,0
1.464
0,0,0,0,0,0,1,0,0,0,1,1,0,0,1,1
16.994
0,0,0,0,0,0,1,0,0,0,1,1,0,1,0,0
24.306
0,0,0,0,0,0,1,0,0,0,1,1,0,1,0,1
36.467
0,0,0,0,0,0,1,0,0,0,1,1,0,1,1,0
24.316
0,0,0,0,0,0,1,0,0,0,1,1,0,1,1,1
36.409
0,0,0,0,0,0,1,0,0,0,1,1,1,0,0,0
1.468
0,0,0,0,0,0,1,0,0,0,1,1,1,0,0,1
16.736
0,0,0,0,0,0,1,0,0,0,1,1,1,0,1,0
1.47
0,0,0,0,0,0,1,0,0,0,1,1,1,0,1,1
16.636
0,0,0,0,0,0,1,0,0,0,1,1,1,1,0,0
24.381
0,0,0,0,0,0,1,0,0,0,1,1,1,1,0,1
35.984
0,0,0,0,0,0,1,0,0,0,1,1,1,1,1,0
24.359
0,0,0,0,0,0,1,0,0,0,1,1,1,1,1,1
35.859
0,0,0,0,0,0,1,0,0,1,0,0,0,0,0,0
31.612
0,0,0,0,0,0,1,0,0,1,0,0,0,0,0,1
23.788
0,0,0,0,0,0,1,0,0,1,0,0,0,0,1,0
31.672
0,0,0,0,0,0,1,0,0,1,0,0,0,0,1,1
23.815
0,0,0,0,0,0,1,0,0,1,0,0,0,1,0,0
25.907
0,0,0,0,0,0,1,0,0,1,0,0,0,1,0,1
14.499
0,0,0,0,0,0,1,0,0,1,0,0,0,1,1,0
25.952
0,0,0,0,0,0,1,0,0,1,0,0,0,1,1,1
14.49
0,0,0,0,0,0,1,0,0,1,0,0,1,0,0,0
31.639
0,0,0,0,0,0,1,0,0,1,0,0,1,0,0,1
23.287
0,0,0,0,0,0,1,0,0,1,0,0,1,0,1,0
31.595
0,0,0,0,0,0,1,0,0,1,0,0,1,0,1,1
23.301
0,0,0,0,0,0,1,0,0,1,0,0,1,1,0,0
25.878
0,0,0,0,0,0,1,0,0,1,0,0,1,1,0,1
14.062
0,0,0,0,0,0,1,0,0,1,0,0,1,1,1,0
25.899
0,0,0,0,0,0,1,0,0,1,0,0,1,1,1,1
14.155
0,0,0,0,0,0,1,0,0,1,0,1,0,0,0,0
31.533
0,0,0,0,0,0,1,0,0,1,0,1,0,0,0,1
23.658
0,0,0,0,0,0,1,0,0,1,0,1,0,0,1,0
31.856
0,0,0,0,0,0,1,0,0,1,0,1,0,0,1,1
23.902
0,0,0,0,0,0,1,0,0,1,0,1,0,1,0,0
25.311
0,0,0,0,0,0,1,0,0,1,0,1,0,1,0,1
14.005
0,0,0,0,0,0,1,0,0,1,0,1,0,1,1,0
25.339
0,0,0,0,0,0,1,0,0,1,0,1,1,0,0,0
31.521
0,0,0,0,0,0,1,0,0,1,0,1,1,0,0,1
23.126
0,0,0,0,0,0,1,0,0,1,0,1,1,0,1,0
31.531
0,0,0,0,0,0,1,0,0,1,0,1,1,0,1,1
23.209
0,0,0,0,0,0,1,0,0,1,0,1,1,1,0,0
25.298
0,0,0,0,0,0,1,0,0,1,0,1,1,1,0,1
13.584
0,0,0,0,0,0,1,0,0,1,0,1,1,1,1,0
25.261
0,0,0,0,0,0,1,0,0,1,0,1,1,1,1,1
13.507
0,0,0,0,0,0,1,0,0,1,1,0,0,0,0,0
31.593
0,0,0,0,0,0,1,0,0,1,1,0,0,0,0,1
23.8
0,0,0,0,0,0,1,0,0,1,1,0,0,0,1,0
31.577
0,0,0,0,0,0,1,0,0,1,1,0,0,0,1,1
23.786
0,0,0,0,0,0,1,0,0,1,1,0,0,1,0,0
25.989
0,0,0,0,0,0,1,0,0,1,1,0,0,1,0,1
14.566
0,0,0,0,0,0,1,0,0,1,1,0,0,1,1,0
25.85
0,0,0,0,0,0,1,0,0,1,1,0,0,1,1,1
14.548
0,0,0,0,0,0,1,0,0,1,1,0,1,0,0,0
31.619
0,0,0,0,0,0,1,0,0,1,1,0,1,0,0,1
23.293
0,0,0,0,0,0,1,0,0,1,1,0,1,0,1,0
31.616
0,0,0,0,0,0,1,0,0,1,1,0,1,0,1,1
23.322
0,0,0,0,0,0,1,0,0,1,1,0,1,1,0,0
25.915
0,0,0,0,0,0,1,0,0,1,1,0,1,1,0,1
14.079
0,0,0,0,0,0,1,0,0,1,1,0,1,1,1,0
25.839
0,0,0,0,0,0,1,0,0,1,1,0,1,1,1,1
14.062
0,0,0,0,0,0,1,0,0,1,1,1,0,0,0,0
31.464
0,0,0,0,0,0,1,0,0,1,1,1,0,0,0,1
23.666
0,0,0,0,0,0,1,0,0,1,1,1,0,0,1,0
51.908
0,0,0,0,0,0,1,0,0,1,1,1,0,0,1,1
23.667
0,0,0,0,0,0,1,0,0,1,1,1,0,1,0,0
25.367
0,0,0,0,0,0,1,0,0,1,1,1,0,1,0,1
14.072
0,0,0,0,0,0,1,0,0,1,1,1,0,1,1,0
25.496
0,0,0,0,0,0,1,0,0,1,1,1,0,1,1,1
13.899
0,0,0,0,0,0,1,0,0,1,1,1,1,0,0,0
31.56
0,0,0,0,0,0,1,0,0,1,1,1,1,0,0,1
23.167
0,0,0,0,0,0,1,0,0,1,1,1,1,0,1,0
31.661
0,0,0,0,0,0,1,0,0,1,1,1,1,0,1,1
23.162
0,0,0,0,0,0,1,0,0,1,1,1,1,1,0,0
25.4
0,0,0,0,0,0,1,0,0,1,1,1,1,1,0,1
13.471
0,0,0,0,0,0,1,0,0,1,1,1,1,1,1,0
25.469
0,0,0,0,0,0,1,0,0,1,1,1,1,1,1,1
13.485
0,0,0,0,0,0,1,0,1,0,0,0,0,0,0,0
4.611
0,0,0,0,0,0,1,0,1,0,0,0,0,0,0,1
18.271
0,0,0,0,0,0,1,0,1,0,0,0,0,0,1,0
4.643
0,0,0,0,0,0,1,0,1,0,0,0,0,0,1,1
18.08
0,0,0,0,0,0,1,0,1,0,0,0,0,1,0,0
23.944
0,0,0,0,0,0,1,0,1,0,0,0,0,1,0,1
33.928
0,0,0,0,0,0,1,0,1,0,0,0,0,1,1,0
23.878
0,0,0,0,0,0,1,0,1,0,0,0,0,1,1,1
33.778
0,0,0,0,0,0,1,0,1,0,0,0,1,0,0,0
4.627
0,0,0,0,0,0,1,0,1,0,0,0,1,0,0,1
17.799
0,0,0,0,0,0,1,0,1,0,0,0,1,0,1,0
4.682
0,0,0,0,0,0,1,0,1,0,0,0,1,0,1,1
17.675
0,0,0,0,0,0,1,0,1,0,0,0,1,1,0,0
23.982
0,0,0,0,0,0,1,0,1,0,0,0,1,1,0,1
33.457
0,0,0,0,0,0,1,0,1,0,0,0,1,1,1,0
23.986
0,0,0,0,0,0,1,0,1,0,0,0,1,1,1,1
33.332
0,0,0,0,0,0,1,0,1,0,0,1,0,0,0,0
5.47
0,0,0,0,0,0,1,0,1,0,0,1,0,0,0,1
19.144
0,0,0,0,0,0,1,0,1,0,0,1,0,0,1,0
5.384
0,0,0,0,0,0,1,0,1,0,0,1,0,0,1,1
18.875
0,0,0,0,0,0,1,0,1,0,0,1,0,1,0,0
24.65
0,0,0,0,0,0,1,0,1,0,0,1,0,1,0,1
34.238
0,0,0,0,0,0,1,0,1,0,0,1,0,1,1,0
24.32
0,0,0,0,0,0,1,0,1,0,0,1,1,0,0,0
5.388
0,0,0,0,0,0,1,0,1,0,0,1,1,0,0,1
18.62
0,0,0,0,0,0,1,0,1,0,0,1,1,0,1,0
5.42
0,0,0,0,0,0,1,0,1,0,0,1,1,0,1,1
18.511
0,0,0,0,0,0,1,0,1,0,0,1,1,1,0,0
24.366
0,0,0,0,0,0,1,0,1,0,0,1,1,1,0,1
33.802
0,0,0,0,0,0,1,0,1,0,0,1,1,1,1,0
24.44
0,0,0,0,0,0,1,0,1,0,0,1,1,1,1,1
33.815
0,0,0,0,0,0,1,0,1,0,1,0,0,0,0,0
4.6
0,0,0,0,0,0,1,0,1,0,1,0,0,0,0,1
18.227
0,0,0,0,0,0,1,0,1,0,1,0,0,0,1,0
4.633
0,0,0,0,0,0,1,0,1,0,1,0,0,0,1,1
18.411
0,0,0,0,0,0,1,0,1,0,1,0,0,1,0,0
24.512
0,0,0,0,0,0,1,0,1,0,1,0,0,1,0,1
34.941
0,0,0,0,0,0,1,0,1,0,1,0,0,1,1,0
24.525
0,0,0,0,0,0,1,0,1,0,1,0,0,1,1,1
34.831
0,0,0,0,0,0,1,0,1,0,1,0,1,0,0,0
4.686
0,0,0,0,0,0,1,0,1,0,1,0,1,0,0,1
17.81
0,0,0,0,0,0,1,0,1,0,1,0,1,0,1,0
4.659
0,0,0,0,0,0,1,0,1,0,1,0,1,0,1,1
17.689
0,0,0,0,0,0,1,0,1,0,1,0,1,1,0,0
23.951
0,0,0,0,0,0,1,0,1,0,1,0,1,1,0,1
33.577
0,0,0,0,0,0,1,0,1,0,1,0,1,1,1,0
23.877
0,0,0,0,0,0,1,0,1,0,1,0,1,1,1,1
33.463
0,0,0,0,0,0,1,0,1,0,1,1,0,0,0,0
5.403
0,0,0,0,0,0,1,0,1,0,1,1,0,0,0,1
18.96
0,0,0,0,0,0,1,0,1,0,1,1,0,0,1,0
5.452
0,0,0,0,0,0,1,0,1,0,1,1,0,0,1,1
18.876
0,0,0,0,0,0,1,0,1,0,1,1,0,1,0,0
24.443
0,0,0,0,0,0,1,0,1,0,1,1,0,1,0,1
34.759
0,0,0,0,0,0,1,0,1,0,1,1,0,1,1,0
24.227
0,0,0,0,0,0,1,0,1,0,1,1,0,1,1,1
34.249
0,0,0,0,0,0,1,0,1,0,1,1,1,0,0,0
5.416
0,0,0,0,0,0,1,0,1,0,1,1,1,0,0,1
18.627
0,0,0,0,0,0,1,0,1,0,1,1,1,0,1,0
5.435
0,0,0,0,0,0,1,0,1,0,1,1,1,0,1,1
18.396
0,0,0,0,0,0,1,0,1,0,1,1,1,1,0,0
24.65
0,0,0,0,0,0,1,0,1,0,1,1,1,1,0,1
33.751
0,0,0,0,0,0,1,0,1,0,1,1,1,1,1,0
24.236
0,0,0,0,0,0,1,0,1,0,1,1,1,1,1,1
33.886
0,0,0,0,0,0,1,0,1,1,0,0,0,0,0,0
32.14
0,0,0,0,0,0,1,0,1,1,0,0,0,0,0,1
22.114
0,0,0,0,0,0,1,0,1,1,0,0,0,0,1,1
22.129
0,0,0,0,0,0,1,0,1,1,0,0,0,1,0,0
24.92
0,0,0,0,0,0,1,0,1,1,0,0,0,1,0,1
11.474
0,0,0,0,0,0,1,0,1,1,0,0,0,1,1,0
24.901
0,0,0,0,0,0,1,0,1,1,0,0,0,1,1,1
11.449
0,0,0,0,0,0,1,0,1,1,0,0,1,0,0,0
31.916
0,0,0,0,0,0,1,0,1,1,0,0,1,0,0,1
21.688
0,0,0,0,0,0,1,0,1,1,0,0,1,0,1,0
31.944
0,0,0,0,0,0,1,0,1,1,0,0,1,0,1,1
21.742
0,0,0,0,0,0,1,0,1,1,0,0,1,1,0,0
24.886
0,0,0,0,0,0,1,0,1,1,0,0,1,1,0,1
11.005
0,0,0,0,0,0,1,0,1,1,0,0,1,1,1,0
24.819
0,0,0,0,0,0,1,0,1,1,0,0,1,1,1,1
10.967
0,0,0,0,0,0,1,0,1,1,0,1,0,0,0,0
31.901
0,0,0,0,0,0,1,0,1,1,0,1,0,0,0,1
21.988
0,0,0,0,0,0,1,0,1,1,0,1,0,0,1,0
31.825
0,0,0,0,0,0,1,0,1,1,0,1,0,0,1,1
21.973
0,0,0,0,0,0,1,0,1,1,0,1,0,1,0,0
24.32
0,0,0,0,0,0,1,0,1,1,0,1,0,1,0,1
10.928
0,0,0,0,0,0,1,0,1,1,0,1,0,1,1,0
24.293
0,0,0,0,0,0,1,0,1,1,0,1,0,1,1,1
10.836
0,0,0,0,0,0,1,0,1,1,0,1,1,0,0,0
31.827
0,0,0,0,0,0,1,0,1,1,0,1,1,0,0,1
21.527
0,0,0,0,0,0,1,0,1,1,0,1,1,0,1,0
31.855
0,0,0,0,0,0,1,0,1,1,0,1,1,0,1,1
21.574
0,0,0,0,0,0,1,0,1,1,0,1,1,1,0,0
24.317
0,0,0,0,0,0,1,0,1,1,0,1,1,1,0,1
10.457
0,0,0,0,0,0,1,0,1,1,0,1,1,1,1,0
24.364
0,0,0,0,0,0,1,0,1,1,0,1,1,1,1,1
10.451
0,0,0,0,0,0,1,0,1,1,1,0,0,0,0,0
31.915
0,0,0,0,0,0,1,0,1,1,1,0,0,0,0,1
22.033
0,0,0,0,0,0,1,0,1,1,1,0,0,0,1,0
31.876
0,0,0,0,0,0,1,0,1,1,1,0,0,0,1,1
22.183
0,0,0,0,0,0,1,0,1,1,1,0,0,1,0,0
25.041
0,0,0,0,0,0,1,0,1,1,1,0,0,1,0,1
11.462
0,0,0,0,0,0,1,0,1,1,1,0,0,1,1,0
24.741
0,0,0,0,0,0,1,0,1,1,1,0,0,1,1,1
11.373
0,0,0,0,0,0,1,0,1,1,1,0,1,0,0,0
32.194
0,0,0,0,0,0,1,0,1,1,1,0,1,0,0,1
21.723
0,0,0,0,0,0,1,0,1,1,1,0,1,0,1,0
32.026
0,0,0,0,0,0,1,0,1,1,1,0,1,0,1,1
21.803
0,0,0,0,0,0,1,0,1,1,1,0,1,1,0,0
24.907
0,0,0,0,0,0,1,0,1,1,1,0,1,1,1,0
24.818
0,0,0,0,0,0,1,0,1,1,1,0,1,1,1,1
10.943
0,0,0,0,0,0,1,0,1,1,1,1,0,0,0,0
31.833
0,0,0,0,0,0,1,0,1,1,1,1,0,0,0,1
21.981
0,0,0,0,0,0,1,0,1,1,1,1,0,0,1,0
31.705
0,0,0,0,0,0,1,0,1,1,1,1,0,0,1,1
22.057
0,0,0,0,0,0,1,0,1,1,1,1,0,1,0,0
24.257
0,0,0,0,0,0,1,0,1,1,1,1,0,1,0,1
10.908
0,0,0,0,0,0,1,0,1,1,1,1,0,1,1,0
33495.342
0,0,0,0,0,0,1,0,1,1,1,1,0,1,1,1
16.929
0,0,0,0,0,0,1,0,1,1,1,1,1,0,0,0
44.692
0,0,0,0,0,0,1,0,1,1,1,1,1,0,0,1
30.526
0,0,0,0,0,0,1,0,1,1,1,1,1,0,1,0
44.712
0,0,0,0,0,0,1,0,1,1,1,1,1,0,1,1
31.114
0,0,0,0,0,0,1,0,1,1,1,1,1,1,0,0
34.005
0,0,0,0,0,0,1,0,1,1,1,1,1,1,0,1
14.685
0,0,0,0,0,0,1,0,1,1,1,1,1,1,1,0
24.925
0,0,0,0,0,0,1,0,1,1,1,1,1,1,1,1
10.577
0,0,0,0,0,0,1,1,0,0,0,0,0,0,0,0
0.688
0,0,0,0,0,0,1,1,0,0,0,0,0,0,0,1
18.406
0,0,0,0,0,0,1,1,0,0,0,0,0,0,1,0
0.758
0,0,0,0,0,0,1,1,0,0,0,0,0,0,1,1
17.099
0,0,0,0,0,0,1,1,0,0,0,0,0,1,0,0
25.049
0,0,0,0,0,0,1,1,0,0,0,0,0,1,0,1
37.807
0,0,0,0,0,0,1,1,0,0,0,0,0,1,1,0
25.087
0,0,0,0,0,0,1,1,0,0,0,0,0,1,1,1
37.082
0,0,0,0,0,0,1,1,0,0,0,0,1,0,0,0
0.726
0,0,0,0,0,0,1,1,0,0,0,0,1,0,0,1
16.764
0,0,0,0,0,0,1,1,0,0,0,0,1,0,1,0
0.757
0,0,0,0,0,0,1,1,0,0,0,0,1,0,1,1
16.277
0,0,0,0,0,0,1,1,0,0,0,0,1,1,0,0
25.201
0,0,0,0,0,0,1,1,0,0,0,0,1,1,0,1
37.265
0,0,0,0,0,0,1,1,0,0,0,0,1,1,1,0
25.417
0,0,0,0,0,0,1,1,0,0,0,0,1,1,1,1
37.729
0,0,0,0,0,0,1,1,0,0,0,1,0,0,0,0
1.574
0,0,0,0,0,0,1,1,0,0,0,1,0,0,0,1
17.257
0,0,0,0,0,0,1,1,0,0,0,1,0,0,1,0
1.505
0,0,0,0,0,0,1,1,0,0,0,1,0,0,1,1
17.053
0,0,0,0,0,0,1,1,0,0,0,1,0,1,0,0
24.565
0,0,0,0,0,0,1,1,0,0,0,1,0,1,0,1
36.757
0,0,0,0,0,0,1,1,0,0,0,1,0,1,1,0
24.496
0,0,0,0,0,0,1,1,0,0,0,1,0,1,1,1
36.627
0,0,0,0,0,0,1,1,0,0,0,1,1,0,0,0
1.537
0,0,0,0,0,0,1,1,0,0,0,1,1,0,0,1
17.054
0,0,0,0,0,0,1,1,0,0,0,1,1,0,1,0
1.509
0,0,0,0,0,0,1,1,0,0,0,1,1,0,1,1
17.197
0,0,0,0,0,0,1,1,0,0,0,1,1,1,0,0
25.384
0,0,0,0,0,0,1,1,0,0,0,1,1,1,0,1
36.331
0,0,0,0,0,0,1,1,0,0,0,1,1,1,1,0
24.501
0,0,0,0,0,0,1,1,0,0,0,1,1,1,1,1
37.221
0,0,0,0,0,0,1,1,0,0,1,0,0,0,0,0
0.721
0,0,0,0,0,0,1,1,0,0,1,0,0,0,0,1
16.664
0,0,0,0,0,0,1,1,0,0,1,0,0,0,1,0
0.797
0,0,0,0,0,0,1,1,0,0,1,0,0,0,1,1
17.227
0,0,0,0,0,0,1,1,0,0,1,0,0,1,0,0
25.94
0,0,0,0,0,0,1,1,0,0,1,0,0,1,0,1
38.602
0,0,0,0,0,0,1,1,0,0,1,0,0,1,1,0
25.752
0,0,0,0,0,0,1,1,0,0,1,0,0,1,1,1
38.774
0,0,0,0,0,0,1,1,0,0,1,0,1,0,0,0
0.748
0,0,0,0,0,0,1,1,0,0,1,0,1,0,0,1
17.138
0,0,0,0,0,0,1,1,0,0,1,0,1,0,1,0
0.793
0,0,0,0,0,0,1,1,0,0,1,0,1,0,1,1
17.024
0,0,0,0,0,0,1,1,0,0,1,0,1,1,0,0
25.75
0,0,0,0,0,0,1,1,0,0,1,0,1,1,1,0
25.89
0,0,0,0,0,0,1,1,0,0,1,0,1,1,1,1
38.309
0,0,0,0,0,0,1,1,0,0,1,1,0,0,0,0
1.562
0,0,0,0,0,0,1,1,0,0,1,1,0,0,0,1
18.172
0,0,0,0,0,0,1,1,0,0,1,1,0,0,1,0
1.615
0,0,0,0,0,0,1,1,0,0,1,1,0,0,1,1
18.047
0,0,0,0,0,0,1,1,0,0,1,1,0,1,0,0
26.257
0,0,0,0,0,0,1,1,0,0,1,1,0,1,0,1
39.145
0,0,0,0,0,0,1,1,0,0,1,1,0,1,1,0
26.108
0,0,0,0,0,0,1,1,0,0,1,1,0,1,1,1
38.435
0,0,0,0,0,0,1,1,0,0,1,1,1,0,0,0
1.617
0,0,0,0,0,0,1,1,0,0,1,1,1,0,0,1
17.858
0,0,0,0,0,0,1,1,0,0,1,1,1,0,1,0
1.618
0,0,0,0,0,0,1,1,0,0,1,1,1,0,1,1
17.758
0,0,0,0,0,0,1,1,0,0,1,1,1,1,0,0
25.918
0,0,0,0,0,0,1,1,0,0,1,1,1,1,0,1
38.46
0,0,0,0,0,0,1,1,0,0,1,1,1,1,1,0
25.855
0,0,0,0,0,0,1,1,0,0,1,1,1,1,1,1
38.366
0,0,0,0,0,0,1,1,0,1,0,0,0,0,0,0
33.649
0,0,0,0,0,0,1,1,0,1,0,0,0,0,0,1
25.255
0,0,0,0,0,0,1,1,0,1,0,0,0,0,1,0
33.631
0,0,0,0,0,0,1,1,0,1,0,0,0,0,1,1
25.325
0,0,0,0,0,0,1,1,0,1,0,0,0,1,0,0
27.589
0,0,0,0,0,0,1,1,0,1,0,0,0,1,0,1
15.491
0,0,0,0,0,0,1,1,0,1,0,0,0,1,1,0
27.89
0,0,0,0,0,0,1,1,0,1,0,0,0,1,1,1
15.492
0,0,0,0,0,0,1,1,0,1,0,0,1,0,0,0
34.15
0,0,0,0,0,0,1,1,0,1,0,0,1,0,0,1
25.039
0,0,0,0,0,0,1,1,0,1,0,0,1,0,1,0
34.038
0,0,0,0,0,0,1,1,0,1,0,0,1,0,1,1
24.84
0,0,0,0,0,0,1,1,0,1,0,0,1,1,0,0
27.59
0,0,0,0,0,0,1,1,0,1,0,0,1,1,0,1
14.925
0,0,0,0,0,0,1,1,0,1,0,0,1,1,1,0
27.657
0,0,0,0,0,0,1,1,0,1,0,0,1,1,1,1
15.129
0,0,0,0,0,0,1,1,0,1,0,1,0,0,0,0
33.763
0,0,0,0,0,0,1,1,0,1,0,1,0,0,0,1
25.233
0,0,0,0,0,0,1,1,0,1,0,1,0,0,1,0
33.756
0,0,0,0,0,0,1,1,0,1,0,1,0,0,1,1
25.208
0,0,0,0,0,0,1,1,0,1,0,1,0,1,0,0
27.18
0,0,0,0,0,0,1,1,0,1,0,1,0,1,0,1
14.903
0,0,0,0,0,0,1,1,0,1,0,1,0,1,1,0
27.421
0,0,0,0,0,0,1,1,0,1,0,1,0,1,1,1
14.987
0,0,0,0,0,0,1,1,0,1,0,1,1,0,0,1
24.697
0,0,0,0,0,0,1,1,0,1,0,1,1,0,1,0
33.59
0,0,0,0,0,0,1,1,0,1,0,1,1,0,1,1
24.732
0,0,0,0,0,0,1,1,0,1,0,1,1,1,0,0
27.01
0,0,0,0,0,0,1,1,0,1,0,1,1,1,0,1
14.45
0,0,0,0,0,0,1,1,0,1,0,1,1,1,1,0
26.921
0,0,0,0,0,0,1,1,0,1,0,1,1,1,1,1
14.278
0,0,0,0,0,0,1,1,0,1,1,0,0,0,0,0
33.802
0,0,0,0,0,0,1,1,0,1,1,0,0,0,0,1
25.346
0,0,0,0,0,0,1,1,0,1,1,0,0,0,1,0
33.962
0,0,0,0,0,0,1,1,0,1,1,0,0,0,1,1
25.518
0,0,0,0,0,0,1,1,0,1,1,0,0,1,0,0
27.897
0,0,0,0,0,0,1,1,0,1,1,0,0,1,0,1
15.475
0,0,0,0,0,0,1,1,0,1,1,0,0,1,1,0
27.477
0,0,0,0,0,0,1,1,0,1,1,0,0,1,1,1
15.39
0,0,0,0,0,0,1,1,0,1,1,0,1,0,0,0
33.818
0,0,0,0,0,0,1,1,0,1,1,0,1,0,0,1
24.722
0,0,0,0,0,0,1,1,0,1,1,0,1,0,1,0
33.934
0,0,0,0,0,0,1,1,0,1,1,0,1,0,1,1
24.894
0,0,0,0,0,0,1,1,0,1,1,0,1,1,0,0
27.94
0,0,0,0,0,0,1,1,0,1,1,0,1,1,0,1
14.522
0,0,0,0,0,0,1,1,0,1,1,0,1,1,1,0
26.264
0,0,0,0,0,0,1,1,0,1,1,0,1,1,1,1
14.191
0,0,0,0,0,0,1,1,0,1,1,1,0,0,0,0
32.29
0,0,0,0,0,0,1,1,0,1,1,1,0,0,0,1
23.914
0,0,0,0,0,0,1,1,0,1,1,1,0,0,1,0
32.057
0,0,0,0,0,0,1,1,0,1,1,1,0,0,1,1
23.981
0,0,0,0,0,0,1,1,0,1,1,1,0,1,0,0
25.775
0,0,0,0,0,0,1,1,0,1,1,1,0,1,0,1
14.322
0,0,0,0,0,0,1,1,0,1,1,1,0,1,1,0
25.688
0,0,0,0,0,0,1,1,0,1,1,1,0,1,1,1
14.023
0,0,0,0,0,0,1,1,0,1,1,1,1,0,0,0
32.093
0,0,0,0,0,0,1,1,0,1,1,1,1,0,0,1
23.421
0,0,0,0,0,0,1,1,0,1,1,1,1,0,1,0
32.098
0,0,0,0,0,0,1,1,0,1,1,1,1,0,1,1
23.46
0,0,0,0,0,0,1,1,0,1,1,1,1,1,0,0
25.811
0,0,0,0,0,0,1,1,0,1,1,1,1,1,0,1
13.739
0,0,0,0,0,0,1,1,0,1,1,1,1,1,1,0
25.818
0,0,0,0,0,0,1,1,0,1,1,1,1,1,1,1
13.634
0,0,0,0,0,0,1,1,1,0,0,0,0,0,0,0
4.717
0,0,0,0,0,0,1,1,1,0,0,0,0,0,0,1
18.539
0,0,0,0,0,0,1,1,1,0,0,0,0,0,1,0
4.72
0,0,0,0,0,0,1,1,1,0,0,0,0,0,1,1
18.324
0,0,0,0,0,0,1,1,1,0,0,0,0,1,0,0
24.335
0,0,0,0,0,0,1,1,1,0,0,0,0,1,0,1
34.552
0,0,0,0,0,0,1,1,1,0,0,0,0,1,1,0
24.238
0,0,0,0,0,0,1,1,1,0,0,0,0,1,1,1
34.398
0,0,0,0,0,0,1,1,1,0,0,0,1,0,0,0
4.718
0,0,0,0,0,0,1,1,1,0,0,0,1,0,0,1
17.97
0,0,0,0,0,0,1,1,1,0,0,0,1,0,1,0
4.748
0,0,0,0,0,0,1,1,1,0,0,0,1,0,1,1
17.824
0,0,0,0,0,0,1,1,1,0,0,0,1,1,0,0
24.272
0,0,0,0,0,0,1,1,1,0,0,0,1,1,0,1
34.009
0,0,0,0,0,0,1,1,1,0,0,0,1,1,1,0
24.244
0,0,0,0,0,0,1,1,1,0,0,0,1,1,1,1
33.78
0,0,0,0,0,0,1,1,1,0,0,1,0,0,0,0
5.474
0,0,0,0,0,0,1,1,1,0,0,1,0,0,0,1
19.176
0,0,0,0,0,0,1,1,1,0,0,1,0,0,1,0
5.486
0,0,0,0,0,0,1,1,1,0,0,1,0,0,1,1
19.011
0,0,0,0,0,0,1,1,1,0,0,1,0,1,0,0
24.834
0,0,0,0,0,0,1,1,1,0,0,1,0,1,0,1
35.608
0,0,0,0,0,0,1,1,1,0,0,1,0,1,1,0
24.529
0,0,0,0,0,0,1,1,1,0,0,1,0,1,1,1
34.613
0,0,0,0,0,0,1,1,1,0,0,1,1,0,0,1
18.792
0,0,0,0,0,0,1,1,1,0,0,1,1,0,1,0
5.558
0,0,0,0,0,0,1,1,1,0,0,1,1,0,1,1
18.579
0,0,0,0,0,0,1,1,1,0,0,1,1,1,0,0
24.718
0,0,0,0,0,0,1,1,1,0,0,1,1,1,0,1
34.201
0,0,0,0,0,0,1,1,1,0,0,1,1,1,1,0
24.704
0,0,0,0,0,0,1,1,1,0,0,1,1,1,1,1
34.162
0,0,0,0,0,0,1,1,1,0,1,0,0,0,0,0
4.689
0,0,0,0,0,0,1,1,1,0,1,0,0,0,0,1
18.541
0,0,0,0,0,0,1,1,1,0,1,0,0,0,1,0
4.737
0,0,0,0,0,0,1,1,1,0,1,0,0,0,1,1
18.391
0,0,0,0,0,0,1,1,1,0,1,0,0,1,0,0
24.313
0,0,0,0,0,0,1,1,1,0,1,0,0,1,0,1
34.558
0,0,0,0,0,0,1,1,1,0,1,0,0,1,1,0
24.311
0,0,0,0,0,0,1,1,1,0,1,0,0,1,1,1
34.588
0,0,0,0,0,0,1,1,1,0,1,0,1,0,0,0
4.681
0,0,0,0,0,0,1,1,1,0,1,0,1,0,0,1
17.975
0,0,0,0,0,0,1,1,1,0,1,0,1,0,1,0
4.784
0,0,0,0,0,0,1,1,1,0,1,0,1,0,1,1
17.882
0,0,0,0,0,0,1,1,1,0,1,0,1,1,0,0
24.317
0,0,0,0,0,0,1,1,1,0,1,0,1,1,0,1
34.05
0,0,0,0,0,0,1,1,1,0,1,0,1,1,1,0
24.217
0,0,0,0,0,0,1,1,1,0,1,0,1,1,1,1
33.875
0,0,0,0,0,0,1,1,1,0,1,1,0,0,0,0
5.506
0,0,0,0,0,0,1,1,1,0,1,1,0,0,0,1
19.264
0,0,0,0,0,0,1,1,1,0,1,1,0,0,1,0
5.498
0,0,0,0,0,0,1,1,1,0,1,1,0,0,1,1
19.012
0,0,0,0,0,0,1,1,1,0,1,1,0,1,0,0
24.64
0,0,0,0,0,0,1,1,1,0,1,1,0,1,0,1
34.771
0,0,0,0,0,0,1,1,1,0,1,1,0,1,1,0
24.553
0,0,0,0,0,0,1,1,1,0,1,1,0,1,1,1
34.734
0,0,0,0,0,0,1,1,1,0,1,1,1,0,0,0
5.475
0,0,0,0,0,0,1,1,1,0,1,1,1,0,0,1
18.789
0,0,0,0,0,0,1,1,1,0,1,1,1,0,1,0
5.524
0,0,0,0,0,0,1,1,1,0,1,1,1,0,1,1
18.629
0,0,0,0,0,0,1,1,1,0,1,1,1,1,0,0
24.722
0,0,0,0,0,0,1,1,1,0,1,1,1,1,0,1
34.328
0,0,0,0,0,0,1,1,1,0,1,1,1,1,1,0
24.664
0,0,0,0,0,0,1,1,1,0,1,1,1,1,1,1
34.203
0,0,0,0,0,0,1,1,1,1,0,0,0,0,0,0
32.346
0,0,0,0,0,0,1,1,1,1,0,0,0,0,0,1
22.535
0,0,0,0,0,0,1,1,1,1,0,0,0,0,1,0
32.451
0,0,0,0,0,0,1,1,1,1,0,0,0,1,0,0
25.071
0,0,0,0,0,0,1,1,1,1,0,0,0,1,0,1
11.6
0,0,0,0,0,0,1,1,1,1,0,0,0,1,1,0
25.25
0,0,0,0,0,0,1,1,1,1,0,0,0,1,1,1
11.542
0,0,0,0,0,0,1,1,1,1,0,0,1,0,0,0
32.381
0,0,0,0,0,0,1,1,1,1,0,0,1,0,0,1
21.899
0,0,0,0,0,0,1,1,1,1,0,0,1,0,1,0
32.383
0,0,0,0,0,0,1,1,1,1,0,0,1,0,1,1
21.869
0,0,0,0,0,0,1,1,1,1,0,0,1,1,0,0
25.111
0,0,0,0,0,0,1,1,1,1,0,0,1,1,0,1
11.231
0,0,0,0,0,0,1,1,1,1,0,0,1,1,1,0
25.315
0,0,0,0,0,0,1,1,1,1,0,0,1,1,1,1
11.121
0,0,0,0,0,0,1,1,1,1,0,1,0,0,0,0
32.277
0,0,0,0,0,0,1,1,1,1,0,1,0,0,0,1
22.185
0,0,0,0,0,0,1,1,1,1,0,1,0,0,1,0
32.215
0,0,0,0,0,0,1,1,1,1,0,1,0,0,1,1
22.251
0,0,0,0,0,0,1,1,1,1,0,1,0,1,0,0
24.601
0,0,0,0,0,0,1,1,1,1,0,1,0,1,0,1
11.025
0,0,0,0,0,0,1,1,1,1,0,1,0,1,1,0
24.59
0,0,0,0,0,0,1,1,1,1,0,1,0,1,1,1
10.993
0,0,0,0,0,0,1,1,1,1,0,1,1,0,0,0
32.283
0,0,0,0,0,0,1,1,1,1,0,1,1,0,0,1
21.859
0,0,0,0,0,0,1,1,1,1,0,1,1,0,1,0
32.401
0,0,0,0,0,0,1,1,1,1,0,1,1,0,1,1
21.894
0,0,0,0,0,0,1,1,1,1,0,1,1,1,0,0
24.742
0,0,0,0,0,0,1,1,1,1,0,1,1,1,0,1
10.498
0,0,0,0,0,0,1,1,1,1,0,1,1,1,1,0
24.674
0,0,0,0,0,0,1,1,1,1,0,1,1,1,1,1
10.459
0,0,0,0,0,0,1,1,1,1,1,0,0,0,0,0
32.482
0,0,0,0,0,0,1,1,1,1,1,0,0,0,0,1
23.395
0,0,0,0,0,0,1,1,1,1,1,0,0,0,1,0
32.708
0,0,0,0,0,0,1,1,1,1,1,0,0,0,1,1
22.697
0,0,0,0,0,0,1,1,1,1,1,0,0,1,0,0
25.218
0,0,0,0,0,0,1,1,1,1,1,0,0,1,0,1
11.545
0,0,0,0,0,0,1,1,1,1,1,0,0,1,1,0
25.195
0,0,0,0,0,0,1,1,1,1,1,0,0,1,1,1
11.486
0,0,0,0,0,0,1,1,1,1,1,0,1,0,0,0
32.582
0,0,0,0,0,0,1,1,1,1,1,0,1,0,0,1
21.89
0,0,0,0,0,0,1,1,1,1,1,0,1,0,1,0
32.533
0,0,0,0,0,0,1,1,1,1,1,0,1,0,1,1
21.972
0,0,0,0,0,0,1,1,1,1,1,0,1,1,0,0
25.237
0,0,0,0,0,0,1,1,1,1,1,0,1,1,0,1
11.075
0,0,0,0,0,0,1,1,1,1,1,0,1,1,1,0
25.192
0,0,0,0,0,0,1,1,1,1,1,0,1,1,1,1
11.066
0,0,0,0,0,0,1,1,1,1,1,1,0,0,0,0
32.41
0,0,0,0,0,0,1,1,1,1,1,1,0,0,0,1
22.205
0,0,0,0,0,0,1,1,1,1,1,1,0,0,1,0
32.246
0,0,0,0,0,0,1,1,1,1,1,1,0,0,1,1
22.215
0,0,0,0,0,0,1,1,1,1,1,1,0,1,0,0
24.602
0,0,0,0,0,0,1,1,1,1,1,1,0,1,0,1
11.039
0,0,0,0,0,0,1,1,1,1,1,1,0,1,1,0
24.665
0,0,0,0,0,0,1,1,1,1,1,1,0,1,1,1
11.039
0,0,0,0,0,0,1,1,1,1,1,1,1,0,0,0
32.317
0,0,0,0,0,0,1,1,1,1,1,1,1,0,0,1
21.771
0,0,0,0,0,0,1,1,1,1,1,1,1,0,1,0
32.182
0,0,0,0,0,0,1,1,1,1,1,1,1,0,1,1
21.748
0,0,0,0,0,0,1,1,1,1,1,1,1,1,0,0
24.672
0,0,0,0,0,0,1,1,1,1,1,1,1,1,0,1
10.489
0,0,0,0,0,0,1,1,1,1,1,1,1,1,1,0
24.618
0,0,0,0,0,0,1,1,1,1,1,1,1,1,1,1
10.6
0,0,0,0,0,1,0,0,0,0,0,0,0,0,0,0
2.355
0,0,0,0,0,1,0,0,0,0,0,0,0,0,0,1
17.995
0,0,0,0,0,1,0,0,0,0,0,0,0,0,1,0
2.258
0,0,0,0,0,1,0,0,0,0,0,0,0,1,0,0
25.919
0,0,0,0,0,1,0,0,0,0,0,0,0,1,0,1
37.782
0,0,0,0,0,1,0,0,0,0,0,0,0,1,1,0
25.826
0,0,0,0,0,1,0,0,0,0,0,0,0,1,1,1
37.864
0,0,0,0,0,1,0,0,0,0,0,0,1,0,0,0
2.346
0,0,0,0,0,1,0,0,0,0,0,0,1,0,0,1
17.501
0,0,0,0,0,1,0,0,0,0,0,0,1,0,1,0
2.238
0,0,0,0,0,1,0,0,0,0,0,0,1,0,1,1
17.373
0,0,0,0,0,1,0,0,0,0,0,0,1,1,0,0
27.101
0,0,0,0,0,1,0,0,0,0,0,0,1,1,0,1
38.87
0,0,0,0,0,1,0,0,0,0,0,0,1,1,1,0
26.863
0,0,0,0,0,1,0,0,0,0,0,0,1,1,1,1
38.951
0,0,0,0,0,1,0,0,0,0,0,1,0,0,0,0
3.081
0,0,0,0,0,1,0,0,0,0,0,1,0,0,0,1
19.506
0,0,0,0,0,1,0,0,0,0,0,1,0,0,1,0
3.107
0,0,0,0,0,1,0,0,0,0,0,1,0,0,1,1
75.831
0,0,0,0,0,1,0,0,0,0,0,1,0,1,0,0
101.936
0,0,0,0,0,1,0,0,0,0,0,1,0,1,0,1
147.84
0,0,0,0,0,1,0,0,0,0,0,1,0,1,1,0
97.863
0,0,0,0,0,1,0,0,0,0,0,1,0,1,1,1
147.538
0,0,0,0,0,1,0,0,0,0,0,1,1,0,0,0
12.535
0,0,0,0,1,1,0,0,0,0,0,1,1,0,0,0
0.426
0,0,0,1,0,1,0,0,0,0,0,1,1,0,0,0
1.519
0,0,1,0,0,1,0,0,0,0,0,1,1,0,0,0
1.493
0,1,0,0,0,1,0,0,0,0,0,1,1,0,0,0
1.447
1,0,0,0,0,1,0,0,0,0,0,1,1,0,0,0
1.413
